{
  "language": "Solidity",
  "sources": {
    "contracts/Agreement.sol": {
      "content": "/*\r\n* Copyright (c) Siemens AG, 2020-2022\r\n*\r\n* Authors:\r\n*  Susanne Stahnke <susanne.stahnke@siemens.com>,\r\n*  Yvonne Kovacs <yvonne.kovacs@siemens.com> \r\n*\r\n* This work is licensed under the terms of Apache 2.0.  See\r\n* the LICENSE file in the top-level directory.\r\n*/\r\n\r\npragma solidity 0.8.9;\r\n\r\nimport \"hardhat/console.sol\";\r\nimport \"./AgreementViolation.sol\";\r\n\r\ncontract DataSharingAgreement {\r\n\r\n    AgreementViolation public agreementViolation = new AgreementViolation();\r\n\r\n    enum State { Created, Active, Updated, Violated, Terminated }\r\n\r\n    struct Agreement {\r\n        uint256 agreementId;\r\n        string providerPublicKey;\r\n        string consumerPublicKey;\r\n        string dataExchangeAgreementHash;\r\n        DataOffering dataOffering;\r\n        string purpose;\r\n        State state;\r\n        string providerId;\r\n        string consumerId;\r\n        uint256[3] agreementDates;\r\n        IntendedUse intendedUse;\r\n        LicenseGrant licenseGrant;\r\n        bool dataStream;\r\n        bool signed;\r\n    }\r\n\r\n    struct DataOffering {\r\n        string dataOfferingId; \r\n        uint256 dataOfferingVersion;\r\n    }\r\n    \r\n    struct IntendedUse {\r\n        bool processData;\r\n        bool shareDataWithThirdParty;\r\n        bool editData;\r\n    }\r\n    \r\n    struct LicenseGrant {\r\n        bool copyData;\r\n        bool transferable;\r\n        bool exclusiveness;\r\n        bool revocable;\r\n    }\r\n\r\n    Agreement[] public agreements;\r\n\r\n    uint256 activeAgreementCount;\r\n    mapping (string => uint) providerCount;\r\n    mapping (string => uint) consumerCount;\r\n    mapping (string => uint) consumerActiveCount;\r\n    mapping (string => uint) consumerPublicKeyCount;\r\n    mapping (string => uint) dataOfferingCount;\r\n\r\n    event AgreementCreated(string providerId, string consumerId, uint256 id);\r\n    event AgreementUpdated(string providerId, string consumerId, uint256 id);\r\n    event AgreementSigned(string providerId, string consumerId, uint256 id);\r\n    event SignedResolutionEvaluated(string providerId, string consumerId, uint256 id);\r\n    event AgreementTerminated(string providerId, string consumerId,uint256 id);\r\n\r\n    function createAgreement(\r\n                            string memory _providerPublicKey,\r\n                            string memory _consumerPublicKey,\r\n                            string memory _dataExchangeAgreementHash,\r\n                            DataOffering memory dataOffering,\r\n                            string memory _purpose,\r\n                            string memory _providerId,\r\n                            string memory _consumerId,\r\n                            uint256[] memory dates,\r\n                            IntendedUse memory intendedUse,\r\n                            LicenseGrant memory licenseGrant,\r\n                            bool _dataStream\r\n                            ) public {\r\n                            \r\n        Agreement memory newAgreement;\r\n        newAgreement.providerPublicKey = _providerPublicKey;\r\n        newAgreement.consumerPublicKey = _consumerPublicKey;\r\n        newAgreement.dataExchangeAgreementHash = _dataExchangeAgreementHash;\r\n        newAgreement.dataOffering.dataOfferingId = dataOffering.dataOfferingId;\r\n        newAgreement.dataOffering.dataOfferingVersion = dataOffering.dataOfferingVersion;\r\n        newAgreement.purpose = _purpose;\r\n        newAgreement.providerId = _providerId;\r\n        newAgreement.consumerId = _consumerId;\r\n    \r\n        newAgreement.state = State.Created;\r\n        newAgreement.agreementDates[0] = dates[0]; \r\n        newAgreement.agreementDates[1] = dates[1];\r\n     \r\n        require ( dates[1] >= newAgreement.agreementDates[0], \"Start date must be after creation date.\" );\r\n        require ( dates[2] > dates[1], \"End date must be after start date.\" );\r\n        newAgreement.agreementDates[2] = dates[2];\r\n        \r\n        newAgreement.intendedUse.processData = intendedUse.processData;\r\n        newAgreement.intendedUse.shareDataWithThirdParty = intendedUse.shareDataWithThirdParty;\r\n        newAgreement.intendedUse.editData = intendedUse.editData;\r\n        \r\n        newAgreement.licenseGrant.copyData = licenseGrant.copyData;\r\n        newAgreement.licenseGrant.transferable = licenseGrant.transferable;\r\n        newAgreement.licenseGrant.exclusiveness = licenseGrant.exclusiveness;\r\n        newAgreement.licenseGrant.revocable = licenseGrant.revocable;\r\n        \r\n        newAgreement.dataStream = _dataStream;\r\n        \r\n\r\n        newAgreement.agreementId = agreements.length;\r\n        \r\n        agreements.push(newAgreement);\r\n\r\n        consumerCount[_consumerId]++;\r\n        \r\n        dataOfferingCount[dataOffering.dataOfferingId]++;\r\n        \r\n        emit AgreementCreated(_providerId, _consumerId, agreements.length - 1);  \r\n    }\r\n    \r\n    function updateAgreement(uint256 _id,\r\n                            string memory _providerPublicKey,\r\n                            string memory _consumerPublicKey,\r\n                            string memory _dataOfferingId,\r\n                            string memory _purpose,\r\n                            string memory _providerId,\r\n                            string memory _consumerId,\r\n                            uint256[] memory dates,\r\n                            IntendedUse memory intendedUse,\r\n                            LicenseGrant memory licenseGrant,\r\n                            bool _dataStream) public {\r\n       \r\n        Agreement storage agreement = agreements[_id];  \r\n\r\n        require (keccak256(abi.encodePacked(agreements[_id].providerId)) == keccak256(abi.encodePacked(_providerId)), \"Not the provider of the agreement\" ); \r\n        \r\n        if(agreement.state == State.Active)\r\n        {\r\n            agreement.purpose = _purpose;\r\n            agreement.agreementDates[1] = dates[0];\r\n     \r\n            require ( dates[0] >= agreement.agreementDates[0], \"Start date must be after creation date.\" );\r\n            require ( dates[1] > dates[0], \"End date must be after start date.\" );\r\n            agreement.agreementDates[2] = dates[1];\r\n        \r\n            agreement.intendedUse.processData = intendedUse.processData;\r\n            agreement.intendedUse.shareDataWithThirdParty = intendedUse.shareDataWithThirdParty;\r\n            agreement.intendedUse.editData = intendedUse.editData;\r\n        \r\n            agreement.licenseGrant.copyData = licenseGrant.copyData;\r\n            agreement.licenseGrant.transferable = licenseGrant.transferable;\r\n            agreement.licenseGrant.exclusiveness = licenseGrant.exclusiveness;\r\n            agreement.licenseGrant.revocable = licenseGrant.revocable;\r\n\r\n            agreement.dataStream = _dataStream;\r\n\r\n            agreement.state = State.Updated;\r\n            agreements[_id].signed = false;\r\n            activeAgreementCount--;\r\n            providerCount[_providerId]--;\r\n            consumerActiveCount[_consumerId]--;\r\n            consumerPublicKeyCount[_consumerPublicKey]--;\r\n\r\n            emit AgreementUpdated(_providerId, _consumerId, _id);\r\n        }\r\n    }\r\n\r\n    function signAgreement (uint256 _id, string memory _consumerId) public {\r\n        require (keccak256(abi.encodePacked(agreements[_id].consumerId)) == keccak256(abi.encodePacked(_consumerId)), \"Not the consumer of agreement.\" );\r\n    \r\n        agreements[_id].signed = true;\r\n\r\n        if(agreements[_id].agreementDates[2]>=block.timestamp) {\r\n            agreements[_id].state = State.Active;\r\n            activeAgreementCount++;\r\n            providerCount[agreements[_id].providerId]++;\r\n            consumerActiveCount[_consumerId]++;\r\n            consumerPublicKeyCount[agreements[_id].consumerPublicKey]++;\r\n            emit AgreementSigned(agreements[_id].providerId,_consumerId, _id);\r\n        }\r\n    }\r\n\r\n    function getAgreement(uint256 id) public view returns (Agreement memory) {\r\n        return agreements[id];\r\n    }\r\n\r\n    function getAgreementsLength() public view returns (uint256) {\r\n        return agreements.length;\r\n    } \r\n\r\n     function getState(uint256 id) public view returns (State) {\r\n        return agreements[id].state;\r\n    } \r\n    \r\n    function checkActiveAgreements () external view returns (Agreement[] memory) {\r\n        Agreement[] memory activeAgreements = new Agreement[](activeAgreementCount);\r\n        uint counter = 0;\r\n        for (uint i = 0; i < agreements.length; i++){\r\n            if(agreements[i].state == State.Active) {   \r\n                activeAgreements[counter++] = agreements[i];\r\n            }\r\n        }\r\n        return activeAgreements;\r\n    }\r\n\r\n    function checkAgreementsByConsumer (string memory _consumerId, bool active) external view returns (Agreement[] memory) {\r\n        uint256 counter = 0;\r\n        Agreement[] memory consumerAgreements;\r\n        if(active) {\r\n            consumerAgreements = new Agreement[](consumerActiveCount[_consumerId]);\r\n            for (uint i = 0; i < agreements.length; i++)\r\n                if (agreements[i].state == State.Active && keccak256(abi.encodePacked(agreements[i].consumerId)) == keccak256(abi.encodePacked(_consumerId))){\r\n                    consumerAgreements[counter++] = agreements[i];\r\n                }  \r\n        }\r\n        else {\r\n            consumerAgreements = new Agreement[](consumerCount[_consumerId]);\r\n            for (uint i = 0; i < agreements.length; i++)\r\n                if (keccak256(abi.encodePacked(agreements[i].consumerId)) == keccak256(abi.encodePacked(_consumerId))){\r\n                    consumerAgreements[counter++] = agreements[i];\r\n                }\r\n        }\r\n        return consumerAgreements;\r\n    }\r\n\r\n    function checkAgreementsByProvider (string memory _providerId, bool active) external view returns (Agreement[] memory) {\r\n        uint256 counter = 0;\r\n        Agreement[] memory providerAgreements;\r\n        if(active) {\r\n            providerAgreements = new Agreement[](providerCount[_providerId]);\r\n            for (uint i = 0; i < agreements.length; i++)\r\n                if (agreements[i].state == State.Active && keccak256(abi.encodePacked(agreements[i].providerId)) == keccak256(abi.encodePacked(_providerId))){\r\n                    providerAgreements[counter++] = agreements[i];\r\n                }  \r\n        }\r\n        else {\r\n            providerAgreements = new Agreement[](providerCount[_providerId]);\r\n            for (uint i = 0; i < agreements.length; i++)\r\n                if (keccak256(abi.encodePacked(agreements[i].providerId)) == keccak256(abi.encodePacked(_providerId))){\r\n                    providerAgreements[counter++] = agreements[i];\r\n                }\r\n        }\r\n        return providerAgreements;\r\n    }\r\n\r\n    function checkAgreementsByDataOffering (string memory _dataOffering) external view returns (Agreement[] memory) {\r\n        Agreement[] memory dataOfferingAgreements = new Agreement[](dataOfferingCount[_dataOffering]);\r\n        uint counter = 0;\r\n        for (uint i = 0; i < agreements.length; i++){\r\n            if (keccak256(abi.encodePacked(agreements[i].dataOffering.dataOfferingId)) == keccak256(abi.encodePacked(_dataOffering))) {\r\n                dataOfferingAgreements[counter++] = agreements[i];\r\n            }\r\n        }\r\n        return dataOfferingAgreements;\r\n    }\r\n     \r\n    function retrieveAgreements (string memory _consumerPublicKey) external view returns (Agreement[] memory, uint256 counter) {\r\n\r\n        Agreement[] memory consumerPublicKeyAgreements = new Agreement[](consumerPublicKeyCount[_consumerPublicKey]);\r\n        uint256 counter = 0;\r\n        for (uint i = 0; i < agreements.length; i++){\r\n            if (agreements[i].state == State.Active && agreements[i].agreementDates[1]<=block.timestamp && keccak256(abi.encodePacked(agreements[i].consumerPublicKey)) == keccak256(abi.encodePacked(_consumerPublicKey))) {\r\n                consumerPublicKeyAgreements[counter++] = agreements[i];\r\n            }\r\n        }\r\n        return (consumerPublicKeyAgreements, counter);\r\n      \r\n    }\r\n\r\n    function evaluateSignedResolution(uint256 _agreementId, string memory _proofType, string memory _type, string memory _resolution,\r\n                                string memory _dataExchangeId, uint256 _iat, string memory _iss, string memory _sub) public {\r\n\r\n      agreementViolation.evaluateResolution(_agreementId, _proofType, _type, _resolution, _dataExchangeId, _iat, _iss, _sub);\r\n      if(agreementViolation.getPenaltyChoices(_agreementId).length>0){\r\n        agreements[_agreementId].state=State.Violated;\r\n      }\r\n      emit SignedResolutionEvaluated(agreements[_agreementId].providerId, agreements[_agreementId].consumerId, _agreementId);\r\n\r\n\t}\r\n\r\n    function presentPenaltyChoices(uint256 _agreementId) public view returns (string[] memory) { \r\n        return agreementViolation.getPenaltyChoices(_agreementId);\r\n    }\r\n\r\n\r\n    function terminateAgreement(uint256 _id) public {\r\n        if(agreements[_id].agreementDates[2]<=block.timestamp){\r\n            if(agreements[_id].state == State.Active){\r\n                activeAgreementCount--;\r\n                providerCount[agreements[_id].providerId]--;\r\n                consumerActiveCount[agreements[_id].consumerId]--;\r\n                consumerPublicKeyCount[agreements[_id].consumerPublicKey]--;\r\n            }     \r\n            agreements[_id].state = State.Terminated;\r\n            emit AgreementTerminated(agreements[_id].providerId,agreements[_id].consumerId, _id);\r\n        }\r\n    }\r\n\r\n    \r\n}\r\n\r\n\r\n\r\n"
    },
    "hardhat/console.sol": {
      "content": "// SPDX-License-Identifier: MIT\npragma solidity >= 0.4.22 <0.9.0;\n\nlibrary console {\n\taddress constant CONSOLE_ADDRESS = address(0x000000000000000000636F6e736F6c652e6c6f67);\n\n\tfunction _sendLogPayload(bytes memory payload) private view {\n\t\tuint256 payloadLength = payload.length;\n\t\taddress consoleAddress = CONSOLE_ADDRESS;\n\t\tassembly {\n\t\t\tlet payloadStart := add(payload, 32)\n\t\t\tlet r := staticcall(gas(), consoleAddress, payloadStart, payloadLength, 0, 0)\n\t\t}\n\t}\n\n\tfunction log() internal view {\n\t\t_sendLogPayload(abi.encodeWithSignature(\"log()\"));\n\t}\n\n\tfunction logInt(int p0) internal view {\n\t\t_sendLogPayload(abi.encodeWithSignature(\"log(int)\", p0));\n\t}\n\n\tfunction logUint(uint p0) internal view {\n\t\t_sendLogPayload(abi.encodeWithSignature(\"log(uint)\", p0));\n\t}\n\n\tfunction logString(string memory p0) internal view {\n\t\t_sendLogPayload(abi.encodeWithSignature(\"log(string)\", p0));\n\t}\n\n\tfunction logBool(bool p0) internal view {\n\t\t_sendLogPayload(abi.encodeWithSignature(\"log(bool)\", p0));\n\t}\n\n\tfunction logAddress(address p0) internal view {\n\t\t_sendLogPayload(abi.encodeWithSignature(\"log(address)\", p0));\n\t}\n\n\tfunction logBytes(bytes memory p0) internal view {\n\t\t_sendLogPayload(abi.encodeWithSignature(\"log(bytes)\", p0));\n\t}\n\n\tfunction logBytes1(bytes1 p0) internal view {\n\t\t_sendLogPayload(abi.encodeWithSignature(\"log(bytes1)\", p0));\n\t}\n\n\tfunction logBytes2(bytes2 p0) internal view {\n\t\t_sendLogPayload(abi.encodeWithSignature(\"log(bytes2)\", p0));\n\t}\n\n\tfunction logBytes3(bytes3 p0) internal view {\n\t\t_sendLogPayload(abi.encodeWithSignature(\"log(bytes3)\", p0));\n\t}\n\n\tfunction logBytes4(bytes4 p0) internal view {\n\t\t_sendLogPayload(abi.encodeWithSignature(\"log(bytes4)\", p0));\n\t}\n\n\tfunction logBytes5(bytes5 p0) internal view {\n\t\t_sendLogPayload(abi.encodeWithSignature(\"log(bytes5)\", p0));\n\t}\n\n\tfunction logBytes6(bytes6 p0) internal view {\n\t\t_sendLogPayload(abi.encodeWithSignature(\"log(bytes6)\", p0));\n\t}\n\n\tfunction logBytes7(bytes7 p0) internal view {\n\t\t_sendLogPayload(abi.encodeWithSignature(\"log(bytes7)\", p0));\n\t}\n\n\tfunction logBytes8(bytes8 p0) internal view {\n\t\t_sendLogPayload(abi.encodeWithSignature(\"log(bytes8)\", p0));\n\t}\n\n\tfunction logBytes9(bytes9 p0) internal view {\n\t\t_sendLogPayload(abi.encodeWithSignature(\"log(bytes9)\", p0));\n\t}\n\n\tfunction logBytes10(bytes10 p0) internal view {\n\t\t_sendLogPayload(abi.encodeWithSignature(\"log(bytes10)\", p0));\n\t}\n\n\tfunction logBytes11(bytes11 p0) internal view {\n\t\t_sendLogPayload(abi.encodeWithSignature(\"log(bytes11)\", p0));\n\t}\n\n\tfunction logBytes12(bytes12 p0) internal view {\n\t\t_sendLogPayload(abi.encodeWithSignature(\"log(bytes12)\", p0));\n\t}\n\n\tfunction logBytes13(bytes13 p0) internal view {\n\t\t_sendLogPayload(abi.encodeWithSignature(\"log(bytes13)\", p0));\n\t}\n\n\tfunction logBytes14(bytes14 p0) internal view {\n\t\t_sendLogPayload(abi.encodeWithSignature(\"log(bytes14)\", p0));\n\t}\n\n\tfunction logBytes15(bytes15 p0) internal view {\n\t\t_sendLogPayload(abi.encodeWithSignature(\"log(bytes15)\", p0));\n\t}\n\n\tfunction logBytes16(bytes16 p0) internal view {\n\t\t_sendLogPayload(abi.encodeWithSignature(\"log(bytes16)\", p0));\n\t}\n\n\tfunction logBytes17(bytes17 p0) internal view {\n\t\t_sendLogPayload(abi.encodeWithSignature(\"log(bytes17)\", p0));\n\t}\n\n\tfunction logBytes18(bytes18 p0) internal view {\n\t\t_sendLogPayload(abi.encodeWithSignature(\"log(bytes18)\", p0));\n\t}\n\n\tfunction logBytes19(bytes19 p0) internal view {\n\t\t_sendLogPayload(abi.encodeWithSignature(\"log(bytes19)\", p0));\n\t}\n\n\tfunction logBytes20(bytes20 p0) internal view {\n\t\t_sendLogPayload(abi.encodeWithSignature(\"log(bytes20)\", p0));\n\t}\n\n\tfunction logBytes21(bytes21 p0) internal view {\n\t\t_sendLogPayload(abi.encodeWithSignature(\"log(bytes21)\", p0));\n\t}\n\n\tfunction logBytes22(bytes22 p0) internal view {\n\t\t_sendLogPayload(abi.encodeWithSignature(\"log(bytes22)\", p0));\n\t}\n\n\tfunction logBytes23(bytes23 p0) internal view {\n\t\t_sendLogPayload(abi.encodeWithSignature(\"log(bytes23)\", p0));\n\t}\n\n\tfunction logBytes24(bytes24 p0) internal view {\n\t\t_sendLogPayload(abi.encodeWithSignature(\"log(bytes24)\", p0));\n\t}\n\n\tfunction logBytes25(bytes25 p0) internal view {\n\t\t_sendLogPayload(abi.encodeWithSignature(\"log(bytes25)\", p0));\n\t}\n\n\tfunction logBytes26(bytes26 p0) internal view {\n\t\t_sendLogPayload(abi.encodeWithSignature(\"log(bytes26)\", p0));\n\t}\n\n\tfunction logBytes27(bytes27 p0) internal view {\n\t\t_sendLogPayload(abi.encodeWithSignature(\"log(bytes27)\", p0));\n\t}\n\n\tfunction logBytes28(bytes28 p0) internal view {\n\t\t_sendLogPayload(abi.encodeWithSignature(\"log(bytes28)\", p0));\n\t}\n\n\tfunction logBytes29(bytes29 p0) internal view {\n\t\t_sendLogPayload(abi.encodeWithSignature(\"log(bytes29)\", p0));\n\t}\n\n\tfunction logBytes30(bytes30 p0) internal view {\n\t\t_sendLogPayload(abi.encodeWithSignature(\"log(bytes30)\", p0));\n\t}\n\n\tfunction logBytes31(bytes31 p0) internal view {\n\t\t_sendLogPayload(abi.encodeWithSignature(\"log(bytes31)\", p0));\n\t}\n\n\tfunction logBytes32(bytes32 p0) internal view {\n\t\t_sendLogPayload(abi.encodeWithSignature(\"log(bytes32)\", p0));\n\t}\n\n\tfunction log(uint p0) internal view {\n\t\t_sendLogPayload(abi.encodeWithSignature(\"log(uint)\", p0));\n\t}\n\n\tfunction log(string memory p0) internal view {\n\t\t_sendLogPayload(abi.encodeWithSignature(\"log(string)\", p0));\n\t}\n\n\tfunction log(bool p0) internal view {\n\t\t_sendLogPayload(abi.encodeWithSignature(\"log(bool)\", p0));\n\t}\n\n\tfunction log(address p0) internal view {\n\t\t_sendLogPayload(abi.encodeWithSignature(\"log(address)\", p0));\n\t}\n\n\tfunction log(uint p0, uint p1) internal view {\n\t\t_sendLogPayload(abi.encodeWithSignature(\"log(uint,uint)\", p0, p1));\n\t}\n\n\tfunction log(uint p0, string memory p1) internal view {\n\t\t_sendLogPayload(abi.encodeWithSignature(\"log(uint,string)\", p0, p1));\n\t}\n\n\tfunction log(uint p0, bool p1) internal view {\n\t\t_sendLogPayload(abi.encodeWithSignature(\"log(uint,bool)\", p0, p1));\n\t}\n\n\tfunction log(uint p0, address p1) internal view {\n\t\t_sendLogPayload(abi.encodeWithSignature(\"log(uint,address)\", p0, p1));\n\t}\n\n\tfunction log(string memory p0, uint p1) internal view {\n\t\t_sendLogPayload(abi.encodeWithSignature(\"log(string,uint)\", p0, p1));\n\t}\n\n\tfunction log(string memory p0, string memory p1) internal view {\n\t\t_sendLogPayload(abi.encodeWithSignature(\"log(string,string)\", p0, p1));\n\t}\n\n\tfunction log(string memory p0, bool p1) internal view {\n\t\t_sendLogPayload(abi.encodeWithSignature(\"log(string,bool)\", p0, p1));\n\t}\n\n\tfunction log(string memory p0, address p1) internal view {\n\t\t_sendLogPayload(abi.encodeWithSignature(\"log(string,address)\", p0, p1));\n\t}\n\n\tfunction log(bool p0, uint p1) internal view {\n\t\t_sendLogPayload(abi.encodeWithSignature(\"log(bool,uint)\", p0, p1));\n\t}\n\n\tfunction log(bool p0, string memory p1) internal view {\n\t\t_sendLogPayload(abi.encodeWithSignature(\"log(bool,string)\", p0, p1));\n\t}\n\n\tfunction log(bool p0, bool p1) internal view {\n\t\t_sendLogPayload(abi.encodeWithSignature(\"log(bool,bool)\", p0, p1));\n\t}\n\n\tfunction log(bool p0, address p1) internal view {\n\t\t_sendLogPayload(abi.encodeWithSignature(\"log(bool,address)\", p0, p1));\n\t}\n\n\tfunction log(address p0, uint p1) internal view {\n\t\t_sendLogPayload(abi.encodeWithSignature(\"log(address,uint)\", p0, p1));\n\t}\n\n\tfunction log(address p0, string memory p1) internal view {\n\t\t_sendLogPayload(abi.encodeWithSignature(\"log(address,string)\", p0, p1));\n\t}\n\n\tfunction log(address p0, bool p1) internal view {\n\t\t_sendLogPayload(abi.encodeWithSignature(\"log(address,bool)\", p0, p1));\n\t}\n\n\tfunction log(address p0, address p1) internal view {\n\t\t_sendLogPayload(abi.encodeWithSignature(\"log(address,address)\", p0, p1));\n\t}\n\n\tfunction log(uint p0, uint p1, uint p2) internal view {\n\t\t_sendLogPayload(abi.encodeWithSignature(\"log(uint,uint,uint)\", p0, p1, p2));\n\t}\n\n\tfunction log(uint p0, uint p1, string memory p2) internal view {\n\t\t_sendLogPayload(abi.encodeWithSignature(\"log(uint,uint,string)\", p0, p1, p2));\n\t}\n\n\tfunction log(uint p0, uint p1, bool p2) internal view {\n\t\t_sendLogPayload(abi.encodeWithSignature(\"log(uint,uint,bool)\", p0, p1, p2));\n\t}\n\n\tfunction log(uint p0, uint p1, address p2) internal view {\n\t\t_sendLogPayload(abi.encodeWithSignature(\"log(uint,uint,address)\", p0, p1, p2));\n\t}\n\n\tfunction log(uint p0, string memory p1, uint p2) internal view {\n\t\t_sendLogPayload(abi.encodeWithSignature(\"log(uint,string,uint)\", p0, p1, p2));\n\t}\n\n\tfunction log(uint p0, string memory p1, string memory p2) internal view {\n\t\t_sendLogPayload(abi.encodeWithSignature(\"log(uint,string,string)\", p0, p1, p2));\n\t}\n\n\tfunction log(uint p0, string memory p1, bool p2) internal view {\n\t\t_sendLogPayload(abi.encodeWithSignature(\"log(uint,string,bool)\", p0, p1, p2));\n\t}\n\n\tfunction log(uint p0, string memory p1, address p2) internal view {\n\t\t_sendLogPayload(abi.encodeWithSignature(\"log(uint,string,address)\", p0, p1, p2));\n\t}\n\n\tfunction log(uint p0, bool p1, uint p2) internal view {\n\t\t_sendLogPayload(abi.encodeWithSignature(\"log(uint,bool,uint)\", p0, p1, p2));\n\t}\n\n\tfunction log(uint p0, bool p1, string memory p2) internal view {\n\t\t_sendLogPayload(abi.encodeWithSignature(\"log(uint,bool,string)\", p0, p1, p2));\n\t}\n\n\tfunction log(uint p0, bool p1, bool p2) internal view {\n\t\t_sendLogPayload(abi.encodeWithSignature(\"log(uint,bool,bool)\", p0, p1, p2));\n\t}\n\n\tfunction log(uint p0, bool p1, address p2) internal view {\n\t\t_sendLogPayload(abi.encodeWithSignature(\"log(uint,bool,address)\", p0, p1, p2));\n\t}\n\n\tfunction log(uint p0, address p1, uint p2) internal view {\n\t\t_sendLogPayload(abi.encodeWithSignature(\"log(uint,address,uint)\", p0, p1, p2));\n\t}\n\n\tfunction log(uint p0, address p1, string memory p2) internal view {\n\t\t_sendLogPayload(abi.encodeWithSignature(\"log(uint,address,string)\", p0, p1, p2));\n\t}\n\n\tfunction log(uint p0, address p1, bool p2) internal view {\n\t\t_sendLogPayload(abi.encodeWithSignature(\"log(uint,address,bool)\", p0, p1, p2));\n\t}\n\n\tfunction log(uint p0, address p1, address p2) internal view {\n\t\t_sendLogPayload(abi.encodeWithSignature(\"log(uint,address,address)\", p0, p1, p2));\n\t}\n\n\tfunction log(string memory p0, uint p1, uint p2) internal view {\n\t\t_sendLogPayload(abi.encodeWithSignature(\"log(string,uint,uint)\", p0, p1, p2));\n\t}\n\n\tfunction log(string memory p0, uint p1, string memory p2) internal view {\n\t\t_sendLogPayload(abi.encodeWithSignature(\"log(string,uint,string)\", p0, p1, p2));\n\t}\n\n\tfunction log(string memory p0, uint p1, bool p2) internal view {\n\t\t_sendLogPayload(abi.encodeWithSignature(\"log(string,uint,bool)\", p0, p1, p2));\n\t}\n\n\tfunction log(string memory p0, uint p1, address p2) internal view {\n\t\t_sendLogPayload(abi.encodeWithSignature(\"log(string,uint,address)\", p0, p1, p2));\n\t}\n\n\tfunction log(string memory p0, string memory p1, uint p2) internal view {\n\t\t_sendLogPayload(abi.encodeWithSignature(\"log(string,string,uint)\", p0, p1, p2));\n\t}\n\n\tfunction log(string memory p0, string memory p1, string memory p2) internal view {\n\t\t_sendLogPayload(abi.encodeWithSignature(\"log(string,string,string)\", p0, p1, p2));\n\t}\n\n\tfunction log(string memory p0, string memory p1, bool p2) internal view {\n\t\t_sendLogPayload(abi.encodeWithSignature(\"log(string,string,bool)\", p0, p1, p2));\n\t}\n\n\tfunction log(string memory p0, string memory p1, address p2) internal view {\n\t\t_sendLogPayload(abi.encodeWithSignature(\"log(string,string,address)\", p0, p1, p2));\n\t}\n\n\tfunction log(string memory p0, bool p1, uint p2) internal view {\n\t\t_sendLogPayload(abi.encodeWithSignature(\"log(string,bool,uint)\", p0, p1, p2));\n\t}\n\n\tfunction log(string memory p0, bool p1, string memory p2) internal view {\n\t\t_sendLogPayload(abi.encodeWithSignature(\"log(string,bool,string)\", p0, p1, p2));\n\t}\n\n\tfunction log(string memory p0, bool p1, bool p2) internal view {\n\t\t_sendLogPayload(abi.encodeWithSignature(\"log(string,bool,bool)\", p0, p1, p2));\n\t}\n\n\tfunction log(string memory p0, bool p1, address p2) internal view {\n\t\t_sendLogPayload(abi.encodeWithSignature(\"log(string,bool,address)\", p0, p1, p2));\n\t}\n\n\tfunction log(string memory p0, address p1, uint p2) internal view {\n\t\t_sendLogPayload(abi.encodeWithSignature(\"log(string,address,uint)\", p0, p1, p2));\n\t}\n\n\tfunction log(string memory p0, address p1, string memory p2) internal view {\n\t\t_sendLogPayload(abi.encodeWithSignature(\"log(string,address,string)\", p0, p1, p2));\n\t}\n\n\tfunction log(string memory p0, address p1, bool p2) internal view {\n\t\t_sendLogPayload(abi.encodeWithSignature(\"log(string,address,bool)\", p0, p1, p2));\n\t}\n\n\tfunction log(string memory p0, address p1, address p2) internal view {\n\t\t_sendLogPayload(abi.encodeWithSignature(\"log(string,address,address)\", p0, p1, p2));\n\t}\n\n\tfunction log(bool p0, uint p1, uint p2) internal view {\n\t\t_sendLogPayload(abi.encodeWithSignature(\"log(bool,uint,uint)\", p0, p1, p2));\n\t}\n\n\tfunction log(bool p0, uint p1, string memory p2) internal view {\n\t\t_sendLogPayload(abi.encodeWithSignature(\"log(bool,uint,string)\", p0, p1, p2));\n\t}\n\n\tfunction log(bool p0, uint p1, bool p2) internal view {\n\t\t_sendLogPayload(abi.encodeWithSignature(\"log(bool,uint,bool)\", p0, p1, p2));\n\t}\n\n\tfunction log(bool p0, uint p1, address p2) internal view {\n\t\t_sendLogPayload(abi.encodeWithSignature(\"log(bool,uint,address)\", p0, p1, p2));\n\t}\n\n\tfunction log(bool p0, string memory p1, uint p2) internal view {\n\t\t_sendLogPayload(abi.encodeWithSignature(\"log(bool,string,uint)\", p0, p1, p2));\n\t}\n\n\tfunction log(bool p0, string memory p1, string memory p2) internal view {\n\t\t_sendLogPayload(abi.encodeWithSignature(\"log(bool,string,string)\", p0, p1, p2));\n\t}\n\n\tfunction log(bool p0, string memory p1, bool p2) internal view {\n\t\t_sendLogPayload(abi.encodeWithSignature(\"log(bool,string,bool)\", p0, p1, p2));\n\t}\n\n\tfunction log(bool p0, string memory p1, address p2) internal view {\n\t\t_sendLogPayload(abi.encodeWithSignature(\"log(bool,string,address)\", p0, p1, p2));\n\t}\n\n\tfunction log(bool p0, bool p1, uint p2) internal view {\n\t\t_sendLogPayload(abi.encodeWithSignature(\"log(bool,bool,uint)\", p0, p1, p2));\n\t}\n\n\tfunction log(bool p0, bool p1, string memory p2) internal view {\n\t\t_sendLogPayload(abi.encodeWithSignature(\"log(bool,bool,string)\", p0, p1, p2));\n\t}\n\n\tfunction log(bool p0, bool p1, bool p2) internal view {\n\t\t_sendLogPayload(abi.encodeWithSignature(\"log(bool,bool,bool)\", p0, p1, p2));\n\t}\n\n\tfunction log(bool p0, bool p1, address p2) internal view {\n\t\t_sendLogPayload(abi.encodeWithSignature(\"log(bool,bool,address)\", p0, p1, p2));\n\t}\n\n\tfunction log(bool p0, address p1, uint p2) internal view {\n\t\t_sendLogPayload(abi.encodeWithSignature(\"log(bool,address,uint)\", p0, p1, p2));\n\t}\n\n\tfunction log(bool p0, address p1, string memory p2) internal view {\n\t\t_sendLogPayload(abi.encodeWithSignature(\"log(bool,address,string)\", p0, p1, p2));\n\t}\n\n\tfunction log(bool p0, address p1, bool p2) internal view {\n\t\t_sendLogPayload(abi.encodeWithSignature(\"log(bool,address,bool)\", p0, p1, p2));\n\t}\n\n\tfunction log(bool p0, address p1, address p2) internal view {\n\t\t_sendLogPayload(abi.encodeWithSignature(\"log(bool,address,address)\", p0, p1, p2));\n\t}\n\n\tfunction log(address p0, uint p1, uint p2) internal view {\n\t\t_sendLogPayload(abi.encodeWithSignature(\"log(address,uint,uint)\", p0, p1, p2));\n\t}\n\n\tfunction log(address p0, uint p1, string memory p2) internal view {\n\t\t_sendLogPayload(abi.encodeWithSignature(\"log(address,uint,string)\", p0, p1, p2));\n\t}\n\n\tfunction log(address p0, uint p1, bool p2) internal view {\n\t\t_sendLogPayload(abi.encodeWithSignature(\"log(address,uint,bool)\", p0, p1, p2));\n\t}\n\n\tfunction log(address p0, uint p1, address p2) internal view {\n\t\t_sendLogPayload(abi.encodeWithSignature(\"log(address,uint,address)\", p0, p1, p2));\n\t}\n\n\tfunction log(address p0, string memory p1, uint p2) internal view {\n\t\t_sendLogPayload(abi.encodeWithSignature(\"log(address,string,uint)\", p0, p1, p2));\n\t}\n\n\tfunction log(address p0, string memory p1, string memory p2) internal view {\n\t\t_sendLogPayload(abi.encodeWithSignature(\"log(address,string,string)\", p0, p1, p2));\n\t}\n\n\tfunction log(address p0, string memory p1, bool p2) internal view {\n\t\t_sendLogPayload(abi.encodeWithSignature(\"log(address,string,bool)\", p0, p1, p2));\n\t}\n\n\tfunction log(address p0, string memory p1, address p2) internal view {\n\t\t_sendLogPayload(abi.encodeWithSignature(\"log(address,string,address)\", p0, p1, p2));\n\t}\n\n\tfunction log(address p0, bool p1, uint p2) internal view {\n\t\t_sendLogPayload(abi.encodeWithSignature(\"log(address,bool,uint)\", p0, p1, p2));\n\t}\n\n\tfunction log(address p0, bool p1, string memory p2) internal view {\n\t\t_sendLogPayload(abi.encodeWithSignature(\"log(address,bool,string)\", p0, p1, p2));\n\t}\n\n\tfunction log(address p0, bool p1, bool p2) internal view {\n\t\t_sendLogPayload(abi.encodeWithSignature(\"log(address,bool,bool)\", p0, p1, p2));\n\t}\n\n\tfunction log(address p0, bool p1, address p2) internal view {\n\t\t_sendLogPayload(abi.encodeWithSignature(\"log(address,bool,address)\", p0, p1, p2));\n\t}\n\n\tfunction log(address p0, address p1, uint p2) internal view {\n\t\t_sendLogPayload(abi.encodeWithSignature(\"log(address,address,uint)\", p0, p1, p2));\n\t}\n\n\tfunction log(address p0, address p1, string memory p2) internal view {\n\t\t_sendLogPayload(abi.encodeWithSignature(\"log(address,address,string)\", p0, p1, p2));\n\t}\n\n\tfunction log(address p0, address p1, bool p2) internal view {\n\t\t_sendLogPayload(abi.encodeWithSignature(\"log(address,address,bool)\", p0, p1, p2));\n\t}\n\n\tfunction log(address p0, address p1, address p2) internal view {\n\t\t_sendLogPayload(abi.encodeWithSignature(\"log(address,address,address)\", p0, p1, p2));\n\t}\n\n\tfunction log(uint p0, uint p1, uint p2, uint p3) internal view {\n\t\t_sendLogPayload(abi.encodeWithSignature(\"log(uint,uint,uint,uint)\", p0, p1, p2, p3));\n\t}\n\n\tfunction log(uint p0, uint p1, uint p2, string memory p3) internal view {\n\t\t_sendLogPayload(abi.encodeWithSignature(\"log(uint,uint,uint,string)\", p0, p1, p2, p3));\n\t}\n\n\tfunction log(uint p0, uint p1, uint p2, bool p3) internal view {\n\t\t_sendLogPayload(abi.encodeWithSignature(\"log(uint,uint,uint,bool)\", p0, p1, p2, p3));\n\t}\n\n\tfunction log(uint p0, uint p1, uint p2, address p3) internal view {\n\t\t_sendLogPayload(abi.encodeWithSignature(\"log(uint,uint,uint,address)\", p0, p1, p2, p3));\n\t}\n\n\tfunction log(uint p0, uint p1, string memory p2, uint p3) internal view {\n\t\t_sendLogPayload(abi.encodeWithSignature(\"log(uint,uint,string,uint)\", p0, p1, p2, p3));\n\t}\n\n\tfunction log(uint p0, uint p1, string memory p2, string memory p3) internal view {\n\t\t_sendLogPayload(abi.encodeWithSignature(\"log(uint,uint,string,string)\", p0, p1, p2, p3));\n\t}\n\n\tfunction log(uint p0, uint p1, string memory p2, bool p3) internal view {\n\t\t_sendLogPayload(abi.encodeWithSignature(\"log(uint,uint,string,bool)\", p0, p1, p2, p3));\n\t}\n\n\tfunction log(uint p0, uint p1, string memory p2, address p3) internal view {\n\t\t_sendLogPayload(abi.encodeWithSignature(\"log(uint,uint,string,address)\", p0, p1, p2, p3));\n\t}\n\n\tfunction log(uint p0, uint p1, bool p2, uint p3) internal view {\n\t\t_sendLogPayload(abi.encodeWithSignature(\"log(uint,uint,bool,uint)\", p0, p1, p2, p3));\n\t}\n\n\tfunction log(uint p0, uint p1, bool p2, string memory p3) internal view {\n\t\t_sendLogPayload(abi.encodeWithSignature(\"log(uint,uint,bool,string)\", p0, p1, p2, p3));\n\t}\n\n\tfunction log(uint p0, uint p1, bool p2, bool p3) internal view {\n\t\t_sendLogPayload(abi.encodeWithSignature(\"log(uint,uint,bool,bool)\", p0, p1, p2, p3));\n\t}\n\n\tfunction log(uint p0, uint p1, bool p2, address p3) internal view {\n\t\t_sendLogPayload(abi.encodeWithSignature(\"log(uint,uint,bool,address)\", p0, p1, p2, p3));\n\t}\n\n\tfunction log(uint p0, uint p1, address p2, uint p3) internal view {\n\t\t_sendLogPayload(abi.encodeWithSignature(\"log(uint,uint,address,uint)\", p0, p1, p2, p3));\n\t}\n\n\tfunction log(uint p0, uint p1, address p2, string memory p3) internal view {\n\t\t_sendLogPayload(abi.encodeWithSignature(\"log(uint,uint,address,string)\", p0, p1, p2, p3));\n\t}\n\n\tfunction log(uint p0, uint p1, address p2, bool p3) internal view {\n\t\t_sendLogPayload(abi.encodeWithSignature(\"log(uint,uint,address,bool)\", p0, p1, p2, p3));\n\t}\n\n\tfunction log(uint p0, uint p1, address p2, address p3) internal view {\n\t\t_sendLogPayload(abi.encodeWithSignature(\"log(uint,uint,address,address)\", p0, p1, p2, p3));\n\t}\n\n\tfunction log(uint p0, string memory p1, uint p2, uint p3) internal view {\n\t\t_sendLogPayload(abi.encodeWithSignature(\"log(uint,string,uint,uint)\", p0, p1, p2, p3));\n\t}\n\n\tfunction log(uint p0, string memory p1, uint p2, string memory p3) internal view {\n\t\t_sendLogPayload(abi.encodeWithSignature(\"log(uint,string,uint,string)\", p0, p1, p2, p3));\n\t}\n\n\tfunction log(uint p0, string memory p1, uint p2, bool p3) internal view {\n\t\t_sendLogPayload(abi.encodeWithSignature(\"log(uint,string,uint,bool)\", p0, p1, p2, p3));\n\t}\n\n\tfunction log(uint p0, string memory p1, uint p2, address p3) internal view {\n\t\t_sendLogPayload(abi.encodeWithSignature(\"log(uint,string,uint,address)\", p0, p1, p2, p3));\n\t}\n\n\tfunction log(uint p0, string memory p1, string memory p2, uint p3) internal view {\n\t\t_sendLogPayload(abi.encodeWithSignature(\"log(uint,string,string,uint)\", p0, p1, p2, p3));\n\t}\n\n\tfunction log(uint p0, string memory p1, string memory p2, string memory p3) internal view {\n\t\t_sendLogPayload(abi.encodeWithSignature(\"log(uint,string,string,string)\", p0, p1, p2, p3));\n\t}\n\n\tfunction log(uint p0, string memory p1, string memory p2, bool p3) internal view {\n\t\t_sendLogPayload(abi.encodeWithSignature(\"log(uint,string,string,bool)\", p0, p1, p2, p3));\n\t}\n\n\tfunction log(uint p0, string memory p1, string memory p2, address p3) internal view {\n\t\t_sendLogPayload(abi.encodeWithSignature(\"log(uint,string,string,address)\", p0, p1, p2, p3));\n\t}\n\n\tfunction log(uint p0, string memory p1, bool p2, uint p3) internal view {\n\t\t_sendLogPayload(abi.encodeWithSignature(\"log(uint,string,bool,uint)\", p0, p1, p2, p3));\n\t}\n\n\tfunction log(uint p0, string memory p1, bool p2, string memory p3) internal view {\n\t\t_sendLogPayload(abi.encodeWithSignature(\"log(uint,string,bool,string)\", p0, p1, p2, p3));\n\t}\n\n\tfunction log(uint p0, string memory p1, bool p2, bool p3) internal view {\n\t\t_sendLogPayload(abi.encodeWithSignature(\"log(uint,string,bool,bool)\", p0, p1, p2, p3));\n\t}\n\n\tfunction log(uint p0, string memory p1, bool p2, address p3) internal view {\n\t\t_sendLogPayload(abi.encodeWithSignature(\"log(uint,string,bool,address)\", p0, p1, p2, p3));\n\t}\n\n\tfunction log(uint p0, string memory p1, address p2, uint p3) internal view {\n\t\t_sendLogPayload(abi.encodeWithSignature(\"log(uint,string,address,uint)\", p0, p1, p2, p3));\n\t}\n\n\tfunction log(uint p0, string memory p1, address p2, string memory p3) internal view {\n\t\t_sendLogPayload(abi.encodeWithSignature(\"log(uint,string,address,string)\", p0, p1, p2, p3));\n\t}\n\n\tfunction log(uint p0, string memory p1, address p2, bool p3) internal view {\n\t\t_sendLogPayload(abi.encodeWithSignature(\"log(uint,string,address,bool)\", p0, p1, p2, p3));\n\t}\n\n\tfunction log(uint p0, string memory p1, address p2, address p3) internal view {\n\t\t_sendLogPayload(abi.encodeWithSignature(\"log(uint,string,address,address)\", p0, p1, p2, p3));\n\t}\n\n\tfunction log(uint p0, bool p1, uint p2, uint p3) internal view {\n\t\t_sendLogPayload(abi.encodeWithSignature(\"log(uint,bool,uint,uint)\", p0, p1, p2, p3));\n\t}\n\n\tfunction log(uint p0, bool p1, uint p2, string memory p3) internal view {\n\t\t_sendLogPayload(abi.encodeWithSignature(\"log(uint,bool,uint,string)\", p0, p1, p2, p3));\n\t}\n\n\tfunction log(uint p0, bool p1, uint p2, bool p3) internal view {\n\t\t_sendLogPayload(abi.encodeWithSignature(\"log(uint,bool,uint,bool)\", p0, p1, p2, p3));\n\t}\n\n\tfunction log(uint p0, bool p1, uint p2, address p3) internal view {\n\t\t_sendLogPayload(abi.encodeWithSignature(\"log(uint,bool,uint,address)\", p0, p1, p2, p3));\n\t}\n\n\tfunction log(uint p0, bool p1, string memory p2, uint p3) internal view {\n\t\t_sendLogPayload(abi.encodeWithSignature(\"log(uint,bool,string,uint)\", p0, p1, p2, p3));\n\t}\n\n\tfunction log(uint p0, bool p1, string memory p2, string memory p3) internal view {\n\t\t_sendLogPayload(abi.encodeWithSignature(\"log(uint,bool,string,string)\", p0, p1, p2, p3));\n\t}\n\n\tfunction log(uint p0, bool p1, string memory p2, bool p3) internal view {\n\t\t_sendLogPayload(abi.encodeWithSignature(\"log(uint,bool,string,bool)\", p0, p1, p2, p3));\n\t}\n\n\tfunction log(uint p0, bool p1, string memory p2, address p3) internal view {\n\t\t_sendLogPayload(abi.encodeWithSignature(\"log(uint,bool,string,address)\", p0, p1, p2, p3));\n\t}\n\n\tfunction log(uint p0, bool p1, bool p2, uint p3) internal view {\n\t\t_sendLogPayload(abi.encodeWithSignature(\"log(uint,bool,bool,uint)\", p0, p1, p2, p3));\n\t}\n\n\tfunction log(uint p0, bool p1, bool p2, string memory p3) internal view {\n\t\t_sendLogPayload(abi.encodeWithSignature(\"log(uint,bool,bool,string)\", p0, p1, p2, p3));\n\t}\n\n\tfunction log(uint p0, bool p1, bool p2, bool p3) internal view {\n\t\t_sendLogPayload(abi.encodeWithSignature(\"log(uint,bool,bool,bool)\", p0, p1, p2, p3));\n\t}\n\n\tfunction log(uint p0, bool p1, bool p2, address p3) internal view {\n\t\t_sendLogPayload(abi.encodeWithSignature(\"log(uint,bool,bool,address)\", p0, p1, p2, p3));\n\t}\n\n\tfunction log(uint p0, bool p1, address p2, uint p3) internal view {\n\t\t_sendLogPayload(abi.encodeWithSignature(\"log(uint,bool,address,uint)\", p0, p1, p2, p3));\n\t}\n\n\tfunction log(uint p0, bool p1, address p2, string memory p3) internal view {\n\t\t_sendLogPayload(abi.encodeWithSignature(\"log(uint,bool,address,string)\", p0, p1, p2, p3));\n\t}\n\n\tfunction log(uint p0, bool p1, address p2, bool p3) internal view {\n\t\t_sendLogPayload(abi.encodeWithSignature(\"log(uint,bool,address,bool)\", p0, p1, p2, p3));\n\t}\n\n\tfunction log(uint p0, bool p1, address p2, address p3) internal view {\n\t\t_sendLogPayload(abi.encodeWithSignature(\"log(uint,bool,address,address)\", p0, p1, p2, p3));\n\t}\n\n\tfunction log(uint p0, address p1, uint p2, uint p3) internal view {\n\t\t_sendLogPayload(abi.encodeWithSignature(\"log(uint,address,uint,uint)\", p0, p1, p2, p3));\n\t}\n\n\tfunction log(uint p0, address p1, uint p2, string memory p3) internal view {\n\t\t_sendLogPayload(abi.encodeWithSignature(\"log(uint,address,uint,string)\", p0, p1, p2, p3));\n\t}\n\n\tfunction log(uint p0, address p1, uint p2, bool p3) internal view {\n\t\t_sendLogPayload(abi.encodeWithSignature(\"log(uint,address,uint,bool)\", p0, p1, p2, p3));\n\t}\n\n\tfunction log(uint p0, address p1, uint p2, address p3) internal view {\n\t\t_sendLogPayload(abi.encodeWithSignature(\"log(uint,address,uint,address)\", p0, p1, p2, p3));\n\t}\n\n\tfunction log(uint p0, address p1, string memory p2, uint p3) internal view {\n\t\t_sendLogPayload(abi.encodeWithSignature(\"log(uint,address,string,uint)\", p0, p1, p2, p3));\n\t}\n\n\tfunction log(uint p0, address p1, string memory p2, string memory p3) internal view {\n\t\t_sendLogPayload(abi.encodeWithSignature(\"log(uint,address,string,string)\", p0, p1, p2, p3));\n\t}\n\n\tfunction log(uint p0, address p1, string memory p2, bool p3) internal view {\n\t\t_sendLogPayload(abi.encodeWithSignature(\"log(uint,address,string,bool)\", p0, p1, p2, p3));\n\t}\n\n\tfunction log(uint p0, address p1, string memory p2, address p3) internal view {\n\t\t_sendLogPayload(abi.encodeWithSignature(\"log(uint,address,string,address)\", p0, p1, p2, p3));\n\t}\n\n\tfunction log(uint p0, address p1, bool p2, uint p3) internal view {\n\t\t_sendLogPayload(abi.encodeWithSignature(\"log(uint,address,bool,uint)\", p0, p1, p2, p3));\n\t}\n\n\tfunction log(uint p0, address p1, bool p2, string memory p3) internal view {\n\t\t_sendLogPayload(abi.encodeWithSignature(\"log(uint,address,bool,string)\", p0, p1, p2, p3));\n\t}\n\n\tfunction log(uint p0, address p1, bool p2, bool p3) internal view {\n\t\t_sendLogPayload(abi.encodeWithSignature(\"log(uint,address,bool,bool)\", p0, p1, p2, p3));\n\t}\n\n\tfunction log(uint p0, address p1, bool p2, address p3) internal view {\n\t\t_sendLogPayload(abi.encodeWithSignature(\"log(uint,address,bool,address)\", p0, p1, p2, p3));\n\t}\n\n\tfunction log(uint p0, address p1, address p2, uint p3) internal view {\n\t\t_sendLogPayload(abi.encodeWithSignature(\"log(uint,address,address,uint)\", p0, p1, p2, p3));\n\t}\n\n\tfunction log(uint p0, address p1, address p2, string memory p3) internal view {\n\t\t_sendLogPayload(abi.encodeWithSignature(\"log(uint,address,address,string)\", p0, p1, p2, p3));\n\t}\n\n\tfunction log(uint p0, address p1, address p2, bool p3) internal view {\n\t\t_sendLogPayload(abi.encodeWithSignature(\"log(uint,address,address,bool)\", p0, p1, p2, p3));\n\t}\n\n\tfunction log(uint p0, address p1, address p2, address p3) internal view {\n\t\t_sendLogPayload(abi.encodeWithSignature(\"log(uint,address,address,address)\", p0, p1, p2, p3));\n\t}\n\n\tfunction log(string memory p0, uint p1, uint p2, uint p3) internal view {\n\t\t_sendLogPayload(abi.encodeWithSignature(\"log(string,uint,uint,uint)\", p0, p1, p2, p3));\n\t}\n\n\tfunction log(string memory p0, uint p1, uint p2, string memory p3) internal view {\n\t\t_sendLogPayload(abi.encodeWithSignature(\"log(string,uint,uint,string)\", p0, p1, p2, p3));\n\t}\n\n\tfunction log(string memory p0, uint p1, uint p2, bool p3) internal view {\n\t\t_sendLogPayload(abi.encodeWithSignature(\"log(string,uint,uint,bool)\", p0, p1, p2, p3));\n\t}\n\n\tfunction log(string memory p0, uint p1, uint p2, address p3) internal view {\n\t\t_sendLogPayload(abi.encodeWithSignature(\"log(string,uint,uint,address)\", p0, p1, p2, p3));\n\t}\n\n\tfunction log(string memory p0, uint p1, string memory p2, uint p3) internal view {\n\t\t_sendLogPayload(abi.encodeWithSignature(\"log(string,uint,string,uint)\", p0, p1, p2, p3));\n\t}\n\n\tfunction log(string memory p0, uint p1, string memory p2, string memory p3) internal view {\n\t\t_sendLogPayload(abi.encodeWithSignature(\"log(string,uint,string,string)\", p0, p1, p2, p3));\n\t}\n\n\tfunction log(string memory p0, uint p1, string memory p2, bool p3) internal view {\n\t\t_sendLogPayload(abi.encodeWithSignature(\"log(string,uint,string,bool)\", p0, p1, p2, p3));\n\t}\n\n\tfunction log(string memory p0, uint p1, string memory p2, address p3) internal view {\n\t\t_sendLogPayload(abi.encodeWithSignature(\"log(string,uint,string,address)\", p0, p1, p2, p3));\n\t}\n\n\tfunction log(string memory p0, uint p1, bool p2, uint p3) internal view {\n\t\t_sendLogPayload(abi.encodeWithSignature(\"log(string,uint,bool,uint)\", p0, p1, p2, p3));\n\t}\n\n\tfunction log(string memory p0, uint p1, bool p2, string memory p3) internal view {\n\t\t_sendLogPayload(abi.encodeWithSignature(\"log(string,uint,bool,string)\", p0, p1, p2, p3));\n\t}\n\n\tfunction log(string memory p0, uint p1, bool p2, bool p3) internal view {\n\t\t_sendLogPayload(abi.encodeWithSignature(\"log(string,uint,bool,bool)\", p0, p1, p2, p3));\n\t}\n\n\tfunction log(string memory p0, uint p1, bool p2, address p3) internal view {\n\t\t_sendLogPayload(abi.encodeWithSignature(\"log(string,uint,bool,address)\", p0, p1, p2, p3));\n\t}\n\n\tfunction log(string memory p0, uint p1, address p2, uint p3) internal view {\n\t\t_sendLogPayload(abi.encodeWithSignature(\"log(string,uint,address,uint)\", p0, p1, p2, p3));\n\t}\n\n\tfunction log(string memory p0, uint p1, address p2, string memory p3) internal view {\n\t\t_sendLogPayload(abi.encodeWithSignature(\"log(string,uint,address,string)\", p0, p1, p2, p3));\n\t}\n\n\tfunction log(string memory p0, uint p1, address p2, bool p3) internal view {\n\t\t_sendLogPayload(abi.encodeWithSignature(\"log(string,uint,address,bool)\", p0, p1, p2, p3));\n\t}\n\n\tfunction log(string memory p0, uint p1, address p2, address p3) internal view {\n\t\t_sendLogPayload(abi.encodeWithSignature(\"log(string,uint,address,address)\", p0, p1, p2, p3));\n\t}\n\n\tfunction log(string memory p0, string memory p1, uint p2, uint p3) internal view {\n\t\t_sendLogPayload(abi.encodeWithSignature(\"log(string,string,uint,uint)\", p0, p1, p2, p3));\n\t}\n\n\tfunction log(string memory p0, string memory p1, uint p2, string memory p3) internal view {\n\t\t_sendLogPayload(abi.encodeWithSignature(\"log(string,string,uint,string)\", p0, p1, p2, p3));\n\t}\n\n\tfunction log(string memory p0, string memory p1, uint p2, bool p3) internal view {\n\t\t_sendLogPayload(abi.encodeWithSignature(\"log(string,string,uint,bool)\", p0, p1, p2, p3));\n\t}\n\n\tfunction log(string memory p0, string memory p1, uint p2, address p3) internal view {\n\t\t_sendLogPayload(abi.encodeWithSignature(\"log(string,string,uint,address)\", p0, p1, p2, p3));\n\t}\n\n\tfunction log(string memory p0, string memory p1, string memory p2, uint p3) internal view {\n\t\t_sendLogPayload(abi.encodeWithSignature(\"log(string,string,string,uint)\", p0, p1, p2, p3));\n\t}\n\n\tfunction log(string memory p0, string memory p1, string memory p2, string memory p3) internal view {\n\t\t_sendLogPayload(abi.encodeWithSignature(\"log(string,string,string,string)\", p0, p1, p2, p3));\n\t}\n\n\tfunction log(string memory p0, string memory p1, string memory p2, bool p3) internal view {\n\t\t_sendLogPayload(abi.encodeWithSignature(\"log(string,string,string,bool)\", p0, p1, p2, p3));\n\t}\n\n\tfunction log(string memory p0, string memory p1, string memory p2, address p3) internal view {\n\t\t_sendLogPayload(abi.encodeWithSignature(\"log(string,string,string,address)\", p0, p1, p2, p3));\n\t}\n\n\tfunction log(string memory p0, string memory p1, bool p2, uint p3) internal view {\n\t\t_sendLogPayload(abi.encodeWithSignature(\"log(string,string,bool,uint)\", p0, p1, p2, p3));\n\t}\n\n\tfunction log(string memory p0, string memory p1, bool p2, string memory p3) internal view {\n\t\t_sendLogPayload(abi.encodeWithSignature(\"log(string,string,bool,string)\", p0, p1, p2, p3));\n\t}\n\n\tfunction log(string memory p0, string memory p1, bool p2, bool p3) internal view {\n\t\t_sendLogPayload(abi.encodeWithSignature(\"log(string,string,bool,bool)\", p0, p1, p2, p3));\n\t}\n\n\tfunction log(string memory p0, string memory p1, bool p2, address p3) internal view {\n\t\t_sendLogPayload(abi.encodeWithSignature(\"log(string,string,bool,address)\", p0, p1, p2, p3));\n\t}\n\n\tfunction log(string memory p0, string memory p1, address p2, uint p3) internal view {\n\t\t_sendLogPayload(abi.encodeWithSignature(\"log(string,string,address,uint)\", p0, p1, p2, p3));\n\t}\n\n\tfunction log(string memory p0, string memory p1, address p2, string memory p3) internal view {\n\t\t_sendLogPayload(abi.encodeWithSignature(\"log(string,string,address,string)\", p0, p1, p2, p3));\n\t}\n\n\tfunction log(string memory p0, string memory p1, address p2, bool p3) internal view {\n\t\t_sendLogPayload(abi.encodeWithSignature(\"log(string,string,address,bool)\", p0, p1, p2, p3));\n\t}\n\n\tfunction log(string memory p0, string memory p1, address p2, address p3) internal view {\n\t\t_sendLogPayload(abi.encodeWithSignature(\"log(string,string,address,address)\", p0, p1, p2, p3));\n\t}\n\n\tfunction log(string memory p0, bool p1, uint p2, uint p3) internal view {\n\t\t_sendLogPayload(abi.encodeWithSignature(\"log(string,bool,uint,uint)\", p0, p1, p2, p3));\n\t}\n\n\tfunction log(string memory p0, bool p1, uint p2, string memory p3) internal view {\n\t\t_sendLogPayload(abi.encodeWithSignature(\"log(string,bool,uint,string)\", p0, p1, p2, p3));\n\t}\n\n\tfunction log(string memory p0, bool p1, uint p2, bool p3) internal view {\n\t\t_sendLogPayload(abi.encodeWithSignature(\"log(string,bool,uint,bool)\", p0, p1, p2, p3));\n\t}\n\n\tfunction log(string memory p0, bool p1, uint p2, address p3) internal view {\n\t\t_sendLogPayload(abi.encodeWithSignature(\"log(string,bool,uint,address)\", p0, p1, p2, p3));\n\t}\n\n\tfunction log(string memory p0, bool p1, string memory p2, uint p3) internal view {\n\t\t_sendLogPayload(abi.encodeWithSignature(\"log(string,bool,string,uint)\", p0, p1, p2, p3));\n\t}\n\n\tfunction log(string memory p0, bool p1, string memory p2, string memory p3) internal view {\n\t\t_sendLogPayload(abi.encodeWithSignature(\"log(string,bool,string,string)\", p0, p1, p2, p3));\n\t}\n\n\tfunction log(string memory p0, bool p1, string memory p2, bool p3) internal view {\n\t\t_sendLogPayload(abi.encodeWithSignature(\"log(string,bool,string,bool)\", p0, p1, p2, p3));\n\t}\n\n\tfunction log(string memory p0, bool p1, string memory p2, address p3) internal view {\n\t\t_sendLogPayload(abi.encodeWithSignature(\"log(string,bool,string,address)\", p0, p1, p2, p3));\n\t}\n\n\tfunction log(string memory p0, bool p1, bool p2, uint p3) internal view {\n\t\t_sendLogPayload(abi.encodeWithSignature(\"log(string,bool,bool,uint)\", p0, p1, p2, p3));\n\t}\n\n\tfunction log(string memory p0, bool p1, bool p2, string memory p3) internal view {\n\t\t_sendLogPayload(abi.encodeWithSignature(\"log(string,bool,bool,string)\", p0, p1, p2, p3));\n\t}\n\n\tfunction log(string memory p0, bool p1, bool p2, bool p3) internal view {\n\t\t_sendLogPayload(abi.encodeWithSignature(\"log(string,bool,bool,bool)\", p0, p1, p2, p3));\n\t}\n\n\tfunction log(string memory p0, bool p1, bool p2, address p3) internal view {\n\t\t_sendLogPayload(abi.encodeWithSignature(\"log(string,bool,bool,address)\", p0, p1, p2, p3));\n\t}\n\n\tfunction log(string memory p0, bool p1, address p2, uint p3) internal view {\n\t\t_sendLogPayload(abi.encodeWithSignature(\"log(string,bool,address,uint)\", p0, p1, p2, p3));\n\t}\n\n\tfunction log(string memory p0, bool p1, address p2, string memory p3) internal view {\n\t\t_sendLogPayload(abi.encodeWithSignature(\"log(string,bool,address,string)\", p0, p1, p2, p3));\n\t}\n\n\tfunction log(string memory p0, bool p1, address p2, bool p3) internal view {\n\t\t_sendLogPayload(abi.encodeWithSignature(\"log(string,bool,address,bool)\", p0, p1, p2, p3));\n\t}\n\n\tfunction log(string memory p0, bool p1, address p2, address p3) internal view {\n\t\t_sendLogPayload(abi.encodeWithSignature(\"log(string,bool,address,address)\", p0, p1, p2, p3));\n\t}\n\n\tfunction log(string memory p0, address p1, uint p2, uint p3) internal view {\n\t\t_sendLogPayload(abi.encodeWithSignature(\"log(string,address,uint,uint)\", p0, p1, p2, p3));\n\t}\n\n\tfunction log(string memory p0, address p1, uint p2, string memory p3) internal view {\n\t\t_sendLogPayload(abi.encodeWithSignature(\"log(string,address,uint,string)\", p0, p1, p2, p3));\n\t}\n\n\tfunction log(string memory p0, address p1, uint p2, bool p3) internal view {\n\t\t_sendLogPayload(abi.encodeWithSignature(\"log(string,address,uint,bool)\", p0, p1, p2, p3));\n\t}\n\n\tfunction log(string memory p0, address p1, uint p2, address p3) internal view {\n\t\t_sendLogPayload(abi.encodeWithSignature(\"log(string,address,uint,address)\", p0, p1, p2, p3));\n\t}\n\n\tfunction log(string memory p0, address p1, string memory p2, uint p3) internal view {\n\t\t_sendLogPayload(abi.encodeWithSignature(\"log(string,address,string,uint)\", p0, p1, p2, p3));\n\t}\n\n\tfunction log(string memory p0, address p1, string memory p2, string memory p3) internal view {\n\t\t_sendLogPayload(abi.encodeWithSignature(\"log(string,address,string,string)\", p0, p1, p2, p3));\n\t}\n\n\tfunction log(string memory p0, address p1, string memory p2, bool p3) internal view {\n\t\t_sendLogPayload(abi.encodeWithSignature(\"log(string,address,string,bool)\", p0, p1, p2, p3));\n\t}\n\n\tfunction log(string memory p0, address p1, string memory p2, address p3) internal view {\n\t\t_sendLogPayload(abi.encodeWithSignature(\"log(string,address,string,address)\", p0, p1, p2, p3));\n\t}\n\n\tfunction log(string memory p0, address p1, bool p2, uint p3) internal view {\n\t\t_sendLogPayload(abi.encodeWithSignature(\"log(string,address,bool,uint)\", p0, p1, p2, p3));\n\t}\n\n\tfunction log(string memory p0, address p1, bool p2, string memory p3) internal view {\n\t\t_sendLogPayload(abi.encodeWithSignature(\"log(string,address,bool,string)\", p0, p1, p2, p3));\n\t}\n\n\tfunction log(string memory p0, address p1, bool p2, bool p3) internal view {\n\t\t_sendLogPayload(abi.encodeWithSignature(\"log(string,address,bool,bool)\", p0, p1, p2, p3));\n\t}\n\n\tfunction log(string memory p0, address p1, bool p2, address p3) internal view {\n\t\t_sendLogPayload(abi.encodeWithSignature(\"log(string,address,bool,address)\", p0, p1, p2, p3));\n\t}\n\n\tfunction log(string memory p0, address p1, address p2, uint p3) internal view {\n\t\t_sendLogPayload(abi.encodeWithSignature(\"log(string,address,address,uint)\", p0, p1, p2, p3));\n\t}\n\n\tfunction log(string memory p0, address p1, address p2, string memory p3) internal view {\n\t\t_sendLogPayload(abi.encodeWithSignature(\"log(string,address,address,string)\", p0, p1, p2, p3));\n\t}\n\n\tfunction log(string memory p0, address p1, address p2, bool p3) internal view {\n\t\t_sendLogPayload(abi.encodeWithSignature(\"log(string,address,address,bool)\", p0, p1, p2, p3));\n\t}\n\n\tfunction log(string memory p0, address p1, address p2, address p3) internal view {\n\t\t_sendLogPayload(abi.encodeWithSignature(\"log(string,address,address,address)\", p0, p1, p2, p3));\n\t}\n\n\tfunction log(bool p0, uint p1, uint p2, uint p3) internal view {\n\t\t_sendLogPayload(abi.encodeWithSignature(\"log(bool,uint,uint,uint)\", p0, p1, p2, p3));\n\t}\n\n\tfunction log(bool p0, uint p1, uint p2, string memory p3) internal view {\n\t\t_sendLogPayload(abi.encodeWithSignature(\"log(bool,uint,uint,string)\", p0, p1, p2, p3));\n\t}\n\n\tfunction log(bool p0, uint p1, uint p2, bool p3) internal view {\n\t\t_sendLogPayload(abi.encodeWithSignature(\"log(bool,uint,uint,bool)\", p0, p1, p2, p3));\n\t}\n\n\tfunction log(bool p0, uint p1, uint p2, address p3) internal view {\n\t\t_sendLogPayload(abi.encodeWithSignature(\"log(bool,uint,uint,address)\", p0, p1, p2, p3));\n\t}\n\n\tfunction log(bool p0, uint p1, string memory p2, uint p3) internal view {\n\t\t_sendLogPayload(abi.encodeWithSignature(\"log(bool,uint,string,uint)\", p0, p1, p2, p3));\n\t}\n\n\tfunction log(bool p0, uint p1, string memory p2, string memory p3) internal view {\n\t\t_sendLogPayload(abi.encodeWithSignature(\"log(bool,uint,string,string)\", p0, p1, p2, p3));\n\t}\n\n\tfunction log(bool p0, uint p1, string memory p2, bool p3) internal view {\n\t\t_sendLogPayload(abi.encodeWithSignature(\"log(bool,uint,string,bool)\", p0, p1, p2, p3));\n\t}\n\n\tfunction log(bool p0, uint p1, string memory p2, address p3) internal view {\n\t\t_sendLogPayload(abi.encodeWithSignature(\"log(bool,uint,string,address)\", p0, p1, p2, p3));\n\t}\n\n\tfunction log(bool p0, uint p1, bool p2, uint p3) internal view {\n\t\t_sendLogPayload(abi.encodeWithSignature(\"log(bool,uint,bool,uint)\", p0, p1, p2, p3));\n\t}\n\n\tfunction log(bool p0, uint p1, bool p2, string memory p3) internal view {\n\t\t_sendLogPayload(abi.encodeWithSignature(\"log(bool,uint,bool,string)\", p0, p1, p2, p3));\n\t}\n\n\tfunction log(bool p0, uint p1, bool p2, bool p3) internal view {\n\t\t_sendLogPayload(abi.encodeWithSignature(\"log(bool,uint,bool,bool)\", p0, p1, p2, p3));\n\t}\n\n\tfunction log(bool p0, uint p1, bool p2, address p3) internal view {\n\t\t_sendLogPayload(abi.encodeWithSignature(\"log(bool,uint,bool,address)\", p0, p1, p2, p3));\n\t}\n\n\tfunction log(bool p0, uint p1, address p2, uint p3) internal view {\n\t\t_sendLogPayload(abi.encodeWithSignature(\"log(bool,uint,address,uint)\", p0, p1, p2, p3));\n\t}\n\n\tfunction log(bool p0, uint p1, address p2, string memory p3) internal view {\n\t\t_sendLogPayload(abi.encodeWithSignature(\"log(bool,uint,address,string)\", p0, p1, p2, p3));\n\t}\n\n\tfunction log(bool p0, uint p1, address p2, bool p3) internal view {\n\t\t_sendLogPayload(abi.encodeWithSignature(\"log(bool,uint,address,bool)\", p0, p1, p2, p3));\n\t}\n\n\tfunction log(bool p0, uint p1, address p2, address p3) internal view {\n\t\t_sendLogPayload(abi.encodeWithSignature(\"log(bool,uint,address,address)\", p0, p1, p2, p3));\n\t}\n\n\tfunction log(bool p0, string memory p1, uint p2, uint p3) internal view {\n\t\t_sendLogPayload(abi.encodeWithSignature(\"log(bool,string,uint,uint)\", p0, p1, p2, p3));\n\t}\n\n\tfunction log(bool p0, string memory p1, uint p2, string memory p3) internal view {\n\t\t_sendLogPayload(abi.encodeWithSignature(\"log(bool,string,uint,string)\", p0, p1, p2, p3));\n\t}\n\n\tfunction log(bool p0, string memory p1, uint p2, bool p3) internal view {\n\t\t_sendLogPayload(abi.encodeWithSignature(\"log(bool,string,uint,bool)\", p0, p1, p2, p3));\n\t}\n\n\tfunction log(bool p0, string memory p1, uint p2, address p3) internal view {\n\t\t_sendLogPayload(abi.encodeWithSignature(\"log(bool,string,uint,address)\", p0, p1, p2, p3));\n\t}\n\n\tfunction log(bool p0, string memory p1, string memory p2, uint p3) internal view {\n\t\t_sendLogPayload(abi.encodeWithSignature(\"log(bool,string,string,uint)\", p0, p1, p2, p3));\n\t}\n\n\tfunction log(bool p0, string memory p1, string memory p2, string memory p3) internal view {\n\t\t_sendLogPayload(abi.encodeWithSignature(\"log(bool,string,string,string)\", p0, p1, p2, p3));\n\t}\n\n\tfunction log(bool p0, string memory p1, string memory p2, bool p3) internal view {\n\t\t_sendLogPayload(abi.encodeWithSignature(\"log(bool,string,string,bool)\", p0, p1, p2, p3));\n\t}\n\n\tfunction log(bool p0, string memory p1, string memory p2, address p3) internal view {\n\t\t_sendLogPayload(abi.encodeWithSignature(\"log(bool,string,string,address)\", p0, p1, p2, p3));\n\t}\n\n\tfunction log(bool p0, string memory p1, bool p2, uint p3) internal view {\n\t\t_sendLogPayload(abi.encodeWithSignature(\"log(bool,string,bool,uint)\", p0, p1, p2, p3));\n\t}\n\n\tfunction log(bool p0, string memory p1, bool p2, string memory p3) internal view {\n\t\t_sendLogPayload(abi.encodeWithSignature(\"log(bool,string,bool,string)\", p0, p1, p2, p3));\n\t}\n\n\tfunction log(bool p0, string memory p1, bool p2, bool p3) internal view {\n\t\t_sendLogPayload(abi.encodeWithSignature(\"log(bool,string,bool,bool)\", p0, p1, p2, p3));\n\t}\n\n\tfunction log(bool p0, string memory p1, bool p2, address p3) internal view {\n\t\t_sendLogPayload(abi.encodeWithSignature(\"log(bool,string,bool,address)\", p0, p1, p2, p3));\n\t}\n\n\tfunction log(bool p0, string memory p1, address p2, uint p3) internal view {\n\t\t_sendLogPayload(abi.encodeWithSignature(\"log(bool,string,address,uint)\", p0, p1, p2, p3));\n\t}\n\n\tfunction log(bool p0, string memory p1, address p2, string memory p3) internal view {\n\t\t_sendLogPayload(abi.encodeWithSignature(\"log(bool,string,address,string)\", p0, p1, p2, p3));\n\t}\n\n\tfunction log(bool p0, string memory p1, address p2, bool p3) internal view {\n\t\t_sendLogPayload(abi.encodeWithSignature(\"log(bool,string,address,bool)\", p0, p1, p2, p3));\n\t}\n\n\tfunction log(bool p0, string memory p1, address p2, address p3) internal view {\n\t\t_sendLogPayload(abi.encodeWithSignature(\"log(bool,string,address,address)\", p0, p1, p2, p3));\n\t}\n\n\tfunction log(bool p0, bool p1, uint p2, uint p3) internal view {\n\t\t_sendLogPayload(abi.encodeWithSignature(\"log(bool,bool,uint,uint)\", p0, p1, p2, p3));\n\t}\n\n\tfunction log(bool p0, bool p1, uint p2, string memory p3) internal view {\n\t\t_sendLogPayload(abi.encodeWithSignature(\"log(bool,bool,uint,string)\", p0, p1, p2, p3));\n\t}\n\n\tfunction log(bool p0, bool p1, uint p2, bool p3) internal view {\n\t\t_sendLogPayload(abi.encodeWithSignature(\"log(bool,bool,uint,bool)\", p0, p1, p2, p3));\n\t}\n\n\tfunction log(bool p0, bool p1, uint p2, address p3) internal view {\n\t\t_sendLogPayload(abi.encodeWithSignature(\"log(bool,bool,uint,address)\", p0, p1, p2, p3));\n\t}\n\n\tfunction log(bool p0, bool p1, string memory p2, uint p3) internal view {\n\t\t_sendLogPayload(abi.encodeWithSignature(\"log(bool,bool,string,uint)\", p0, p1, p2, p3));\n\t}\n\n\tfunction log(bool p0, bool p1, string memory p2, string memory p3) internal view {\n\t\t_sendLogPayload(abi.encodeWithSignature(\"log(bool,bool,string,string)\", p0, p1, p2, p3));\n\t}\n\n\tfunction log(bool p0, bool p1, string memory p2, bool p3) internal view {\n\t\t_sendLogPayload(abi.encodeWithSignature(\"log(bool,bool,string,bool)\", p0, p1, p2, p3));\n\t}\n\n\tfunction log(bool p0, bool p1, string memory p2, address p3) internal view {\n\t\t_sendLogPayload(abi.encodeWithSignature(\"log(bool,bool,string,address)\", p0, p1, p2, p3));\n\t}\n\n\tfunction log(bool p0, bool p1, bool p2, uint p3) internal view {\n\t\t_sendLogPayload(abi.encodeWithSignature(\"log(bool,bool,bool,uint)\", p0, p1, p2, p3));\n\t}\n\n\tfunction log(bool p0, bool p1, bool p2, string memory p3) internal view {\n\t\t_sendLogPayload(abi.encodeWithSignature(\"log(bool,bool,bool,string)\", p0, p1, p2, p3));\n\t}\n\n\tfunction log(bool p0, bool p1, bool p2, bool p3) internal view {\n\t\t_sendLogPayload(abi.encodeWithSignature(\"log(bool,bool,bool,bool)\", p0, p1, p2, p3));\n\t}\n\n\tfunction log(bool p0, bool p1, bool p2, address p3) internal view {\n\t\t_sendLogPayload(abi.encodeWithSignature(\"log(bool,bool,bool,address)\", p0, p1, p2, p3));\n\t}\n\n\tfunction log(bool p0, bool p1, address p2, uint p3) internal view {\n\t\t_sendLogPayload(abi.encodeWithSignature(\"log(bool,bool,address,uint)\", p0, p1, p2, p3));\n\t}\n\n\tfunction log(bool p0, bool p1, address p2, string memory p3) internal view {\n\t\t_sendLogPayload(abi.encodeWithSignature(\"log(bool,bool,address,string)\", p0, p1, p2, p3));\n\t}\n\n\tfunction log(bool p0, bool p1, address p2, bool p3) internal view {\n\t\t_sendLogPayload(abi.encodeWithSignature(\"log(bool,bool,address,bool)\", p0, p1, p2, p3));\n\t}\n\n\tfunction log(bool p0, bool p1, address p2, address p3) internal view {\n\t\t_sendLogPayload(abi.encodeWithSignature(\"log(bool,bool,address,address)\", p0, p1, p2, p3));\n\t}\n\n\tfunction log(bool p0, address p1, uint p2, uint p3) internal view {\n\t\t_sendLogPayload(abi.encodeWithSignature(\"log(bool,address,uint,uint)\", p0, p1, p2, p3));\n\t}\n\n\tfunction log(bool p0, address p1, uint p2, string memory p3) internal view {\n\t\t_sendLogPayload(abi.encodeWithSignature(\"log(bool,address,uint,string)\", p0, p1, p2, p3));\n\t}\n\n\tfunction log(bool p0, address p1, uint p2, bool p3) internal view {\n\t\t_sendLogPayload(abi.encodeWithSignature(\"log(bool,address,uint,bool)\", p0, p1, p2, p3));\n\t}\n\n\tfunction log(bool p0, address p1, uint p2, address p3) internal view {\n\t\t_sendLogPayload(abi.encodeWithSignature(\"log(bool,address,uint,address)\", p0, p1, p2, p3));\n\t}\n\n\tfunction log(bool p0, address p1, string memory p2, uint p3) internal view {\n\t\t_sendLogPayload(abi.encodeWithSignature(\"log(bool,address,string,uint)\", p0, p1, p2, p3));\n\t}\n\n\tfunction log(bool p0, address p1, string memory p2, string memory p3) internal view {\n\t\t_sendLogPayload(abi.encodeWithSignature(\"log(bool,address,string,string)\", p0, p1, p2, p3));\n\t}\n\n\tfunction log(bool p0, address p1, string memory p2, bool p3) internal view {\n\t\t_sendLogPayload(abi.encodeWithSignature(\"log(bool,address,string,bool)\", p0, p1, p2, p3));\n\t}\n\n\tfunction log(bool p0, address p1, string memory p2, address p3) internal view {\n\t\t_sendLogPayload(abi.encodeWithSignature(\"log(bool,address,string,address)\", p0, p1, p2, p3));\n\t}\n\n\tfunction log(bool p0, address p1, bool p2, uint p3) internal view {\n\t\t_sendLogPayload(abi.encodeWithSignature(\"log(bool,address,bool,uint)\", p0, p1, p2, p3));\n\t}\n\n\tfunction log(bool p0, address p1, bool p2, string memory p3) internal view {\n\t\t_sendLogPayload(abi.encodeWithSignature(\"log(bool,address,bool,string)\", p0, p1, p2, p3));\n\t}\n\n\tfunction log(bool p0, address p1, bool p2, bool p3) internal view {\n\t\t_sendLogPayload(abi.encodeWithSignature(\"log(bool,address,bool,bool)\", p0, p1, p2, p3));\n\t}\n\n\tfunction log(bool p0, address p1, bool p2, address p3) internal view {\n\t\t_sendLogPayload(abi.encodeWithSignature(\"log(bool,address,bool,address)\", p0, p1, p2, p3));\n\t}\n\n\tfunction log(bool p0, address p1, address p2, uint p3) internal view {\n\t\t_sendLogPayload(abi.encodeWithSignature(\"log(bool,address,address,uint)\", p0, p1, p2, p3));\n\t}\n\n\tfunction log(bool p0, address p1, address p2, string memory p3) internal view {\n\t\t_sendLogPayload(abi.encodeWithSignature(\"log(bool,address,address,string)\", p0, p1, p2, p3));\n\t}\n\n\tfunction log(bool p0, address p1, address p2, bool p3) internal view {\n\t\t_sendLogPayload(abi.encodeWithSignature(\"log(bool,address,address,bool)\", p0, p1, p2, p3));\n\t}\n\n\tfunction log(bool p0, address p1, address p2, address p3) internal view {\n\t\t_sendLogPayload(abi.encodeWithSignature(\"log(bool,address,address,address)\", p0, p1, p2, p3));\n\t}\n\n\tfunction log(address p0, uint p1, uint p2, uint p3) internal view {\n\t\t_sendLogPayload(abi.encodeWithSignature(\"log(address,uint,uint,uint)\", p0, p1, p2, p3));\n\t}\n\n\tfunction log(address p0, uint p1, uint p2, string memory p3) internal view {\n\t\t_sendLogPayload(abi.encodeWithSignature(\"log(address,uint,uint,string)\", p0, p1, p2, p3));\n\t}\n\n\tfunction log(address p0, uint p1, uint p2, bool p3) internal view {\n\t\t_sendLogPayload(abi.encodeWithSignature(\"log(address,uint,uint,bool)\", p0, p1, p2, p3));\n\t}\n\n\tfunction log(address p0, uint p1, uint p2, address p3) internal view {\n\t\t_sendLogPayload(abi.encodeWithSignature(\"log(address,uint,uint,address)\", p0, p1, p2, p3));\n\t}\n\n\tfunction log(address p0, uint p1, string memory p2, uint p3) internal view {\n\t\t_sendLogPayload(abi.encodeWithSignature(\"log(address,uint,string,uint)\", p0, p1, p2, p3));\n\t}\n\n\tfunction log(address p0, uint p1, string memory p2, string memory p3) internal view {\n\t\t_sendLogPayload(abi.encodeWithSignature(\"log(address,uint,string,string)\", p0, p1, p2, p3));\n\t}\n\n\tfunction log(address p0, uint p1, string memory p2, bool p3) internal view {\n\t\t_sendLogPayload(abi.encodeWithSignature(\"log(address,uint,string,bool)\", p0, p1, p2, p3));\n\t}\n\n\tfunction log(address p0, uint p1, string memory p2, address p3) internal view {\n\t\t_sendLogPayload(abi.encodeWithSignature(\"log(address,uint,string,address)\", p0, p1, p2, p3));\n\t}\n\n\tfunction log(address p0, uint p1, bool p2, uint p3) internal view {\n\t\t_sendLogPayload(abi.encodeWithSignature(\"log(address,uint,bool,uint)\", p0, p1, p2, p3));\n\t}\n\n\tfunction log(address p0, uint p1, bool p2, string memory p3) internal view {\n\t\t_sendLogPayload(abi.encodeWithSignature(\"log(address,uint,bool,string)\", p0, p1, p2, p3));\n\t}\n\n\tfunction log(address p0, uint p1, bool p2, bool p3) internal view {\n\t\t_sendLogPayload(abi.encodeWithSignature(\"log(address,uint,bool,bool)\", p0, p1, p2, p3));\n\t}\n\n\tfunction log(address p0, uint p1, bool p2, address p3) internal view {\n\t\t_sendLogPayload(abi.encodeWithSignature(\"log(address,uint,bool,address)\", p0, p1, p2, p3));\n\t}\n\n\tfunction log(address p0, uint p1, address p2, uint p3) internal view {\n\t\t_sendLogPayload(abi.encodeWithSignature(\"log(address,uint,address,uint)\", p0, p1, p2, p3));\n\t}\n\n\tfunction log(address p0, uint p1, address p2, string memory p3) internal view {\n\t\t_sendLogPayload(abi.encodeWithSignature(\"log(address,uint,address,string)\", p0, p1, p2, p3));\n\t}\n\n\tfunction log(address p0, uint p1, address p2, bool p3) internal view {\n\t\t_sendLogPayload(abi.encodeWithSignature(\"log(address,uint,address,bool)\", p0, p1, p2, p3));\n\t}\n\n\tfunction log(address p0, uint p1, address p2, address p3) internal view {\n\t\t_sendLogPayload(abi.encodeWithSignature(\"log(address,uint,address,address)\", p0, p1, p2, p3));\n\t}\n\n\tfunction log(address p0, string memory p1, uint p2, uint p3) internal view {\n\t\t_sendLogPayload(abi.encodeWithSignature(\"log(address,string,uint,uint)\", p0, p1, p2, p3));\n\t}\n\n\tfunction log(address p0, string memory p1, uint p2, string memory p3) internal view {\n\t\t_sendLogPayload(abi.encodeWithSignature(\"log(address,string,uint,string)\", p0, p1, p2, p3));\n\t}\n\n\tfunction log(address p0, string memory p1, uint p2, bool p3) internal view {\n\t\t_sendLogPayload(abi.encodeWithSignature(\"log(address,string,uint,bool)\", p0, p1, p2, p3));\n\t}\n\n\tfunction log(address p0, string memory p1, uint p2, address p3) internal view {\n\t\t_sendLogPayload(abi.encodeWithSignature(\"log(address,string,uint,address)\", p0, p1, p2, p3));\n\t}\n\n\tfunction log(address p0, string memory p1, string memory p2, uint p3) internal view {\n\t\t_sendLogPayload(abi.encodeWithSignature(\"log(address,string,string,uint)\", p0, p1, p2, p3));\n\t}\n\n\tfunction log(address p0, string memory p1, string memory p2, string memory p3) internal view {\n\t\t_sendLogPayload(abi.encodeWithSignature(\"log(address,string,string,string)\", p0, p1, p2, p3));\n\t}\n\n\tfunction log(address p0, string memory p1, string memory p2, bool p3) internal view {\n\t\t_sendLogPayload(abi.encodeWithSignature(\"log(address,string,string,bool)\", p0, p1, p2, p3));\n\t}\n\n\tfunction log(address p0, string memory p1, string memory p2, address p3) internal view {\n\t\t_sendLogPayload(abi.encodeWithSignature(\"log(address,string,string,address)\", p0, p1, p2, p3));\n\t}\n\n\tfunction log(address p0, string memory p1, bool p2, uint p3) internal view {\n\t\t_sendLogPayload(abi.encodeWithSignature(\"log(address,string,bool,uint)\", p0, p1, p2, p3));\n\t}\n\n\tfunction log(address p0, string memory p1, bool p2, string memory p3) internal view {\n\t\t_sendLogPayload(abi.encodeWithSignature(\"log(address,string,bool,string)\", p0, p1, p2, p3));\n\t}\n\n\tfunction log(address p0, string memory p1, bool p2, bool p3) internal view {\n\t\t_sendLogPayload(abi.encodeWithSignature(\"log(address,string,bool,bool)\", p0, p1, p2, p3));\n\t}\n\n\tfunction log(address p0, string memory p1, bool p2, address p3) internal view {\n\t\t_sendLogPayload(abi.encodeWithSignature(\"log(address,string,bool,address)\", p0, p1, p2, p3));\n\t}\n\n\tfunction log(address p0, string memory p1, address p2, uint p3) internal view {\n\t\t_sendLogPayload(abi.encodeWithSignature(\"log(address,string,address,uint)\", p0, p1, p2, p3));\n\t}\n\n\tfunction log(address p0, string memory p1, address p2, string memory p3) internal view {\n\t\t_sendLogPayload(abi.encodeWithSignature(\"log(address,string,address,string)\", p0, p1, p2, p3));\n\t}\n\n\tfunction log(address p0, string memory p1, address p2, bool p3) internal view {\n\t\t_sendLogPayload(abi.encodeWithSignature(\"log(address,string,address,bool)\", p0, p1, p2, p3));\n\t}\n\n\tfunction log(address p0, string memory p1, address p2, address p3) internal view {\n\t\t_sendLogPayload(abi.encodeWithSignature(\"log(address,string,address,address)\", p0, p1, p2, p3));\n\t}\n\n\tfunction log(address p0, bool p1, uint p2, uint p3) internal view {\n\t\t_sendLogPayload(abi.encodeWithSignature(\"log(address,bool,uint,uint)\", p0, p1, p2, p3));\n\t}\n\n\tfunction log(address p0, bool p1, uint p2, string memory p3) internal view {\n\t\t_sendLogPayload(abi.encodeWithSignature(\"log(address,bool,uint,string)\", p0, p1, p2, p3));\n\t}\n\n\tfunction log(address p0, bool p1, uint p2, bool p3) internal view {\n\t\t_sendLogPayload(abi.encodeWithSignature(\"log(address,bool,uint,bool)\", p0, p1, p2, p3));\n\t}\n\n\tfunction log(address p0, bool p1, uint p2, address p3) internal view {\n\t\t_sendLogPayload(abi.encodeWithSignature(\"log(address,bool,uint,address)\", p0, p1, p2, p3));\n\t}\n\n\tfunction log(address p0, bool p1, string memory p2, uint p3) internal view {\n\t\t_sendLogPayload(abi.encodeWithSignature(\"log(address,bool,string,uint)\", p0, p1, p2, p3));\n\t}\n\n\tfunction log(address p0, bool p1, string memory p2, string memory p3) internal view {\n\t\t_sendLogPayload(abi.encodeWithSignature(\"log(address,bool,string,string)\", p0, p1, p2, p3));\n\t}\n\n\tfunction log(address p0, bool p1, string memory p2, bool p3) internal view {\n\t\t_sendLogPayload(abi.encodeWithSignature(\"log(address,bool,string,bool)\", p0, p1, p2, p3));\n\t}\n\n\tfunction log(address p0, bool p1, string memory p2, address p3) internal view {\n\t\t_sendLogPayload(abi.encodeWithSignature(\"log(address,bool,string,address)\", p0, p1, p2, p3));\n\t}\n\n\tfunction log(address p0, bool p1, bool p2, uint p3) internal view {\n\t\t_sendLogPayload(abi.encodeWithSignature(\"log(address,bool,bool,uint)\", p0, p1, p2, p3));\n\t}\n\n\tfunction log(address p0, bool p1, bool p2, string memory p3) internal view {\n\t\t_sendLogPayload(abi.encodeWithSignature(\"log(address,bool,bool,string)\", p0, p1, p2, p3));\n\t}\n\n\tfunction log(address p0, bool p1, bool p2, bool p3) internal view {\n\t\t_sendLogPayload(abi.encodeWithSignature(\"log(address,bool,bool,bool)\", p0, p1, p2, p3));\n\t}\n\n\tfunction log(address p0, bool p1, bool p2, address p3) internal view {\n\t\t_sendLogPayload(abi.encodeWithSignature(\"log(address,bool,bool,address)\", p0, p1, p2, p3));\n\t}\n\n\tfunction log(address p0, bool p1, address p2, uint p3) internal view {\n\t\t_sendLogPayload(abi.encodeWithSignature(\"log(address,bool,address,uint)\", p0, p1, p2, p3));\n\t}\n\n\tfunction log(address p0, bool p1, address p2, string memory p3) internal view {\n\t\t_sendLogPayload(abi.encodeWithSignature(\"log(address,bool,address,string)\", p0, p1, p2, p3));\n\t}\n\n\tfunction log(address p0, bool p1, address p2, bool p3) internal view {\n\t\t_sendLogPayload(abi.encodeWithSignature(\"log(address,bool,address,bool)\", p0, p1, p2, p3));\n\t}\n\n\tfunction log(address p0, bool p1, address p2, address p3) internal view {\n\t\t_sendLogPayload(abi.encodeWithSignature(\"log(address,bool,address,address)\", p0, p1, p2, p3));\n\t}\n\n\tfunction log(address p0, address p1, uint p2, uint p3) internal view {\n\t\t_sendLogPayload(abi.encodeWithSignature(\"log(address,address,uint,uint)\", p0, p1, p2, p3));\n\t}\n\n\tfunction log(address p0, address p1, uint p2, string memory p3) internal view {\n\t\t_sendLogPayload(abi.encodeWithSignature(\"log(address,address,uint,string)\", p0, p1, p2, p3));\n\t}\n\n\tfunction log(address p0, address p1, uint p2, bool p3) internal view {\n\t\t_sendLogPayload(abi.encodeWithSignature(\"log(address,address,uint,bool)\", p0, p1, p2, p3));\n\t}\n\n\tfunction log(address p0, address p1, uint p2, address p3) internal view {\n\t\t_sendLogPayload(abi.encodeWithSignature(\"log(address,address,uint,address)\", p0, p1, p2, p3));\n\t}\n\n\tfunction log(address p0, address p1, string memory p2, uint p3) internal view {\n\t\t_sendLogPayload(abi.encodeWithSignature(\"log(address,address,string,uint)\", p0, p1, p2, p3));\n\t}\n\n\tfunction log(address p0, address p1, string memory p2, string memory p3) internal view {\n\t\t_sendLogPayload(abi.encodeWithSignature(\"log(address,address,string,string)\", p0, p1, p2, p3));\n\t}\n\n\tfunction log(address p0, address p1, string memory p2, bool p3) internal view {\n\t\t_sendLogPayload(abi.encodeWithSignature(\"log(address,address,string,bool)\", p0, p1, p2, p3));\n\t}\n\n\tfunction log(address p0, address p1, string memory p2, address p3) internal view {\n\t\t_sendLogPayload(abi.encodeWithSignature(\"log(address,address,string,address)\", p0, p1, p2, p3));\n\t}\n\n\tfunction log(address p0, address p1, bool p2, uint p3) internal view {\n\t\t_sendLogPayload(abi.encodeWithSignature(\"log(address,address,bool,uint)\", p0, p1, p2, p3));\n\t}\n\n\tfunction log(address p0, address p1, bool p2, string memory p3) internal view {\n\t\t_sendLogPayload(abi.encodeWithSignature(\"log(address,address,bool,string)\", p0, p1, p2, p3));\n\t}\n\n\tfunction log(address p0, address p1, bool p2, bool p3) internal view {\n\t\t_sendLogPayload(abi.encodeWithSignature(\"log(address,address,bool,bool)\", p0, p1, p2, p3));\n\t}\n\n\tfunction log(address p0, address p1, bool p2, address p3) internal view {\n\t\t_sendLogPayload(abi.encodeWithSignature(\"log(address,address,bool,address)\", p0, p1, p2, p3));\n\t}\n\n\tfunction log(address p0, address p1, address p2, uint p3) internal view {\n\t\t_sendLogPayload(abi.encodeWithSignature(\"log(address,address,address,uint)\", p0, p1, p2, p3));\n\t}\n\n\tfunction log(address p0, address p1, address p2, string memory p3) internal view {\n\t\t_sendLogPayload(abi.encodeWithSignature(\"log(address,address,address,string)\", p0, p1, p2, p3));\n\t}\n\n\tfunction log(address p0, address p1, address p2, bool p3) internal view {\n\t\t_sendLogPayload(abi.encodeWithSignature(\"log(address,address,address,bool)\", p0, p1, p2, p3));\n\t}\n\n\tfunction log(address p0, address p1, address p2, address p3) internal view {\n\t\t_sendLogPayload(abi.encodeWithSignature(\"log(address,address,address,address)\", p0, p1, p2, p3));\n\t}\n\n}\n"
    },
    "contracts/AgreementViolation.sol": {
      "content": "// /*\r\n\r\n// * Copyright (c) Siemens AG, 2020-2022\r\n\r\n// *\r\n\r\n// * Authors:\r\n\r\n// * Susanne Stahnke <susanne.stahnke@siemens.com>,\r\n\r\n// * Yvonne Kovacs <yvonne.kovacs@siemens.com>\r\n\r\n// *\r\n\r\n// * This work is licensed under the terms of Apache 2.0. See\r\n\r\n// * the LICENSE file in the top-level directory.\r\n\r\n// */\r\n\r\nimport \"hardhat/console.sol\";\r\ncontract AgreementViolation {\r\n    \r\n    enum ViolationType {\r\n        NotViolated,\r\n        PaymentNotCompleted,\r\n        DataNotTransferredAsDescribed,\r\n        DataNotAsDescribed,\r\n        LicenseViolated\r\n    }\r\n\r\n    enum ResolutionType { Verification, Dispute }\r\n    enum ResolutionState { Completed, NotCompleted, Accepted, Denied }\r\n\r\n    struct Violation {\r\n        ViolationType violationType;\r\n        string issuerId;\r\n    }\r\n\r\n    struct SignedResolution {\r\n        string proofType;\r\n        string resolutionType;\r\n        string resolution;\r\n        string dataExchangeId;\r\n        uint256 iat;\r\n        string iss;\r\n        string sub;\r\n    }\r\n    \r\n    \r\n    mapping(uint256 => Violation) public violations;\r\n\r\n    mapping(uint256 => string) public penalties;\r\n\r\n    mapping(uint256 => string[]) public agreementIdToPenalties;\r\n\r\n    \r\n    function evaluateResolution(\r\n        uint256 _agreementId,\r\n        string memory _proofType,\r\n        string memory _type,\r\n        string memory _resolution,\r\n        string memory _dataExchangeId,\r\n        uint256 _iat,\r\n        string memory _iss,\r\n        string memory _sub) public { \r\n\r\n        SignedResolution memory signedResolution;\r\n        signedResolution.proofType = _proofType;\r\n        signedResolution.resolutionType = _type;\r\n        signedResolution.resolution = _resolution;\r\n        signedResolution.dataExchangeId = _dataExchangeId;\r\n        signedResolution.iat = _iat;\r\n        signedResolution.iss = _iss;   \r\n        signedResolution.sub = _sub;\r\n\r\n        if(keccak256(abi.encodePacked(signedResolution.resolution)) == keccak256(abi.encodePacked(\"completed\"))){\r\n                            delete agreementIdToPenalties[_agreementId];\r\n             \r\n        }\r\n        else if(keccak256(abi.encodePacked(signedResolution.resolution)) == keccak256(abi.encodePacked(\"notCompleted\"))) { \r\n                //Decryption key not published (data tranfer not as described)\r\n                issueViolation(_agreementId,ViolationType.DataNotTransferredAsDescribed, signedResolution.sub);\r\n                setPenalties(_agreementId);       \r\n        }\r\n        else if(keccak256(abi.encodePacked(signedResolution.resolution)) == keccak256(abi.encodePacked(\"accepted\"))){ \r\n                issueViolation(_agreementId,ViolationType.DataNotTransferredAsDescribed, signedResolution.sub);\r\n                setPenalties(_agreementId);\r\n             }\r\n        else if(keccak256(abi.encodePacked(signedResolution.resolution)) == keccak256(abi.encodePacked(\"denied\")))\r\n                //The cipherblock can be properly decrypted\r\n                 delete agreementIdToPenalties[_agreementId];\r\n\r\n    }\r\n\r\n    function getPenaltyChoices(uint256 _agreementId) public view returns (string[] memory){\r\n        return agreementIdToPenalties[_agreementId];\r\n    }\r\n    \r\n\r\n    function issueViolation(uint256 _agreementId, ViolationType _violationType, string memory _issuerId) private {\r\n        violations[_agreementId] = Violation(_violationType, _issuerId);\r\n    }\r\n\r\n    function setPenalties(uint256 _agreementId) private {\r\n        agreementIdToPenalties[_agreementId].push(\"Terminate\");\r\n        agreementIdToPenalties[_agreementId].push(\"NewEndDate\");\r\n        agreementIdToPenalties[_agreementId].push(\"NewEndDateAndReductionOfPayment\"); \r\n    }\r\n\r\n    function getViolation(uint256 _agreementId) public view returns (Violation memory){\r\n        return violations[_agreementId];\r\n    }\r\n\r\n    function getPenalty(uint256 _agreementId) public view returns (string memory){\r\n        return penalties[_agreementId];\r\n    }\r\n\r\n}"
    }
  },
  "settings": {
    "optimizer": {
      "enabled": true,
      "runs": 500
    },
    "outputSelection": {
      "*": {
        "*": [
          "abi",
          "evm.bytecode",
          "evm.deployedBytecode",
          "evm.methodIdentifiers",
          "metadata",
          "devdoc",
          "userdoc",
          "storageLayout",
          "evm.gasEstimates"
        ],
        "": [
          "ast"
        ]
      }
    },
    "metadata": {
      "useLiteralContent": true
    }
  }
}