{
  "language": "Solidity",
  "sources": {
    "contracts/Agreement.sol": {
      "content": "// /*\r\n\r\n// * Copyright (c) Siemens AG, 2020-2022\r\n\r\n// *\r\n\r\n// * Authors:\r\n\r\n// * Susanne Stahnke <susanne.stahnke@siemens.com>,\r\n\r\n// * Yvonne Kovacs <yvonne.kovacs@siemens.com>\r\n\r\n// *\r\n\r\n// * This work is licensed under the terms of Apache 2.0. See\r\n\r\n// * the LICENSE file in the top-level directory.\r\n\r\n// */\r\n\r\npragma solidity ^0.8.0;\r\n\r\nimport \"hardhat/console.sol\";\r\n\r\nenum State {\r\n    Active,\r\n    Violated,\r\n    Terminated\r\n}\r\n\r\nstruct Agreement {\r\n    uint256 agreementId;\r\n    string providerPublicKey;\r\n    string consumerPublicKey;\r\n    string dataExchangeAgreementHash;\r\n    string[2] signatures;\r\n    DataOffering dataOffering;\r\n    string purpose;\r\n    State state;\r\n    uint256[3] agreementDates;\r\n    IntendedUse intendedUse;\r\n    LicenseGrant licenseGrant;\r\n    TypeOfData typeOfData;\r\n    PricingModel pricingModel;\r\n    Violation violation;\r\n    bool termination;\r\n}\r\n\r\nstruct TypeOfData {\r\n    bool dataStream;\r\n    bool personalData;\r\n}\r\n\r\nstruct DataOffering {\r\n    string dataOfferingId;\r\n    uint256 dataOfferingVersion;\r\n    string title;\r\n}\r\n\r\nstruct IntendedUse {\r\n    bool processData;\r\n    bool shareDataWithThirdParty;\r\n    bool editData;\r\n}\r\n\r\nstruct LicenseGrant {\r\n    bool transferable;\r\n    bool exclusiveness;\r\n    bool paidUp;\r\n    bool revocable;\r\n    bool processing;\r\n    bool modifying;\r\n    bool analyzing;\r\n    bool storingData;\r\n    bool storingCopy;\r\n    bool reproducing;\r\n    bool distributing;\r\n    bool loaning;\r\n    bool selling;\r\n    bool renting;\r\n    bool furtherLicensing;\r\n    bool leasing;\r\n}\r\n\r\nstruct PricingModel {\r\n    string paymentType;\r\n    uint256 price;\r\n    string currency;\r\n    uint256 fee;\r\n    PaymentOnSubscription paymentOnSubscription;\r\n    bool isFree;\r\n}\r\n\r\nstruct PaymentOnSubscription {\r\n    string timeDuration;\r\n    string repeat;\r\n}\r\n\r\nenum ViolationType {\r\n    NotViolated,\r\n    PaymentNotCompleted,\r\n    DataNotTransferredAsDescribed,\r\n    DataNotAsDescribed,\r\n    LicenseViolated\r\n}\r\n\r\nstruct Violation {\r\n    ViolationType violationType;\r\n    string issuerId;\r\n    string[3] penaltyChoices;\r\n}\r\n\r\nstruct Counter {\r\n    uint256 activeAgreementCount;\r\n    mapping (string => uint) providerCount;\r\n    mapping (string => uint) providerActiveCount;\r\n    mapping (string => uint) consumerCount;\r\n    mapping (string => uint) consumerActiveCount;\r\n    mapping (string => uint) dataOfferingCount;\r\n}\r\n\r\nstruct SignedResolution {\r\n    string proofType;\r\n    string resolutionType;\r\n    string resolution;\r\n    string dataExchangeId;\r\n    uint256 iat;\r\n    string iss;\r\n    string sub;\r\n}\r\n\r\nlibrary AgreementViolationLibrary {\r\n\r\n    function evaluateResolution(\r\n        Agreement storage agreement,\r\n        string memory _proofType,\r\n        string memory _type,\r\n        string memory _resolution,\r\n        string memory _dataExchangeId,\r\n        uint256 _iat,\r\n        string memory _iss,\r\n        string memory _sub,\r\n        Counter storage counter) public {\r\n\r\n        SignedResolution memory signedResolution;\r\n        signedResolution.proofType = _proofType;\r\n        signedResolution.resolutionType = _type;\r\n        signedResolution.resolution = _resolution;\r\n        signedResolution.dataExchangeId = _dataExchangeId;\r\n        signedResolution.iat = _iat;\r\n        signedResolution.iss = _iss;   \r\n        signedResolution.sub = _sub;\r\n\r\n        if(keccak256(abi.encodePacked(signedResolution.resolution)) == keccak256(abi.encodePacked(\"completed\"))){\r\n            delete agreement.violation.penaltyChoices;   \r\n        }\r\n        else if(keccak256(abi.encodePacked(signedResolution.resolution)) == keccak256(abi.encodePacked(\"notCompleted\"))) { \r\n                issueViolation(agreement, ViolationType.DataNotTransferredAsDescribed, signedResolution.sub); \r\n                agreement.state = State.Violated; \r\n                counter.activeAgreementCount--;\r\n                counter.providerActiveCount[agreement.providerPublicKey]--;\r\n                counter.consumerActiveCount[agreement.consumerPublicKey]--;\r\n                \r\n        }\r\n        else if(keccak256(abi.encodePacked(signedResolution.resolution)) == keccak256(abi.encodePacked(\"accepted\"))){ \r\n                issueViolation(agreement, ViolationType.DataNotTransferredAsDescribed, signedResolution.sub); \r\n                agreement.state = State.Violated; \r\n                counter.activeAgreementCount--;\r\n                counter.providerActiveCount[agreement.providerPublicKey]--;\r\n                counter.consumerActiveCount[agreement.consumerPublicKey]--;\r\n             }\r\n        else if(keccak256(abi.encodePacked(signedResolution.resolution)) == keccak256(abi.encodePacked(\"denied\"))){\r\n                delete agreement.violation.penaltyChoices;  \r\n        }\r\n\r\n    }\r\n\r\n    function issueViolation(Agreement storage agreement, ViolationType _violationType, string memory _issuerId) private {\r\n        agreement.violation = Violation(_violationType, _issuerId, [\"Terminate\", \"NewEndDateForAgreement\", \"NewEndDateForAgreementAndReductionOfPayment\"]);\r\n    }\r\n\r\n     function getViolation(Agreement storage agreement) public view returns (Violation memory){\r\n        return agreement.violation;\r\n    }\r\n   \r\n    function enforcePenalty (Agreement storage agreement, string memory _chosenPenalty, uint256 _price, uint256 _fee,\r\n                             uint256 _newEndDate, Counter storage counter) public {\r\n\r\n        if(agreement.violation.violationType == ViolationType.DataNotTransferredAsDescribed){\r\n                if (keccak256(abi.encodePacked(_chosenPenalty)) == \"NewEndDateForAgreement\"){\r\n                    require(_newEndDate > block.timestamp, \"New end date must be after current date\");\r\n                    agreement.agreementDates[2] = _newEndDate;\r\n                }\r\n                else if (keccak256(abi.encodePacked(_chosenPenalty)) == (keccak256(abi.encodePacked(\"NewEndDateForAgreementAndReductionOfPayment\")))){\r\n                    require(_newEndDate > block.timestamp, \"New end date must be after current date.\");\r\n                    agreement.agreementDates[2] = _newEndDate;\r\n                    agreement.pricingModel.price = _price;\r\n                    agreement.pricingModel.fee = _fee;\r\n                }\r\n            agreement.state = State.Active;\r\n            counter.activeAgreementCount++;\r\n            counter.providerActiveCount[agreement.providerPublicKey]++;\r\n            counter.consumerActiveCount[agreement.consumerPublicKey]++; \r\n        }    \r\n    }\r\n}\r\n    \r\nlibrary AgreementLib {\r\n\r\n    function createAgreement(\r\n        string memory _providerPublicKey,\r\n        string memory _consumerPublicKey,\r\n        string memory _dataExchangeAgreementHash,\r\n        string[2] memory _signatures,\r\n        DataOffering memory dataOffering,\r\n        string memory _purpose,\r\n        uint256[] memory dates,\r\n        IntendedUse memory intendedUse,\r\n        LicenseGrant memory licenseGrant,\r\n        PricingModel memory pricingModel,\r\n        TypeOfData memory typeOfData,\r\n        Counter storage counter\r\n    ) internal returns (Agreement memory agreement)\r\n    {\r\n        agreement.providerPublicKey = _providerPublicKey;\r\n        agreement.consumerPublicKey = _consumerPublicKey;\r\n        agreement.dataExchangeAgreementHash = _dataExchangeAgreementHash;\r\n        agreement.signatures = _signatures;\r\n        agreement.dataOffering.dataOfferingId = dataOffering.dataOfferingId;\r\n        agreement.dataOffering.dataOfferingVersion = dataOffering.dataOfferingVersion;\r\n        agreement.dataOffering.title = dataOffering.title;\r\n        agreement.purpose = _purpose;\r\n\r\n        agreement.state = State.Active;\r\n        agreement.agreementDates[0] = dates[0];\r\n        agreement.agreementDates[1] = dates[1];\r\n\r\n        require(\r\n            dates[1] >= agreement.agreementDates[0],\r\n            \"Start date must be after creation date.\"\r\n        );\r\n        require(dates[2] > dates[1], \"End date must be after start date.\");\r\n        agreement.agreementDates[2] = dates[2];\r\n        agreement.intendedUse = intendedUse;\r\n        agreement.licenseGrant = licenseGrant;\r\n        agreement.pricingModel = pricingModel;\r\n\r\n        agreement.typeOfData.dataStream = typeOfData.dataStream;\r\n        agreement.typeOfData.personalData = typeOfData.personalData;\r\n       \r\n        counter.activeAgreementCount++;\r\n        counter.providerCount[_providerPublicKey]++;\r\n        counter.consumerCount[_consumerPublicKey]++; \r\n        counter.providerActiveCount[_providerPublicKey]++;\r\n        counter.consumerActiveCount[_consumerPublicKey]++; \r\n        counter.dataOfferingCount[dataOffering.dataOfferingId]++;\r\n    \r\n    }\r\n\r\n    function terminateAgreement(Agreement storage agreement, Counter storage counter) public {\r\n        if(agreement.agreementDates[2]<=block.timestamp || agreement.termination){ \r\n            if(agreement.state == State.Active){\r\n                counter.activeAgreementCount--;\r\n                counter.providerActiveCount[agreement.providerPublicKey]--;\r\n                counter.consumerActiveCount[agreement.consumerPublicKey]--;\r\n            }     \r\n            agreement.state = State.Terminated;\r\n        }\r\n    }\r\n}\r\n\r\nlibrary GetAgreementsLibrary {\r\n     function getAgreementsByConsumer(Agreement[] storage agreements, string[] memory _consumerPublicKeys, bool active, Counter storage counter) external view returns (Agreement[] memory) {\r\n        uint256 k = 0;\r\n        uint256 length = 0;\r\n        Agreement[] memory consumerAgreements;\r\n        if(active) {\r\n            for(uint j= 0; j < _consumerPublicKeys.length; j++)\r\n                length += counter.consumerActiveCount[_consumerPublicKeys[j]];\r\n            consumerAgreements = new Agreement[](length); \r\n            for (uint i = 0; i < agreements.length; i++)\r\n                for( uint j= 0; j < _consumerPublicKeys.length; j++)\r\n                     if (agreements[i].state == State.Active && keccak256(abi.encodePacked(agreements[i].consumerPublicKey)) == keccak256(abi.encodePacked(_consumerPublicKeys[j]))){\r\n                        console.log(i);\r\n                        consumerAgreements[k] = agreements[i];\r\n                        k++;\r\n                    }  \r\n        }\r\n        else {\r\n            for(uint j= 0; j < _consumerPublicKeys.length; j++)\r\n                length += counter.consumerCount[_consumerPublicKeys[j]];\r\n            consumerAgreements = new Agreement[](length);\r\n            for (uint i = 0; i < agreements.length; i++)\r\n                for( uint j= 0; j < _consumerPublicKeys.length; j++)\r\n                     if (keccak256(abi.encodePacked(agreements[i].consumerPublicKey)) == keccak256(abi.encodePacked(_consumerPublicKeys[j]))){\r\n                        consumerAgreements[k] = agreements[i];\r\n                        k++;\r\n                    }\r\n        }\r\n        return consumerAgreements;\r\n    }\r\n\r\n    function getAgreementsByProvider(Agreement[] storage agreements, string[] memory _providerPublicKeys, bool active, Counter storage counter) external view returns (Agreement[] memory) {\r\n        uint256 k = 0;\r\n        uint256 length = 0;\r\n        Agreement[] memory providerAgreements;\r\n        if(active) {\r\n            for(uint j= 0; j < _providerPublicKeys.length; j++)\r\n                length += counter.providerActiveCount[_providerPublicKeys[j]];\r\n            providerAgreements = new Agreement[](length); \r\n            for (uint i = 0; i < agreements.length; i++)\r\n                for( uint j= 0; j < _providerPublicKeys.length; j++)\r\n                     if (agreements[i].state == State.Active && keccak256(abi.encodePacked(agreements[i].providerPublicKey)) == keccak256(abi.encodePacked(_providerPublicKeys[j]))){\r\n                        console.log(i);\r\n                        providerAgreements[k] = agreements[i];\r\n                        k++;\r\n                    }  \r\n        }\r\n        else {\r\n            for(uint j= 0; j < _providerPublicKeys.length; j++)\r\n                length += counter.providerCount[_providerPublicKeys[j]];\r\n            providerAgreements = new Agreement[](length);\r\n            for (uint i = 0; i < agreements.length; i++)\r\n                for( uint j= 0; j < _providerPublicKeys.length; j++)\r\n                     if (keccak256(abi.encodePacked(agreements[i].providerPublicKey)) == keccak256(abi.encodePacked(_providerPublicKeys[j]))){\r\n                        providerAgreements[k] = agreements[i];\r\n                        k++;\r\n                    }\r\n        }\r\n        return providerAgreements;\r\n    }\r\n}\r\n\r\nlibrary RetrieveAgreementsLibrary {\r\n\r\n    function checkActiveAgreements (Agreement[] storage agreements, Counter storage counter) external view returns (Agreement[] memory) {\r\n        Agreement[] memory activeAgreements = new Agreement[](counter.activeAgreementCount); \r\n        uint k = 0;\r\n        for (uint i = 0; i < agreements.length; i++){\r\n            if(agreements[i].state == State.Active) {   \r\n                activeAgreements[k++] = agreements[i];\r\n            }\r\n        }\r\n        return activeAgreements;\r\n    }\r\n    \r\n    // function checkAgreementsByConsumer(Agreement[] storage agreements, string memory _consumerPublicKey, bool active, Counter storage counter) external view returns (Agreement[] memory) {\r\n    //     uint256 k = 0;\r\n    //     Agreement[] memory consumerAgreements;\r\n    //     if(active) {\r\n    //         consumerAgreements = new Agreement[](counter.consumerActiveCount[_consumerPublicKey]); \r\n    //         for (uint i = 0; i < agreements.length; i++)\r\n    //             if (agreements[i].state == State.Active && keccak256(abi.encodePacked(agreements[i].consumerPublicKey)) == keccak256(abi.encodePacked(_consumerPublicKey))){\r\n    //                 consumerAgreements[k++] = agreements[i];\r\n    //             }  \r\n    //     }\r\n    //     else {\r\n    //         consumerAgreements = new Agreement[](counter.consumerCount[_consumerPublicKey]);\r\n    //         for (uint i = 0; i < agreements.length; i++)\r\n    //             if (keccak256(abi.encodePacked(agreements[i].consumerPublicKey)) == keccak256(abi.encodePacked(_consumerPublicKey))){\r\n    //                 consumerAgreements[k++] = agreements[i];\r\n    //             }\r\n    //     }\r\n    //     return consumerAgreements;\r\n    // }\r\n\r\n    // function checkAgreementsByProvider (Agreement[] storage agreements, string memory _providerPublicKey, bool active, Counter storage counter) external view returns (Agreement[] memory) {\r\n    //     uint256 k = 0;\r\n    //     Agreement[] memory providerAgreements;\r\n    //     if(active) {\r\n    //         providerAgreements = new Agreement[](counter.providerActiveCount[_providerPublicKey]);\r\n    //         for (uint i = 0; i < agreements.length; i++)\r\n    //             if (agreements[i].state == State.Active && keccak256(abi.encodePacked(agreements[i].providerPublicKey)) == keccak256(abi.encodePacked(_providerPublicKey))){\r\n    //                 providerAgreements[k++] = agreements[i];\r\n    //             }  \r\n    //     }\r\n    //     else {\r\n    //         providerAgreements = new Agreement[](counter.providerCount[_providerPublicKey]);\r\n    //         for (uint i = 0; i < agreements.length; i++)\r\n    //             if (keccak256(abi.encodePacked(agreements[i].providerPublicKey)) == keccak256(abi.encodePacked(_providerPublicKey))){\r\n    //                 providerAgreements[k++] = agreements[i];\r\n    //             }\r\n    //     }\r\n    //     return providerAgreements;\r\n    // }\r\n\r\n\r\n    function checkAgreementsByDataOffering (Agreement[] storage agreements, string memory _dataOffering, Counter storage counter) external view returns (Agreement[] memory) {\r\n        Agreement[] memory dataOfferingAgreements = new Agreement[](counter.dataOfferingCount[_dataOffering]);\r\n        uint k = 0;\r\n        for (uint i = 0; i < agreements.length; i++){\r\n            if (keccak256(abi.encodePacked(agreements[i].dataOffering.dataOfferingId)) == keccak256(abi.encodePacked(_dataOffering))) {\r\n                dataOfferingAgreements[k++] = agreements[i];\r\n            }\r\n        }\r\n        return dataOfferingAgreements;\r\n    }\r\n\r\n      \r\n    function retrieveAgreements (Agreement[] storage agreements, string memory _consumerPublicKey, Counter storage counter) external view returns (Agreement[] memory, uint256 k) {\r\n\r\n        Agreement[] memory consumerPublicKeyAgreements = new Agreement[](counter.consumerActiveCount[_consumerPublicKey]);\r\n     \r\n        for (uint i = 0; i < agreements.length; i++){\r\n            if (agreements[i].state == State.Active && agreements[i].agreementDates[1]<=block.timestamp && keccak256(abi.encodePacked(agreements[i].consumerPublicKey)) == keccak256(abi.encodePacked(_consumerPublicKey))) {\r\n                consumerPublicKeyAgreements[k++] = agreements[i];\r\n            }\r\n        }\r\n        return (consumerPublicKeyAgreements, k);\r\n    }\r\n}\r\n\r\ncontract DataSharingAgreement {\r\n\r\n    using AgreementLib for Agreement;\r\n\r\n    using AgreementLib for Counter;\r\n    \r\n    using RetrieveAgreementsLibrary for Agreement;\r\n\r\n    using GetAgreementsLibrary for Agreement;\r\n    \r\n    using AgreementViolationLibrary for Agreement;\r\n\r\n    Counter counter;\r\n\r\n    Agreement[] public agreements;\r\n\r\n    mapping(uint256 => string[]) agreementIdToPenalties;   \r\n\r\n    event AgreementActive(string providerPublicKey, string consumerPublicKey, uint256 id);\r\n    event PenaltyChoices(string consumerPublicKey, uint256 id, string[3] penaltyChoices);\r\n    event AgreeOnPenalty(string providerPublicKey, string consumerPublicKey, uint256 id, string chosenPenalty, uint256 newEndDate, uint256 price, uint256 fee);\r\n    event TerminationProposal(string publicKey, uint256 id);\r\n    event AgreementTerminated(string providerPublicKey, string consumerPublicKey,uint256 id);\r\n\r\n    function createAgreement(\r\n        string memory _providerPublicKey,\r\n        string memory _consumerPublicKey,\r\n        string memory _dataExchangeAgreementHash,\r\n        string[2] memory _signatures,\r\n        DataOffering memory dataOffering,\r\n        string memory _purpose,\r\n        uint256[] memory dates,\r\n        IntendedUse memory intendedUse,\r\n        LicenseGrant memory licenseGrant,\r\n        PricingModel memory pricingModel,\r\n        TypeOfData memory typeOfData\r\n    ) public {\r\n        Agreement memory agreement = AgreementLib.createAgreement(\r\n            _providerPublicKey,\r\n            _consumerPublicKey,\r\n            _dataExchangeAgreementHash,\r\n            _signatures,\r\n            dataOffering,\r\n            _purpose,\r\n            dates,\r\n            intendedUse,\r\n            licenseGrant,\r\n            pricingModel,\r\n            typeOfData,\r\n            counter\r\n        );\r\n        agreement.agreementId = agreements.length;\r\n        agreements.push(agreement);\r\n        emit AgreementActive(_providerPublicKey, _consumerPublicKey, agreements.length - 1);\r\n    }\r\n\r\n    function getAgreement(uint256 id) public view returns (Agreement memory) {\r\n        return agreements[id];\r\n    }\r\n\r\n    function getAgreementsLength() public view returns (uint256) {\r\n        return agreements.length;\r\n    } \r\n\r\n    function getState(uint256 id) public view returns (State) {\r\n        return agreements[id].state;\r\n    } \r\n\r\n    function checkActiveAgreements() public view returns(Agreement[] memory) {\r\n        Agreement[] memory activeAgreements = RetrieveAgreementsLibrary.checkActiveAgreements(agreements, counter);\r\n        return activeAgreements;\r\n    }\r\n\r\n    // function checkAgreementsByProvider(string memory _providerPublicKey, bool active) public view returns(Agreement[] memory) {\r\n    //     Agreement[] memory agreementsByProvider = RetrieveAgreementsLibrary.checkAgreementsByProvider(agreements, _providerPublicKey, active, counter);\r\n    //     return agreementsByProvider;\r\n    // }\r\n\r\n     function getAgreementsByProvider(string[] memory _providerPublicKeys, bool active) public view returns(Agreement[] memory) {\r\n        Agreement[] memory agreementsByProvider = GetAgreementsLibrary.getAgreementsByProvider(agreements,_providerPublicKeys, active, counter);\r\n        return agreementsByProvider;\r\n    }\r\n   \r\n    function getAgreementsByConsumer(string[] memory _consumerPublicKeys, bool active) public view returns(Agreement[] memory) {\r\n        Agreement[] memory agreementsByConsumer = GetAgreementsLibrary.getAgreementsByConsumer(agreements,_consumerPublicKeys, active, counter);\r\n        return agreementsByConsumer;\r\n    }\r\n\r\n    // function checkAgreementsByConsumer(string memory _consumerPublicKey, bool active) public view returns(Agreement[] memory) {\r\n    //     Agreement[] memory agreementsByConsumer = RetrieveAgreementsLibrary.checkAgreementsByConsumer(agreements,_consumerPublicKey, active, counter);\r\n    //     return agreementsByConsumer;\r\n    // }\r\n\r\n     function checkAgreementsByDataOffering(string memory _dataOfferingId) public view returns(Agreement[] memory) {\r\n        Agreement[] memory agreementsByDataOffering = RetrieveAgreementsLibrary.checkAgreementsByDataOffering(agreements,_dataOfferingId, counter);\r\n        return agreementsByDataOffering;\r\n    }\r\n\r\n    function retrieveAgreements(string memory _consumerPublicKey) external view returns (Agreement[] memory, uint256 k) {\r\n        return RetrieveAgreementsLibrary.retrieveAgreements(agreements,_consumerPublicKey, counter);\r\n    }\r\n\r\n    function evaluateSignedResolution(uint256 _agreementId, string memory _proofType, string memory _type, string memory _resolution,\r\n                                string memory _dataExchangeId, uint256 _iat, string memory _iss, string memory _sub) public{ \r\n\r\n      AgreementViolationLibrary.evaluateResolution(agreements[_agreementId], _proofType, _type, _resolution, _dataExchangeId, _iat, _iss, _sub, counter);\r\n      emit PenaltyChoices(agreements[_agreementId].consumerPublicKey, _agreementId, agreements[_agreementId].violation.penaltyChoices);\r\n    }\r\n\r\n    function retrievePricingModel(uint256 _agreementId) public view returns (PricingModel memory){\r\n        return agreements[_agreementId].pricingModel;\r\n    }\r\n\r\n     function requestAgreementTermination(uint256 agreementId, string memory _publicKey) public {\r\n        require(keccak256(abi.encodePacked(agreements[agreementId].providerPublicKey)) == keccak256(abi.encodePacked(_publicKey)) || keccak256(abi.encodePacked(agreements[agreementId].consumerPublicKey)) == keccak256(abi.encodePacked(_publicKey)));\r\n        agreements[agreementId].termination = true; \r\n        if(keccak256(abi.encodePacked(agreements[agreementId].providerPublicKey)) == keccak256(abi.encodePacked(_publicKey)))\r\n            emit TerminationProposal(agreements[agreementId].consumerPublicKey, agreements[agreementId].agreementId);\r\n        else\r\n            emit TerminationProposal(agreements[agreementId].providerPublicKey, agreements[agreementId].agreementId);\r\n    }\r\n\r\n\r\n    function terminateAgreement(uint256 _agreementId) public{ \r\n      AgreementLib.terminateAgreement(agreements[_agreementId], counter);\r\n      if(agreements[_agreementId].state == State.Terminated){\r\n            emit AgreementTerminated(agreements[_agreementId].providerPublicKey, agreements[_agreementId].consumerPublicKey, _agreementId); \r\n      }\r\n\t}\r\n\r\n    function enforcePenalty ( uint256 _id, string memory _chosenPenalty, uint256 _price, uint256 _fee, uint256 _newEndDate) public {\r\n        require((agreements[_id].state == State.Violated), \"Agreement must be violated in order to enforce penalty\");\r\n        if(keccak256(abi.encodePacked(_chosenPenalty)) == keccak256(abi.encodePacked(\"Terminate\"))){\r\n            agreements[_id].termination = true;\r\n            terminateAgreement(_id);\r\n        }\r\n        else{\r\n            AgreementViolationLibrary.enforcePenalty (agreements[_id], _chosenPenalty, _price, _fee, _newEndDate, counter);\r\n            emit AgreeOnPenalty(agreements[_id].providerPublicKey, agreements[_id].consumerPublicKey,\r\n                 agreements[_id].agreementId, _chosenPenalty, _newEndDate,_price, _fee);\r\n        }\r\n        \r\n    }\r\n\r\n    function notifyConsentRevoked( string memory _dataOfferingId) public view returns (string[] memory) {    \r\n        string[] memory consumers = new string[](counter.dataOfferingCount[_dataOfferingId]); \r\n        uint256 k = 0; \r\n        for (uint i = 0; i < agreements.length; i++){\r\n            if (keccak256(abi.encodePacked(agreements[i].dataOffering.dataOfferingId)) == keccak256(abi.encodePacked(_dataOfferingId))) {\r\n                consumers[k++]=agreements[i].consumerPublicKey; \r\n            }\r\n        }\r\n        return consumers;\r\n    }\r\n}\r\n"
    },
    "hardhat/console.sol": {
      "content": "// SPDX-License-Identifier: MIT\npragma solidity >= 0.4.22 <0.9.0;\n\nlibrary console {\n\taddress constant CONSOLE_ADDRESS = address(0x000000000000000000636F6e736F6c652e6c6f67);\n\n\tfunction _sendLogPayload(bytes memory payload) private view {\n\t\tuint256 payloadLength = payload.length;\n\t\taddress consoleAddress = CONSOLE_ADDRESS;\n\t\tassembly {\n\t\t\tlet payloadStart := add(payload, 32)\n\t\t\tlet r := staticcall(gas(), consoleAddress, payloadStart, payloadLength, 0, 0)\n\t\t}\n\t}\n\n\tfunction log() internal view {\n\t\t_sendLogPayload(abi.encodeWithSignature(\"log()\"));\n\t}\n\n\tfunction logInt(int p0) internal view {\n\t\t_sendLogPayload(abi.encodeWithSignature(\"log(int)\", p0));\n\t}\n\n\tfunction logUint(uint p0) internal view {\n\t\t_sendLogPayload(abi.encodeWithSignature(\"log(uint)\", p0));\n\t}\n\n\tfunction logString(string memory p0) internal view {\n\t\t_sendLogPayload(abi.encodeWithSignature(\"log(string)\", p0));\n\t}\n\n\tfunction logBool(bool p0) internal view {\n\t\t_sendLogPayload(abi.encodeWithSignature(\"log(bool)\", p0));\n\t}\n\n\tfunction logAddress(address p0) internal view {\n\t\t_sendLogPayload(abi.encodeWithSignature(\"log(address)\", p0));\n\t}\n\n\tfunction logBytes(bytes memory p0) internal view {\n\t\t_sendLogPayload(abi.encodeWithSignature(\"log(bytes)\", p0));\n\t}\n\n\tfunction logBytes1(bytes1 p0) internal view {\n\t\t_sendLogPayload(abi.encodeWithSignature(\"log(bytes1)\", p0));\n\t}\n\n\tfunction logBytes2(bytes2 p0) internal view {\n\t\t_sendLogPayload(abi.encodeWithSignature(\"log(bytes2)\", p0));\n\t}\n\n\tfunction logBytes3(bytes3 p0) internal view {\n\t\t_sendLogPayload(abi.encodeWithSignature(\"log(bytes3)\", p0));\n\t}\n\n\tfunction logBytes4(bytes4 p0) internal view {\n\t\t_sendLogPayload(abi.encodeWithSignature(\"log(bytes4)\", p0));\n\t}\n\n\tfunction logBytes5(bytes5 p0) internal view {\n\t\t_sendLogPayload(abi.encodeWithSignature(\"log(bytes5)\", p0));\n\t}\n\n\tfunction logBytes6(bytes6 p0) internal view {\n\t\t_sendLogPayload(abi.encodeWithSignature(\"log(bytes6)\", p0));\n\t}\n\n\tfunction logBytes7(bytes7 p0) internal view {\n\t\t_sendLogPayload(abi.encodeWithSignature(\"log(bytes7)\", p0));\n\t}\n\n\tfunction logBytes8(bytes8 p0) internal view {\n\t\t_sendLogPayload(abi.encodeWithSignature(\"log(bytes8)\", p0));\n\t}\n\n\tfunction logBytes9(bytes9 p0) internal view {\n\t\t_sendLogPayload(abi.encodeWithSignature(\"log(bytes9)\", p0));\n\t}\n\n\tfunction logBytes10(bytes10 p0) internal view {\n\t\t_sendLogPayload(abi.encodeWithSignature(\"log(bytes10)\", p0));\n\t}\n\n\tfunction logBytes11(bytes11 p0) internal view {\n\t\t_sendLogPayload(abi.encodeWithSignature(\"log(bytes11)\", p0));\n\t}\n\n\tfunction logBytes12(bytes12 p0) internal view {\n\t\t_sendLogPayload(abi.encodeWithSignature(\"log(bytes12)\", p0));\n\t}\n\n\tfunction logBytes13(bytes13 p0) internal view {\n\t\t_sendLogPayload(abi.encodeWithSignature(\"log(bytes13)\", p0));\n\t}\n\n\tfunction logBytes14(bytes14 p0) internal view {\n\t\t_sendLogPayload(abi.encodeWithSignature(\"log(bytes14)\", p0));\n\t}\n\n\tfunction logBytes15(bytes15 p0) internal view {\n\t\t_sendLogPayload(abi.encodeWithSignature(\"log(bytes15)\", p0));\n\t}\n\n\tfunction logBytes16(bytes16 p0) internal view {\n\t\t_sendLogPayload(abi.encodeWithSignature(\"log(bytes16)\", p0));\n\t}\n\n\tfunction logBytes17(bytes17 p0) internal view {\n\t\t_sendLogPayload(abi.encodeWithSignature(\"log(bytes17)\", p0));\n\t}\n\n\tfunction logBytes18(bytes18 p0) internal view {\n\t\t_sendLogPayload(abi.encodeWithSignature(\"log(bytes18)\", p0));\n\t}\n\n\tfunction logBytes19(bytes19 p0) internal view {\n\t\t_sendLogPayload(abi.encodeWithSignature(\"log(bytes19)\", p0));\n\t}\n\n\tfunction logBytes20(bytes20 p0) internal view {\n\t\t_sendLogPayload(abi.encodeWithSignature(\"log(bytes20)\", p0));\n\t}\n\n\tfunction logBytes21(bytes21 p0) internal view {\n\t\t_sendLogPayload(abi.encodeWithSignature(\"log(bytes21)\", p0));\n\t}\n\n\tfunction logBytes22(bytes22 p0) internal view {\n\t\t_sendLogPayload(abi.encodeWithSignature(\"log(bytes22)\", p0));\n\t}\n\n\tfunction logBytes23(bytes23 p0) internal view {\n\t\t_sendLogPayload(abi.encodeWithSignature(\"log(bytes23)\", p0));\n\t}\n\n\tfunction logBytes24(bytes24 p0) internal view {\n\t\t_sendLogPayload(abi.encodeWithSignature(\"log(bytes24)\", p0));\n\t}\n\n\tfunction logBytes25(bytes25 p0) internal view {\n\t\t_sendLogPayload(abi.encodeWithSignature(\"log(bytes25)\", p0));\n\t}\n\n\tfunction logBytes26(bytes26 p0) internal view {\n\t\t_sendLogPayload(abi.encodeWithSignature(\"log(bytes26)\", p0));\n\t}\n\n\tfunction logBytes27(bytes27 p0) internal view {\n\t\t_sendLogPayload(abi.encodeWithSignature(\"log(bytes27)\", p0));\n\t}\n\n\tfunction logBytes28(bytes28 p0) internal view {\n\t\t_sendLogPayload(abi.encodeWithSignature(\"log(bytes28)\", p0));\n\t}\n\n\tfunction logBytes29(bytes29 p0) internal view {\n\t\t_sendLogPayload(abi.encodeWithSignature(\"log(bytes29)\", p0));\n\t}\n\n\tfunction logBytes30(bytes30 p0) internal view {\n\t\t_sendLogPayload(abi.encodeWithSignature(\"log(bytes30)\", p0));\n\t}\n\n\tfunction logBytes31(bytes31 p0) internal view {\n\t\t_sendLogPayload(abi.encodeWithSignature(\"log(bytes31)\", p0));\n\t}\n\n\tfunction logBytes32(bytes32 p0) internal view {\n\t\t_sendLogPayload(abi.encodeWithSignature(\"log(bytes32)\", p0));\n\t}\n\n\tfunction log(uint p0) internal view {\n\t\t_sendLogPayload(abi.encodeWithSignature(\"log(uint)\", p0));\n\t}\n\n\tfunction log(string memory p0) internal view {\n\t\t_sendLogPayload(abi.encodeWithSignature(\"log(string)\", p0));\n\t}\n\n\tfunction log(bool p0) internal view {\n\t\t_sendLogPayload(abi.encodeWithSignature(\"log(bool)\", p0));\n\t}\n\n\tfunction log(address p0) internal view {\n\t\t_sendLogPayload(abi.encodeWithSignature(\"log(address)\", p0));\n\t}\n\n\tfunction log(uint p0, uint p1) internal view {\n\t\t_sendLogPayload(abi.encodeWithSignature(\"log(uint,uint)\", p0, p1));\n\t}\n\n\tfunction log(uint p0, string memory p1) internal view {\n\t\t_sendLogPayload(abi.encodeWithSignature(\"log(uint,string)\", p0, p1));\n\t}\n\n\tfunction log(uint p0, bool p1) internal view {\n\t\t_sendLogPayload(abi.encodeWithSignature(\"log(uint,bool)\", p0, p1));\n\t}\n\n\tfunction log(uint p0, address p1) internal view {\n\t\t_sendLogPayload(abi.encodeWithSignature(\"log(uint,address)\", p0, p1));\n\t}\n\n\tfunction log(string memory p0, uint p1) internal view {\n\t\t_sendLogPayload(abi.encodeWithSignature(\"log(string,uint)\", p0, p1));\n\t}\n\n\tfunction log(string memory p0, string memory p1) internal view {\n\t\t_sendLogPayload(abi.encodeWithSignature(\"log(string,string)\", p0, p1));\n\t}\n\n\tfunction log(string memory p0, bool p1) internal view {\n\t\t_sendLogPayload(abi.encodeWithSignature(\"log(string,bool)\", p0, p1));\n\t}\n\n\tfunction log(string memory p0, address p1) internal view {\n\t\t_sendLogPayload(abi.encodeWithSignature(\"log(string,address)\", p0, p1));\n\t}\n\n\tfunction log(bool p0, uint p1) internal view {\n\t\t_sendLogPayload(abi.encodeWithSignature(\"log(bool,uint)\", p0, p1));\n\t}\n\n\tfunction log(bool p0, string memory p1) internal view {\n\t\t_sendLogPayload(abi.encodeWithSignature(\"log(bool,string)\", p0, p1));\n\t}\n\n\tfunction log(bool p0, bool p1) internal view {\n\t\t_sendLogPayload(abi.encodeWithSignature(\"log(bool,bool)\", p0, p1));\n\t}\n\n\tfunction log(bool p0, address p1) internal view {\n\t\t_sendLogPayload(abi.encodeWithSignature(\"log(bool,address)\", p0, p1));\n\t}\n\n\tfunction log(address p0, uint p1) internal view {\n\t\t_sendLogPayload(abi.encodeWithSignature(\"log(address,uint)\", p0, p1));\n\t}\n\n\tfunction log(address p0, string memory p1) internal view {\n\t\t_sendLogPayload(abi.encodeWithSignature(\"log(address,string)\", p0, p1));\n\t}\n\n\tfunction log(address p0, bool p1) internal view {\n\t\t_sendLogPayload(abi.encodeWithSignature(\"log(address,bool)\", p0, p1));\n\t}\n\n\tfunction log(address p0, address p1) internal view {\n\t\t_sendLogPayload(abi.encodeWithSignature(\"log(address,address)\", p0, p1));\n\t}\n\n\tfunction log(uint p0, uint p1, uint p2) internal view {\n\t\t_sendLogPayload(abi.encodeWithSignature(\"log(uint,uint,uint)\", p0, p1, p2));\n\t}\n\n\tfunction log(uint p0, uint p1, string memory p2) internal view {\n\t\t_sendLogPayload(abi.encodeWithSignature(\"log(uint,uint,string)\", p0, p1, p2));\n\t}\n\n\tfunction log(uint p0, uint p1, bool p2) internal view {\n\t\t_sendLogPayload(abi.encodeWithSignature(\"log(uint,uint,bool)\", p0, p1, p2));\n\t}\n\n\tfunction log(uint p0, uint p1, address p2) internal view {\n\t\t_sendLogPayload(abi.encodeWithSignature(\"log(uint,uint,address)\", p0, p1, p2));\n\t}\n\n\tfunction log(uint p0, string memory p1, uint p2) internal view {\n\t\t_sendLogPayload(abi.encodeWithSignature(\"log(uint,string,uint)\", p0, p1, p2));\n\t}\n\n\tfunction log(uint p0, string memory p1, string memory p2) internal view {\n\t\t_sendLogPayload(abi.encodeWithSignature(\"log(uint,string,string)\", p0, p1, p2));\n\t}\n\n\tfunction log(uint p0, string memory p1, bool p2) internal view {\n\t\t_sendLogPayload(abi.encodeWithSignature(\"log(uint,string,bool)\", p0, p1, p2));\n\t}\n\n\tfunction log(uint p0, string memory p1, address p2) internal view {\n\t\t_sendLogPayload(abi.encodeWithSignature(\"log(uint,string,address)\", p0, p1, p2));\n\t}\n\n\tfunction log(uint p0, bool p1, uint p2) internal view {\n\t\t_sendLogPayload(abi.encodeWithSignature(\"log(uint,bool,uint)\", p0, p1, p2));\n\t}\n\n\tfunction log(uint p0, bool p1, string memory p2) internal view {\n\t\t_sendLogPayload(abi.encodeWithSignature(\"log(uint,bool,string)\", p0, p1, p2));\n\t}\n\n\tfunction log(uint p0, bool p1, bool p2) internal view {\n\t\t_sendLogPayload(abi.encodeWithSignature(\"log(uint,bool,bool)\", p0, p1, p2));\n\t}\n\n\tfunction log(uint p0, bool p1, address p2) internal view {\n\t\t_sendLogPayload(abi.encodeWithSignature(\"log(uint,bool,address)\", p0, p1, p2));\n\t}\n\n\tfunction log(uint p0, address p1, uint p2) internal view {\n\t\t_sendLogPayload(abi.encodeWithSignature(\"log(uint,address,uint)\", p0, p1, p2));\n\t}\n\n\tfunction log(uint p0, address p1, string memory p2) internal view {\n\t\t_sendLogPayload(abi.encodeWithSignature(\"log(uint,address,string)\", p0, p1, p2));\n\t}\n\n\tfunction log(uint p0, address p1, bool p2) internal view {\n\t\t_sendLogPayload(abi.encodeWithSignature(\"log(uint,address,bool)\", p0, p1, p2));\n\t}\n\n\tfunction log(uint p0, address p1, address p2) internal view {\n\t\t_sendLogPayload(abi.encodeWithSignature(\"log(uint,address,address)\", p0, p1, p2));\n\t}\n\n\tfunction log(string memory p0, uint p1, uint p2) internal view {\n\t\t_sendLogPayload(abi.encodeWithSignature(\"log(string,uint,uint)\", p0, p1, p2));\n\t}\n\n\tfunction log(string memory p0, uint p1, string memory p2) internal view {\n\t\t_sendLogPayload(abi.encodeWithSignature(\"log(string,uint,string)\", p0, p1, p2));\n\t}\n\n\tfunction log(string memory p0, uint p1, bool p2) internal view {\n\t\t_sendLogPayload(abi.encodeWithSignature(\"log(string,uint,bool)\", p0, p1, p2));\n\t}\n\n\tfunction log(string memory p0, uint p1, address p2) internal view {\n\t\t_sendLogPayload(abi.encodeWithSignature(\"log(string,uint,address)\", p0, p1, p2));\n\t}\n\n\tfunction log(string memory p0, string memory p1, uint p2) internal view {\n\t\t_sendLogPayload(abi.encodeWithSignature(\"log(string,string,uint)\", p0, p1, p2));\n\t}\n\n\tfunction log(string memory p0, string memory p1, string memory p2) internal view {\n\t\t_sendLogPayload(abi.encodeWithSignature(\"log(string,string,string)\", p0, p1, p2));\n\t}\n\n\tfunction log(string memory p0, string memory p1, bool p2) internal view {\n\t\t_sendLogPayload(abi.encodeWithSignature(\"log(string,string,bool)\", p0, p1, p2));\n\t}\n\n\tfunction log(string memory p0, string memory p1, address p2) internal view {\n\t\t_sendLogPayload(abi.encodeWithSignature(\"log(string,string,address)\", p0, p1, p2));\n\t}\n\n\tfunction log(string memory p0, bool p1, uint p2) internal view {\n\t\t_sendLogPayload(abi.encodeWithSignature(\"log(string,bool,uint)\", p0, p1, p2));\n\t}\n\n\tfunction log(string memory p0, bool p1, string memory p2) internal view {\n\t\t_sendLogPayload(abi.encodeWithSignature(\"log(string,bool,string)\", p0, p1, p2));\n\t}\n\n\tfunction log(string memory p0, bool p1, bool p2) internal view {\n\t\t_sendLogPayload(abi.encodeWithSignature(\"log(string,bool,bool)\", p0, p1, p2));\n\t}\n\n\tfunction log(string memory p0, bool p1, address p2) internal view {\n\t\t_sendLogPayload(abi.encodeWithSignature(\"log(string,bool,address)\", p0, p1, p2));\n\t}\n\n\tfunction log(string memory p0, address p1, uint p2) internal view {\n\t\t_sendLogPayload(abi.encodeWithSignature(\"log(string,address,uint)\", p0, p1, p2));\n\t}\n\n\tfunction log(string memory p0, address p1, string memory p2) internal view {\n\t\t_sendLogPayload(abi.encodeWithSignature(\"log(string,address,string)\", p0, p1, p2));\n\t}\n\n\tfunction log(string memory p0, address p1, bool p2) internal view {\n\t\t_sendLogPayload(abi.encodeWithSignature(\"log(string,address,bool)\", p0, p1, p2));\n\t}\n\n\tfunction log(string memory p0, address p1, address p2) internal view {\n\t\t_sendLogPayload(abi.encodeWithSignature(\"log(string,address,address)\", p0, p1, p2));\n\t}\n\n\tfunction log(bool p0, uint p1, uint p2) internal view {\n\t\t_sendLogPayload(abi.encodeWithSignature(\"log(bool,uint,uint)\", p0, p1, p2));\n\t}\n\n\tfunction log(bool p0, uint p1, string memory p2) internal view {\n\t\t_sendLogPayload(abi.encodeWithSignature(\"log(bool,uint,string)\", p0, p1, p2));\n\t}\n\n\tfunction log(bool p0, uint p1, bool p2) internal view {\n\t\t_sendLogPayload(abi.encodeWithSignature(\"log(bool,uint,bool)\", p0, p1, p2));\n\t}\n\n\tfunction log(bool p0, uint p1, address p2) internal view {\n\t\t_sendLogPayload(abi.encodeWithSignature(\"log(bool,uint,address)\", p0, p1, p2));\n\t}\n\n\tfunction log(bool p0, string memory p1, uint p2) internal view {\n\t\t_sendLogPayload(abi.encodeWithSignature(\"log(bool,string,uint)\", p0, p1, p2));\n\t}\n\n\tfunction log(bool p0, string memory p1, string memory p2) internal view {\n\t\t_sendLogPayload(abi.encodeWithSignature(\"log(bool,string,string)\", p0, p1, p2));\n\t}\n\n\tfunction log(bool p0, string memory p1, bool p2) internal view {\n\t\t_sendLogPayload(abi.encodeWithSignature(\"log(bool,string,bool)\", p0, p1, p2));\n\t}\n\n\tfunction log(bool p0, string memory p1, address p2) internal view {\n\t\t_sendLogPayload(abi.encodeWithSignature(\"log(bool,string,address)\", p0, p1, p2));\n\t}\n\n\tfunction log(bool p0, bool p1, uint p2) internal view {\n\t\t_sendLogPayload(abi.encodeWithSignature(\"log(bool,bool,uint)\", p0, p1, p2));\n\t}\n\n\tfunction log(bool p0, bool p1, string memory p2) internal view {\n\t\t_sendLogPayload(abi.encodeWithSignature(\"log(bool,bool,string)\", p0, p1, p2));\n\t}\n\n\tfunction log(bool p0, bool p1, bool p2) internal view {\n\t\t_sendLogPayload(abi.encodeWithSignature(\"log(bool,bool,bool)\", p0, p1, p2));\n\t}\n\n\tfunction log(bool p0, bool p1, address p2) internal view {\n\t\t_sendLogPayload(abi.encodeWithSignature(\"log(bool,bool,address)\", p0, p1, p2));\n\t}\n\n\tfunction log(bool p0, address p1, uint p2) internal view {\n\t\t_sendLogPayload(abi.encodeWithSignature(\"log(bool,address,uint)\", p0, p1, p2));\n\t}\n\n\tfunction log(bool p0, address p1, string memory p2) internal view {\n\t\t_sendLogPayload(abi.encodeWithSignature(\"log(bool,address,string)\", p0, p1, p2));\n\t}\n\n\tfunction log(bool p0, address p1, bool p2) internal view {\n\t\t_sendLogPayload(abi.encodeWithSignature(\"log(bool,address,bool)\", p0, p1, p2));\n\t}\n\n\tfunction log(bool p0, address p1, address p2) internal view {\n\t\t_sendLogPayload(abi.encodeWithSignature(\"log(bool,address,address)\", p0, p1, p2));\n\t}\n\n\tfunction log(address p0, uint p1, uint p2) internal view {\n\t\t_sendLogPayload(abi.encodeWithSignature(\"log(address,uint,uint)\", p0, p1, p2));\n\t}\n\n\tfunction log(address p0, uint p1, string memory p2) internal view {\n\t\t_sendLogPayload(abi.encodeWithSignature(\"log(address,uint,string)\", p0, p1, p2));\n\t}\n\n\tfunction log(address p0, uint p1, bool p2) internal view {\n\t\t_sendLogPayload(abi.encodeWithSignature(\"log(address,uint,bool)\", p0, p1, p2));\n\t}\n\n\tfunction log(address p0, uint p1, address p2) internal view {\n\t\t_sendLogPayload(abi.encodeWithSignature(\"log(address,uint,address)\", p0, p1, p2));\n\t}\n\n\tfunction log(address p0, string memory p1, uint p2) internal view {\n\t\t_sendLogPayload(abi.encodeWithSignature(\"log(address,string,uint)\", p0, p1, p2));\n\t}\n\n\tfunction log(address p0, string memory p1, string memory p2) internal view {\n\t\t_sendLogPayload(abi.encodeWithSignature(\"log(address,string,string)\", p0, p1, p2));\n\t}\n\n\tfunction log(address p0, string memory p1, bool p2) internal view {\n\t\t_sendLogPayload(abi.encodeWithSignature(\"log(address,string,bool)\", p0, p1, p2));\n\t}\n\n\tfunction log(address p0, string memory p1, address p2) internal view {\n\t\t_sendLogPayload(abi.encodeWithSignature(\"log(address,string,address)\", p0, p1, p2));\n\t}\n\n\tfunction log(address p0, bool p1, uint p2) internal view {\n\t\t_sendLogPayload(abi.encodeWithSignature(\"log(address,bool,uint)\", p0, p1, p2));\n\t}\n\n\tfunction log(address p0, bool p1, string memory p2) internal view {\n\t\t_sendLogPayload(abi.encodeWithSignature(\"log(address,bool,string)\", p0, p1, p2));\n\t}\n\n\tfunction log(address p0, bool p1, bool p2) internal view {\n\t\t_sendLogPayload(abi.encodeWithSignature(\"log(address,bool,bool)\", p0, p1, p2));\n\t}\n\n\tfunction log(address p0, bool p1, address p2) internal view {\n\t\t_sendLogPayload(abi.encodeWithSignature(\"log(address,bool,address)\", p0, p1, p2));\n\t}\n\n\tfunction log(address p0, address p1, uint p2) internal view {\n\t\t_sendLogPayload(abi.encodeWithSignature(\"log(address,address,uint)\", p0, p1, p2));\n\t}\n\n\tfunction log(address p0, address p1, string memory p2) internal view {\n\t\t_sendLogPayload(abi.encodeWithSignature(\"log(address,address,string)\", p0, p1, p2));\n\t}\n\n\tfunction log(address p0, address p1, bool p2) internal view {\n\t\t_sendLogPayload(abi.encodeWithSignature(\"log(address,address,bool)\", p0, p1, p2));\n\t}\n\n\tfunction log(address p0, address p1, address p2) internal view {\n\t\t_sendLogPayload(abi.encodeWithSignature(\"log(address,address,address)\", p0, p1, p2));\n\t}\n\n\tfunction log(uint p0, uint p1, uint p2, uint p3) internal view {\n\t\t_sendLogPayload(abi.encodeWithSignature(\"log(uint,uint,uint,uint)\", p0, p1, p2, p3));\n\t}\n\n\tfunction log(uint p0, uint p1, uint p2, string memory p3) internal view {\n\t\t_sendLogPayload(abi.encodeWithSignature(\"log(uint,uint,uint,string)\", p0, p1, p2, p3));\n\t}\n\n\tfunction log(uint p0, uint p1, uint p2, bool p3) internal view {\n\t\t_sendLogPayload(abi.encodeWithSignature(\"log(uint,uint,uint,bool)\", p0, p1, p2, p3));\n\t}\n\n\tfunction log(uint p0, uint p1, uint p2, address p3) internal view {\n\t\t_sendLogPayload(abi.encodeWithSignature(\"log(uint,uint,uint,address)\", p0, p1, p2, p3));\n\t}\n\n\tfunction log(uint p0, uint p1, string memory p2, uint p3) internal view {\n\t\t_sendLogPayload(abi.encodeWithSignature(\"log(uint,uint,string,uint)\", p0, p1, p2, p3));\n\t}\n\n\tfunction log(uint p0, uint p1, string memory p2, string memory p3) internal view {\n\t\t_sendLogPayload(abi.encodeWithSignature(\"log(uint,uint,string,string)\", p0, p1, p2, p3));\n\t}\n\n\tfunction log(uint p0, uint p1, string memory p2, bool p3) internal view {\n\t\t_sendLogPayload(abi.encodeWithSignature(\"log(uint,uint,string,bool)\", p0, p1, p2, p3));\n\t}\n\n\tfunction log(uint p0, uint p1, string memory p2, address p3) internal view {\n\t\t_sendLogPayload(abi.encodeWithSignature(\"log(uint,uint,string,address)\", p0, p1, p2, p3));\n\t}\n\n\tfunction log(uint p0, uint p1, bool p2, uint p3) internal view {\n\t\t_sendLogPayload(abi.encodeWithSignature(\"log(uint,uint,bool,uint)\", p0, p1, p2, p3));\n\t}\n\n\tfunction log(uint p0, uint p1, bool p2, string memory p3) internal view {\n\t\t_sendLogPayload(abi.encodeWithSignature(\"log(uint,uint,bool,string)\", p0, p1, p2, p3));\n\t}\n\n\tfunction log(uint p0, uint p1, bool p2, bool p3) internal view {\n\t\t_sendLogPayload(abi.encodeWithSignature(\"log(uint,uint,bool,bool)\", p0, p1, p2, p3));\n\t}\n\n\tfunction log(uint p0, uint p1, bool p2, address p3) internal view {\n\t\t_sendLogPayload(abi.encodeWithSignature(\"log(uint,uint,bool,address)\", p0, p1, p2, p3));\n\t}\n\n\tfunction log(uint p0, uint p1, address p2, uint p3) internal view {\n\t\t_sendLogPayload(abi.encodeWithSignature(\"log(uint,uint,address,uint)\", p0, p1, p2, p3));\n\t}\n\n\tfunction log(uint p0, uint p1, address p2, string memory p3) internal view {\n\t\t_sendLogPayload(abi.encodeWithSignature(\"log(uint,uint,address,string)\", p0, p1, p2, p3));\n\t}\n\n\tfunction log(uint p0, uint p1, address p2, bool p3) internal view {\n\t\t_sendLogPayload(abi.encodeWithSignature(\"log(uint,uint,address,bool)\", p0, p1, p2, p3));\n\t}\n\n\tfunction log(uint p0, uint p1, address p2, address p3) internal view {\n\t\t_sendLogPayload(abi.encodeWithSignature(\"log(uint,uint,address,address)\", p0, p1, p2, p3));\n\t}\n\n\tfunction log(uint p0, string memory p1, uint p2, uint p3) internal view {\n\t\t_sendLogPayload(abi.encodeWithSignature(\"log(uint,string,uint,uint)\", p0, p1, p2, p3));\n\t}\n\n\tfunction log(uint p0, string memory p1, uint p2, string memory p3) internal view {\n\t\t_sendLogPayload(abi.encodeWithSignature(\"log(uint,string,uint,string)\", p0, p1, p2, p3));\n\t}\n\n\tfunction log(uint p0, string memory p1, uint p2, bool p3) internal view {\n\t\t_sendLogPayload(abi.encodeWithSignature(\"log(uint,string,uint,bool)\", p0, p1, p2, p3));\n\t}\n\n\tfunction log(uint p0, string memory p1, uint p2, address p3) internal view {\n\t\t_sendLogPayload(abi.encodeWithSignature(\"log(uint,string,uint,address)\", p0, p1, p2, p3));\n\t}\n\n\tfunction log(uint p0, string memory p1, string memory p2, uint p3) internal view {\n\t\t_sendLogPayload(abi.encodeWithSignature(\"log(uint,string,string,uint)\", p0, p1, p2, p3));\n\t}\n\n\tfunction log(uint p0, string memory p1, string memory p2, string memory p3) internal view {\n\t\t_sendLogPayload(abi.encodeWithSignature(\"log(uint,string,string,string)\", p0, p1, p2, p3));\n\t}\n\n\tfunction log(uint p0, string memory p1, string memory p2, bool p3) internal view {\n\t\t_sendLogPayload(abi.encodeWithSignature(\"log(uint,string,string,bool)\", p0, p1, p2, p3));\n\t}\n\n\tfunction log(uint p0, string memory p1, string memory p2, address p3) internal view {\n\t\t_sendLogPayload(abi.encodeWithSignature(\"log(uint,string,string,address)\", p0, p1, p2, p3));\n\t}\n\n\tfunction log(uint p0, string memory p1, bool p2, uint p3) internal view {\n\t\t_sendLogPayload(abi.encodeWithSignature(\"log(uint,string,bool,uint)\", p0, p1, p2, p3));\n\t}\n\n\tfunction log(uint p0, string memory p1, bool p2, string memory p3) internal view {\n\t\t_sendLogPayload(abi.encodeWithSignature(\"log(uint,string,bool,string)\", p0, p1, p2, p3));\n\t}\n\n\tfunction log(uint p0, string memory p1, bool p2, bool p3) internal view {\n\t\t_sendLogPayload(abi.encodeWithSignature(\"log(uint,string,bool,bool)\", p0, p1, p2, p3));\n\t}\n\n\tfunction log(uint p0, string memory p1, bool p2, address p3) internal view {\n\t\t_sendLogPayload(abi.encodeWithSignature(\"log(uint,string,bool,address)\", p0, p1, p2, p3));\n\t}\n\n\tfunction log(uint p0, string memory p1, address p2, uint p3) internal view {\n\t\t_sendLogPayload(abi.encodeWithSignature(\"log(uint,string,address,uint)\", p0, p1, p2, p3));\n\t}\n\n\tfunction log(uint p0, string memory p1, address p2, string memory p3) internal view {\n\t\t_sendLogPayload(abi.encodeWithSignature(\"log(uint,string,address,string)\", p0, p1, p2, p3));\n\t}\n\n\tfunction log(uint p0, string memory p1, address p2, bool p3) internal view {\n\t\t_sendLogPayload(abi.encodeWithSignature(\"log(uint,string,address,bool)\", p0, p1, p2, p3));\n\t}\n\n\tfunction log(uint p0, string memory p1, address p2, address p3) internal view {\n\t\t_sendLogPayload(abi.encodeWithSignature(\"log(uint,string,address,address)\", p0, p1, p2, p3));\n\t}\n\n\tfunction log(uint p0, bool p1, uint p2, uint p3) internal view {\n\t\t_sendLogPayload(abi.encodeWithSignature(\"log(uint,bool,uint,uint)\", p0, p1, p2, p3));\n\t}\n\n\tfunction log(uint p0, bool p1, uint p2, string memory p3) internal view {\n\t\t_sendLogPayload(abi.encodeWithSignature(\"log(uint,bool,uint,string)\", p0, p1, p2, p3));\n\t}\n\n\tfunction log(uint p0, bool p1, uint p2, bool p3) internal view {\n\t\t_sendLogPayload(abi.encodeWithSignature(\"log(uint,bool,uint,bool)\", p0, p1, p2, p3));\n\t}\n\n\tfunction log(uint p0, bool p1, uint p2, address p3) internal view {\n\t\t_sendLogPayload(abi.encodeWithSignature(\"log(uint,bool,uint,address)\", p0, p1, p2, p3));\n\t}\n\n\tfunction log(uint p0, bool p1, string memory p2, uint p3) internal view {\n\t\t_sendLogPayload(abi.encodeWithSignature(\"log(uint,bool,string,uint)\", p0, p1, p2, p3));\n\t}\n\n\tfunction log(uint p0, bool p1, string memory p2, string memory p3) internal view {\n\t\t_sendLogPayload(abi.encodeWithSignature(\"log(uint,bool,string,string)\", p0, p1, p2, p3));\n\t}\n\n\tfunction log(uint p0, bool p1, string memory p2, bool p3) internal view {\n\t\t_sendLogPayload(abi.encodeWithSignature(\"log(uint,bool,string,bool)\", p0, p1, p2, p3));\n\t}\n\n\tfunction log(uint p0, bool p1, string memory p2, address p3) internal view {\n\t\t_sendLogPayload(abi.encodeWithSignature(\"log(uint,bool,string,address)\", p0, p1, p2, p3));\n\t}\n\n\tfunction log(uint p0, bool p1, bool p2, uint p3) internal view {\n\t\t_sendLogPayload(abi.encodeWithSignature(\"log(uint,bool,bool,uint)\", p0, p1, p2, p3));\n\t}\n\n\tfunction log(uint p0, bool p1, bool p2, string memory p3) internal view {\n\t\t_sendLogPayload(abi.encodeWithSignature(\"log(uint,bool,bool,string)\", p0, p1, p2, p3));\n\t}\n\n\tfunction log(uint p0, bool p1, bool p2, bool p3) internal view {\n\t\t_sendLogPayload(abi.encodeWithSignature(\"log(uint,bool,bool,bool)\", p0, p1, p2, p3));\n\t}\n\n\tfunction log(uint p0, bool p1, bool p2, address p3) internal view {\n\t\t_sendLogPayload(abi.encodeWithSignature(\"log(uint,bool,bool,address)\", p0, p1, p2, p3));\n\t}\n\n\tfunction log(uint p0, bool p1, address p2, uint p3) internal view {\n\t\t_sendLogPayload(abi.encodeWithSignature(\"log(uint,bool,address,uint)\", p0, p1, p2, p3));\n\t}\n\n\tfunction log(uint p0, bool p1, address p2, string memory p3) internal view {\n\t\t_sendLogPayload(abi.encodeWithSignature(\"log(uint,bool,address,string)\", p0, p1, p2, p3));\n\t}\n\n\tfunction log(uint p0, bool p1, address p2, bool p3) internal view {\n\t\t_sendLogPayload(abi.encodeWithSignature(\"log(uint,bool,address,bool)\", p0, p1, p2, p3));\n\t}\n\n\tfunction log(uint p0, bool p1, address p2, address p3) internal view {\n\t\t_sendLogPayload(abi.encodeWithSignature(\"log(uint,bool,address,address)\", p0, p1, p2, p3));\n\t}\n\n\tfunction log(uint p0, address p1, uint p2, uint p3) internal view {\n\t\t_sendLogPayload(abi.encodeWithSignature(\"log(uint,address,uint,uint)\", p0, p1, p2, p3));\n\t}\n\n\tfunction log(uint p0, address p1, uint p2, string memory p3) internal view {\n\t\t_sendLogPayload(abi.encodeWithSignature(\"log(uint,address,uint,string)\", p0, p1, p2, p3));\n\t}\n\n\tfunction log(uint p0, address p1, uint p2, bool p3) internal view {\n\t\t_sendLogPayload(abi.encodeWithSignature(\"log(uint,address,uint,bool)\", p0, p1, p2, p3));\n\t}\n\n\tfunction log(uint p0, address p1, uint p2, address p3) internal view {\n\t\t_sendLogPayload(abi.encodeWithSignature(\"log(uint,address,uint,address)\", p0, p1, p2, p3));\n\t}\n\n\tfunction log(uint p0, address p1, string memory p2, uint p3) internal view {\n\t\t_sendLogPayload(abi.encodeWithSignature(\"log(uint,address,string,uint)\", p0, p1, p2, p3));\n\t}\n\n\tfunction log(uint p0, address p1, string memory p2, string memory p3) internal view {\n\t\t_sendLogPayload(abi.encodeWithSignature(\"log(uint,address,string,string)\", p0, p1, p2, p3));\n\t}\n\n\tfunction log(uint p0, address p1, string memory p2, bool p3) internal view {\n\t\t_sendLogPayload(abi.encodeWithSignature(\"log(uint,address,string,bool)\", p0, p1, p2, p3));\n\t}\n\n\tfunction log(uint p0, address p1, string memory p2, address p3) internal view {\n\t\t_sendLogPayload(abi.encodeWithSignature(\"log(uint,address,string,address)\", p0, p1, p2, p3));\n\t}\n\n\tfunction log(uint p0, address p1, bool p2, uint p3) internal view {\n\t\t_sendLogPayload(abi.encodeWithSignature(\"log(uint,address,bool,uint)\", p0, p1, p2, p3));\n\t}\n\n\tfunction log(uint p0, address p1, bool p2, string memory p3) internal view {\n\t\t_sendLogPayload(abi.encodeWithSignature(\"log(uint,address,bool,string)\", p0, p1, p2, p3));\n\t}\n\n\tfunction log(uint p0, address p1, bool p2, bool p3) internal view {\n\t\t_sendLogPayload(abi.encodeWithSignature(\"log(uint,address,bool,bool)\", p0, p1, p2, p3));\n\t}\n\n\tfunction log(uint p0, address p1, bool p2, address p3) internal view {\n\t\t_sendLogPayload(abi.encodeWithSignature(\"log(uint,address,bool,address)\", p0, p1, p2, p3));\n\t}\n\n\tfunction log(uint p0, address p1, address p2, uint p3) internal view {\n\t\t_sendLogPayload(abi.encodeWithSignature(\"log(uint,address,address,uint)\", p0, p1, p2, p3));\n\t}\n\n\tfunction log(uint p0, address p1, address p2, string memory p3) internal view {\n\t\t_sendLogPayload(abi.encodeWithSignature(\"log(uint,address,address,string)\", p0, p1, p2, p3));\n\t}\n\n\tfunction log(uint p0, address p1, address p2, bool p3) internal view {\n\t\t_sendLogPayload(abi.encodeWithSignature(\"log(uint,address,address,bool)\", p0, p1, p2, p3));\n\t}\n\n\tfunction log(uint p0, address p1, address p2, address p3) internal view {\n\t\t_sendLogPayload(abi.encodeWithSignature(\"log(uint,address,address,address)\", p0, p1, p2, p3));\n\t}\n\n\tfunction log(string memory p0, uint p1, uint p2, uint p3) internal view {\n\t\t_sendLogPayload(abi.encodeWithSignature(\"log(string,uint,uint,uint)\", p0, p1, p2, p3));\n\t}\n\n\tfunction log(string memory p0, uint p1, uint p2, string memory p3) internal view {\n\t\t_sendLogPayload(abi.encodeWithSignature(\"log(string,uint,uint,string)\", p0, p1, p2, p3));\n\t}\n\n\tfunction log(string memory p0, uint p1, uint p2, bool p3) internal view {\n\t\t_sendLogPayload(abi.encodeWithSignature(\"log(string,uint,uint,bool)\", p0, p1, p2, p3));\n\t}\n\n\tfunction log(string memory p0, uint p1, uint p2, address p3) internal view {\n\t\t_sendLogPayload(abi.encodeWithSignature(\"log(string,uint,uint,address)\", p0, p1, p2, p3));\n\t}\n\n\tfunction log(string memory p0, uint p1, string memory p2, uint p3) internal view {\n\t\t_sendLogPayload(abi.encodeWithSignature(\"log(string,uint,string,uint)\", p0, p1, p2, p3));\n\t}\n\n\tfunction log(string memory p0, uint p1, string memory p2, string memory p3) internal view {\n\t\t_sendLogPayload(abi.encodeWithSignature(\"log(string,uint,string,string)\", p0, p1, p2, p3));\n\t}\n\n\tfunction log(string memory p0, uint p1, string memory p2, bool p3) internal view {\n\t\t_sendLogPayload(abi.encodeWithSignature(\"log(string,uint,string,bool)\", p0, p1, p2, p3));\n\t}\n\n\tfunction log(string memory p0, uint p1, string memory p2, address p3) internal view {\n\t\t_sendLogPayload(abi.encodeWithSignature(\"log(string,uint,string,address)\", p0, p1, p2, p3));\n\t}\n\n\tfunction log(string memory p0, uint p1, bool p2, uint p3) internal view {\n\t\t_sendLogPayload(abi.encodeWithSignature(\"log(string,uint,bool,uint)\", p0, p1, p2, p3));\n\t}\n\n\tfunction log(string memory p0, uint p1, bool p2, string memory p3) internal view {\n\t\t_sendLogPayload(abi.encodeWithSignature(\"log(string,uint,bool,string)\", p0, p1, p2, p3));\n\t}\n\n\tfunction log(string memory p0, uint p1, bool p2, bool p3) internal view {\n\t\t_sendLogPayload(abi.encodeWithSignature(\"log(string,uint,bool,bool)\", p0, p1, p2, p3));\n\t}\n\n\tfunction log(string memory p0, uint p1, bool p2, address p3) internal view {\n\t\t_sendLogPayload(abi.encodeWithSignature(\"log(string,uint,bool,address)\", p0, p1, p2, p3));\n\t}\n\n\tfunction log(string memory p0, uint p1, address p2, uint p3) internal view {\n\t\t_sendLogPayload(abi.encodeWithSignature(\"log(string,uint,address,uint)\", p0, p1, p2, p3));\n\t}\n\n\tfunction log(string memory p0, uint p1, address p2, string memory p3) internal view {\n\t\t_sendLogPayload(abi.encodeWithSignature(\"log(string,uint,address,string)\", p0, p1, p2, p3));\n\t}\n\n\tfunction log(string memory p0, uint p1, address p2, bool p3) internal view {\n\t\t_sendLogPayload(abi.encodeWithSignature(\"log(string,uint,address,bool)\", p0, p1, p2, p3));\n\t}\n\n\tfunction log(string memory p0, uint p1, address p2, address p3) internal view {\n\t\t_sendLogPayload(abi.encodeWithSignature(\"log(string,uint,address,address)\", p0, p1, p2, p3));\n\t}\n\n\tfunction log(string memory p0, string memory p1, uint p2, uint p3) internal view {\n\t\t_sendLogPayload(abi.encodeWithSignature(\"log(string,string,uint,uint)\", p0, p1, p2, p3));\n\t}\n\n\tfunction log(string memory p0, string memory p1, uint p2, string memory p3) internal view {\n\t\t_sendLogPayload(abi.encodeWithSignature(\"log(string,string,uint,string)\", p0, p1, p2, p3));\n\t}\n\n\tfunction log(string memory p0, string memory p1, uint p2, bool p3) internal view {\n\t\t_sendLogPayload(abi.encodeWithSignature(\"log(string,string,uint,bool)\", p0, p1, p2, p3));\n\t}\n\n\tfunction log(string memory p0, string memory p1, uint p2, address p3) internal view {\n\t\t_sendLogPayload(abi.encodeWithSignature(\"log(string,string,uint,address)\", p0, p1, p2, p3));\n\t}\n\n\tfunction log(string memory p0, string memory p1, string memory p2, uint p3) internal view {\n\t\t_sendLogPayload(abi.encodeWithSignature(\"log(string,string,string,uint)\", p0, p1, p2, p3));\n\t}\n\n\tfunction log(string memory p0, string memory p1, string memory p2, string memory p3) internal view {\n\t\t_sendLogPayload(abi.encodeWithSignature(\"log(string,string,string,string)\", p0, p1, p2, p3));\n\t}\n\n\tfunction log(string memory p0, string memory p1, string memory p2, bool p3) internal view {\n\t\t_sendLogPayload(abi.encodeWithSignature(\"log(string,string,string,bool)\", p0, p1, p2, p3));\n\t}\n\n\tfunction log(string memory p0, string memory p1, string memory p2, address p3) internal view {\n\t\t_sendLogPayload(abi.encodeWithSignature(\"log(string,string,string,address)\", p0, p1, p2, p3));\n\t}\n\n\tfunction log(string memory p0, string memory p1, bool p2, uint p3) internal view {\n\t\t_sendLogPayload(abi.encodeWithSignature(\"log(string,string,bool,uint)\", p0, p1, p2, p3));\n\t}\n\n\tfunction log(string memory p0, string memory p1, bool p2, string memory p3) internal view {\n\t\t_sendLogPayload(abi.encodeWithSignature(\"log(string,string,bool,string)\", p0, p1, p2, p3));\n\t}\n\n\tfunction log(string memory p0, string memory p1, bool p2, bool p3) internal view {\n\t\t_sendLogPayload(abi.encodeWithSignature(\"log(string,string,bool,bool)\", p0, p1, p2, p3));\n\t}\n\n\tfunction log(string memory p0, string memory p1, bool p2, address p3) internal view {\n\t\t_sendLogPayload(abi.encodeWithSignature(\"log(string,string,bool,address)\", p0, p1, p2, p3));\n\t}\n\n\tfunction log(string memory p0, string memory p1, address p2, uint p3) internal view {\n\t\t_sendLogPayload(abi.encodeWithSignature(\"log(string,string,address,uint)\", p0, p1, p2, p3));\n\t}\n\n\tfunction log(string memory p0, string memory p1, address p2, string memory p3) internal view {\n\t\t_sendLogPayload(abi.encodeWithSignature(\"log(string,string,address,string)\", p0, p1, p2, p3));\n\t}\n\n\tfunction log(string memory p0, string memory p1, address p2, bool p3) internal view {\n\t\t_sendLogPayload(abi.encodeWithSignature(\"log(string,string,address,bool)\", p0, p1, p2, p3));\n\t}\n\n\tfunction log(string memory p0, string memory p1, address p2, address p3) internal view {\n\t\t_sendLogPayload(abi.encodeWithSignature(\"log(string,string,address,address)\", p0, p1, p2, p3));\n\t}\n\n\tfunction log(string memory p0, bool p1, uint p2, uint p3) internal view {\n\t\t_sendLogPayload(abi.encodeWithSignature(\"log(string,bool,uint,uint)\", p0, p1, p2, p3));\n\t}\n\n\tfunction log(string memory p0, bool p1, uint p2, string memory p3) internal view {\n\t\t_sendLogPayload(abi.encodeWithSignature(\"log(string,bool,uint,string)\", p0, p1, p2, p3));\n\t}\n\n\tfunction log(string memory p0, bool p1, uint p2, bool p3) internal view {\n\t\t_sendLogPayload(abi.encodeWithSignature(\"log(string,bool,uint,bool)\", p0, p1, p2, p3));\n\t}\n\n\tfunction log(string memory p0, bool p1, uint p2, address p3) internal view {\n\t\t_sendLogPayload(abi.encodeWithSignature(\"log(string,bool,uint,address)\", p0, p1, p2, p3));\n\t}\n\n\tfunction log(string memory p0, bool p1, string memory p2, uint p3) internal view {\n\t\t_sendLogPayload(abi.encodeWithSignature(\"log(string,bool,string,uint)\", p0, p1, p2, p3));\n\t}\n\n\tfunction log(string memory p0, bool p1, string memory p2, string memory p3) internal view {\n\t\t_sendLogPayload(abi.encodeWithSignature(\"log(string,bool,string,string)\", p0, p1, p2, p3));\n\t}\n\n\tfunction log(string memory p0, bool p1, string memory p2, bool p3) internal view {\n\t\t_sendLogPayload(abi.encodeWithSignature(\"log(string,bool,string,bool)\", p0, p1, p2, p3));\n\t}\n\n\tfunction log(string memory p0, bool p1, string memory p2, address p3) internal view {\n\t\t_sendLogPayload(abi.encodeWithSignature(\"log(string,bool,string,address)\", p0, p1, p2, p3));\n\t}\n\n\tfunction log(string memory p0, bool p1, bool p2, uint p3) internal view {\n\t\t_sendLogPayload(abi.encodeWithSignature(\"log(string,bool,bool,uint)\", p0, p1, p2, p3));\n\t}\n\n\tfunction log(string memory p0, bool p1, bool p2, string memory p3) internal view {\n\t\t_sendLogPayload(abi.encodeWithSignature(\"log(string,bool,bool,string)\", p0, p1, p2, p3));\n\t}\n\n\tfunction log(string memory p0, bool p1, bool p2, bool p3) internal view {\n\t\t_sendLogPayload(abi.encodeWithSignature(\"log(string,bool,bool,bool)\", p0, p1, p2, p3));\n\t}\n\n\tfunction log(string memory p0, bool p1, bool p2, address p3) internal view {\n\t\t_sendLogPayload(abi.encodeWithSignature(\"log(string,bool,bool,address)\", p0, p1, p2, p3));\n\t}\n\n\tfunction log(string memory p0, bool p1, address p2, uint p3) internal view {\n\t\t_sendLogPayload(abi.encodeWithSignature(\"log(string,bool,address,uint)\", p0, p1, p2, p3));\n\t}\n\n\tfunction log(string memory p0, bool p1, address p2, string memory p3) internal view {\n\t\t_sendLogPayload(abi.encodeWithSignature(\"log(string,bool,address,string)\", p0, p1, p2, p3));\n\t}\n\n\tfunction log(string memory p0, bool p1, address p2, bool p3) internal view {\n\t\t_sendLogPayload(abi.encodeWithSignature(\"log(string,bool,address,bool)\", p0, p1, p2, p3));\n\t}\n\n\tfunction log(string memory p0, bool p1, address p2, address p3) internal view {\n\t\t_sendLogPayload(abi.encodeWithSignature(\"log(string,bool,address,address)\", p0, p1, p2, p3));\n\t}\n\n\tfunction log(string memory p0, address p1, uint p2, uint p3) internal view {\n\t\t_sendLogPayload(abi.encodeWithSignature(\"log(string,address,uint,uint)\", p0, p1, p2, p3));\n\t}\n\n\tfunction log(string memory p0, address p1, uint p2, string memory p3) internal view {\n\t\t_sendLogPayload(abi.encodeWithSignature(\"log(string,address,uint,string)\", p0, p1, p2, p3));\n\t}\n\n\tfunction log(string memory p0, address p1, uint p2, bool p3) internal view {\n\t\t_sendLogPayload(abi.encodeWithSignature(\"log(string,address,uint,bool)\", p0, p1, p2, p3));\n\t}\n\n\tfunction log(string memory p0, address p1, uint p2, address p3) internal view {\n\t\t_sendLogPayload(abi.encodeWithSignature(\"log(string,address,uint,address)\", p0, p1, p2, p3));\n\t}\n\n\tfunction log(string memory p0, address p1, string memory p2, uint p3) internal view {\n\t\t_sendLogPayload(abi.encodeWithSignature(\"log(string,address,string,uint)\", p0, p1, p2, p3));\n\t}\n\n\tfunction log(string memory p0, address p1, string memory p2, string memory p3) internal view {\n\t\t_sendLogPayload(abi.encodeWithSignature(\"log(string,address,string,string)\", p0, p1, p2, p3));\n\t}\n\n\tfunction log(string memory p0, address p1, string memory p2, bool p3) internal view {\n\t\t_sendLogPayload(abi.encodeWithSignature(\"log(string,address,string,bool)\", p0, p1, p2, p3));\n\t}\n\n\tfunction log(string memory p0, address p1, string memory p2, address p3) internal view {\n\t\t_sendLogPayload(abi.encodeWithSignature(\"log(string,address,string,address)\", p0, p1, p2, p3));\n\t}\n\n\tfunction log(string memory p0, address p1, bool p2, uint p3) internal view {\n\t\t_sendLogPayload(abi.encodeWithSignature(\"log(string,address,bool,uint)\", p0, p1, p2, p3));\n\t}\n\n\tfunction log(string memory p0, address p1, bool p2, string memory p3) internal view {\n\t\t_sendLogPayload(abi.encodeWithSignature(\"log(string,address,bool,string)\", p0, p1, p2, p3));\n\t}\n\n\tfunction log(string memory p0, address p1, bool p2, bool p3) internal view {\n\t\t_sendLogPayload(abi.encodeWithSignature(\"log(string,address,bool,bool)\", p0, p1, p2, p3));\n\t}\n\n\tfunction log(string memory p0, address p1, bool p2, address p3) internal view {\n\t\t_sendLogPayload(abi.encodeWithSignature(\"log(string,address,bool,address)\", p0, p1, p2, p3));\n\t}\n\n\tfunction log(string memory p0, address p1, address p2, uint p3) internal view {\n\t\t_sendLogPayload(abi.encodeWithSignature(\"log(string,address,address,uint)\", p0, p1, p2, p3));\n\t}\n\n\tfunction log(string memory p0, address p1, address p2, string memory p3) internal view {\n\t\t_sendLogPayload(abi.encodeWithSignature(\"log(string,address,address,string)\", p0, p1, p2, p3));\n\t}\n\n\tfunction log(string memory p0, address p1, address p2, bool p3) internal view {\n\t\t_sendLogPayload(abi.encodeWithSignature(\"log(string,address,address,bool)\", p0, p1, p2, p3));\n\t}\n\n\tfunction log(string memory p0, address p1, address p2, address p3) internal view {\n\t\t_sendLogPayload(abi.encodeWithSignature(\"log(string,address,address,address)\", p0, p1, p2, p3));\n\t}\n\n\tfunction log(bool p0, uint p1, uint p2, uint p3) internal view {\n\t\t_sendLogPayload(abi.encodeWithSignature(\"log(bool,uint,uint,uint)\", p0, p1, p2, p3));\n\t}\n\n\tfunction log(bool p0, uint p1, uint p2, string memory p3) internal view {\n\t\t_sendLogPayload(abi.encodeWithSignature(\"log(bool,uint,uint,string)\", p0, p1, p2, p3));\n\t}\n\n\tfunction log(bool p0, uint p1, uint p2, bool p3) internal view {\n\t\t_sendLogPayload(abi.encodeWithSignature(\"log(bool,uint,uint,bool)\", p0, p1, p2, p3));\n\t}\n\n\tfunction log(bool p0, uint p1, uint p2, address p3) internal view {\n\t\t_sendLogPayload(abi.encodeWithSignature(\"log(bool,uint,uint,address)\", p0, p1, p2, p3));\n\t}\n\n\tfunction log(bool p0, uint p1, string memory p2, uint p3) internal view {\n\t\t_sendLogPayload(abi.encodeWithSignature(\"log(bool,uint,string,uint)\", p0, p1, p2, p3));\n\t}\n\n\tfunction log(bool p0, uint p1, string memory p2, string memory p3) internal view {\n\t\t_sendLogPayload(abi.encodeWithSignature(\"log(bool,uint,string,string)\", p0, p1, p2, p3));\n\t}\n\n\tfunction log(bool p0, uint p1, string memory p2, bool p3) internal view {\n\t\t_sendLogPayload(abi.encodeWithSignature(\"log(bool,uint,string,bool)\", p0, p1, p2, p3));\n\t}\n\n\tfunction log(bool p0, uint p1, string memory p2, address p3) internal view {\n\t\t_sendLogPayload(abi.encodeWithSignature(\"log(bool,uint,string,address)\", p0, p1, p2, p3));\n\t}\n\n\tfunction log(bool p0, uint p1, bool p2, uint p3) internal view {\n\t\t_sendLogPayload(abi.encodeWithSignature(\"log(bool,uint,bool,uint)\", p0, p1, p2, p3));\n\t}\n\n\tfunction log(bool p0, uint p1, bool p2, string memory p3) internal view {\n\t\t_sendLogPayload(abi.encodeWithSignature(\"log(bool,uint,bool,string)\", p0, p1, p2, p3));\n\t}\n\n\tfunction log(bool p0, uint p1, bool p2, bool p3) internal view {\n\t\t_sendLogPayload(abi.encodeWithSignature(\"log(bool,uint,bool,bool)\", p0, p1, p2, p3));\n\t}\n\n\tfunction log(bool p0, uint p1, bool p2, address p3) internal view {\n\t\t_sendLogPayload(abi.encodeWithSignature(\"log(bool,uint,bool,address)\", p0, p1, p2, p3));\n\t}\n\n\tfunction log(bool p0, uint p1, address p2, uint p3) internal view {\n\t\t_sendLogPayload(abi.encodeWithSignature(\"log(bool,uint,address,uint)\", p0, p1, p2, p3));\n\t}\n\n\tfunction log(bool p0, uint p1, address p2, string memory p3) internal view {\n\t\t_sendLogPayload(abi.encodeWithSignature(\"log(bool,uint,address,string)\", p0, p1, p2, p3));\n\t}\n\n\tfunction log(bool p0, uint p1, address p2, bool p3) internal view {\n\t\t_sendLogPayload(abi.encodeWithSignature(\"log(bool,uint,address,bool)\", p0, p1, p2, p3));\n\t}\n\n\tfunction log(bool p0, uint p1, address p2, address p3) internal view {\n\t\t_sendLogPayload(abi.encodeWithSignature(\"log(bool,uint,address,address)\", p0, p1, p2, p3));\n\t}\n\n\tfunction log(bool p0, string memory p1, uint p2, uint p3) internal view {\n\t\t_sendLogPayload(abi.encodeWithSignature(\"log(bool,string,uint,uint)\", p0, p1, p2, p3));\n\t}\n\n\tfunction log(bool p0, string memory p1, uint p2, string memory p3) internal view {\n\t\t_sendLogPayload(abi.encodeWithSignature(\"log(bool,string,uint,string)\", p0, p1, p2, p3));\n\t}\n\n\tfunction log(bool p0, string memory p1, uint p2, bool p3) internal view {\n\t\t_sendLogPayload(abi.encodeWithSignature(\"log(bool,string,uint,bool)\", p0, p1, p2, p3));\n\t}\n\n\tfunction log(bool p0, string memory p1, uint p2, address p3) internal view {\n\t\t_sendLogPayload(abi.encodeWithSignature(\"log(bool,string,uint,address)\", p0, p1, p2, p3));\n\t}\n\n\tfunction log(bool p0, string memory p1, string memory p2, uint p3) internal view {\n\t\t_sendLogPayload(abi.encodeWithSignature(\"log(bool,string,string,uint)\", p0, p1, p2, p3));\n\t}\n\n\tfunction log(bool p0, string memory p1, string memory p2, string memory p3) internal view {\n\t\t_sendLogPayload(abi.encodeWithSignature(\"log(bool,string,string,string)\", p0, p1, p2, p3));\n\t}\n\n\tfunction log(bool p0, string memory p1, string memory p2, bool p3) internal view {\n\t\t_sendLogPayload(abi.encodeWithSignature(\"log(bool,string,string,bool)\", p0, p1, p2, p3));\n\t}\n\n\tfunction log(bool p0, string memory p1, string memory p2, address p3) internal view {\n\t\t_sendLogPayload(abi.encodeWithSignature(\"log(bool,string,string,address)\", p0, p1, p2, p3));\n\t}\n\n\tfunction log(bool p0, string memory p1, bool p2, uint p3) internal view {\n\t\t_sendLogPayload(abi.encodeWithSignature(\"log(bool,string,bool,uint)\", p0, p1, p2, p3));\n\t}\n\n\tfunction log(bool p0, string memory p1, bool p2, string memory p3) internal view {\n\t\t_sendLogPayload(abi.encodeWithSignature(\"log(bool,string,bool,string)\", p0, p1, p2, p3));\n\t}\n\n\tfunction log(bool p0, string memory p1, bool p2, bool p3) internal view {\n\t\t_sendLogPayload(abi.encodeWithSignature(\"log(bool,string,bool,bool)\", p0, p1, p2, p3));\n\t}\n\n\tfunction log(bool p0, string memory p1, bool p2, address p3) internal view {\n\t\t_sendLogPayload(abi.encodeWithSignature(\"log(bool,string,bool,address)\", p0, p1, p2, p3));\n\t}\n\n\tfunction log(bool p0, string memory p1, address p2, uint p3) internal view {\n\t\t_sendLogPayload(abi.encodeWithSignature(\"log(bool,string,address,uint)\", p0, p1, p2, p3));\n\t}\n\n\tfunction log(bool p0, string memory p1, address p2, string memory p3) internal view {\n\t\t_sendLogPayload(abi.encodeWithSignature(\"log(bool,string,address,string)\", p0, p1, p2, p3));\n\t}\n\n\tfunction log(bool p0, string memory p1, address p2, bool p3) internal view {\n\t\t_sendLogPayload(abi.encodeWithSignature(\"log(bool,string,address,bool)\", p0, p1, p2, p3));\n\t}\n\n\tfunction log(bool p0, string memory p1, address p2, address p3) internal view {\n\t\t_sendLogPayload(abi.encodeWithSignature(\"log(bool,string,address,address)\", p0, p1, p2, p3));\n\t}\n\n\tfunction log(bool p0, bool p1, uint p2, uint p3) internal view {\n\t\t_sendLogPayload(abi.encodeWithSignature(\"log(bool,bool,uint,uint)\", p0, p1, p2, p3));\n\t}\n\n\tfunction log(bool p0, bool p1, uint p2, string memory p3) internal view {\n\t\t_sendLogPayload(abi.encodeWithSignature(\"log(bool,bool,uint,string)\", p0, p1, p2, p3));\n\t}\n\n\tfunction log(bool p0, bool p1, uint p2, bool p3) internal view {\n\t\t_sendLogPayload(abi.encodeWithSignature(\"log(bool,bool,uint,bool)\", p0, p1, p2, p3));\n\t}\n\n\tfunction log(bool p0, bool p1, uint p2, address p3) internal view {\n\t\t_sendLogPayload(abi.encodeWithSignature(\"log(bool,bool,uint,address)\", p0, p1, p2, p3));\n\t}\n\n\tfunction log(bool p0, bool p1, string memory p2, uint p3) internal view {\n\t\t_sendLogPayload(abi.encodeWithSignature(\"log(bool,bool,string,uint)\", p0, p1, p2, p3));\n\t}\n\n\tfunction log(bool p0, bool p1, string memory p2, string memory p3) internal view {\n\t\t_sendLogPayload(abi.encodeWithSignature(\"log(bool,bool,string,string)\", p0, p1, p2, p3));\n\t}\n\n\tfunction log(bool p0, bool p1, string memory p2, bool p3) internal view {\n\t\t_sendLogPayload(abi.encodeWithSignature(\"log(bool,bool,string,bool)\", p0, p1, p2, p3));\n\t}\n\n\tfunction log(bool p0, bool p1, string memory p2, address p3) internal view {\n\t\t_sendLogPayload(abi.encodeWithSignature(\"log(bool,bool,string,address)\", p0, p1, p2, p3));\n\t}\n\n\tfunction log(bool p0, bool p1, bool p2, uint p3) internal view {\n\t\t_sendLogPayload(abi.encodeWithSignature(\"log(bool,bool,bool,uint)\", p0, p1, p2, p3));\n\t}\n\n\tfunction log(bool p0, bool p1, bool p2, string memory p3) internal view {\n\t\t_sendLogPayload(abi.encodeWithSignature(\"log(bool,bool,bool,string)\", p0, p1, p2, p3));\n\t}\n\n\tfunction log(bool p0, bool p1, bool p2, bool p3) internal view {\n\t\t_sendLogPayload(abi.encodeWithSignature(\"log(bool,bool,bool,bool)\", p0, p1, p2, p3));\n\t}\n\n\tfunction log(bool p0, bool p1, bool p2, address p3) internal view {\n\t\t_sendLogPayload(abi.encodeWithSignature(\"log(bool,bool,bool,address)\", p0, p1, p2, p3));\n\t}\n\n\tfunction log(bool p0, bool p1, address p2, uint p3) internal view {\n\t\t_sendLogPayload(abi.encodeWithSignature(\"log(bool,bool,address,uint)\", p0, p1, p2, p3));\n\t}\n\n\tfunction log(bool p0, bool p1, address p2, string memory p3) internal view {\n\t\t_sendLogPayload(abi.encodeWithSignature(\"log(bool,bool,address,string)\", p0, p1, p2, p3));\n\t}\n\n\tfunction log(bool p0, bool p1, address p2, bool p3) internal view {\n\t\t_sendLogPayload(abi.encodeWithSignature(\"log(bool,bool,address,bool)\", p0, p1, p2, p3));\n\t}\n\n\tfunction log(bool p0, bool p1, address p2, address p3) internal view {\n\t\t_sendLogPayload(abi.encodeWithSignature(\"log(bool,bool,address,address)\", p0, p1, p2, p3));\n\t}\n\n\tfunction log(bool p0, address p1, uint p2, uint p3) internal view {\n\t\t_sendLogPayload(abi.encodeWithSignature(\"log(bool,address,uint,uint)\", p0, p1, p2, p3));\n\t}\n\n\tfunction log(bool p0, address p1, uint p2, string memory p3) internal view {\n\t\t_sendLogPayload(abi.encodeWithSignature(\"log(bool,address,uint,string)\", p0, p1, p2, p3));\n\t}\n\n\tfunction log(bool p0, address p1, uint p2, bool p3) internal view {\n\t\t_sendLogPayload(abi.encodeWithSignature(\"log(bool,address,uint,bool)\", p0, p1, p2, p3));\n\t}\n\n\tfunction log(bool p0, address p1, uint p2, address p3) internal view {\n\t\t_sendLogPayload(abi.encodeWithSignature(\"log(bool,address,uint,address)\", p0, p1, p2, p3));\n\t}\n\n\tfunction log(bool p0, address p1, string memory p2, uint p3) internal view {\n\t\t_sendLogPayload(abi.encodeWithSignature(\"log(bool,address,string,uint)\", p0, p1, p2, p3));\n\t}\n\n\tfunction log(bool p0, address p1, string memory p2, string memory p3) internal view {\n\t\t_sendLogPayload(abi.encodeWithSignature(\"log(bool,address,string,string)\", p0, p1, p2, p3));\n\t}\n\n\tfunction log(bool p0, address p1, string memory p2, bool p3) internal view {\n\t\t_sendLogPayload(abi.encodeWithSignature(\"log(bool,address,string,bool)\", p0, p1, p2, p3));\n\t}\n\n\tfunction log(bool p0, address p1, string memory p2, address p3) internal view {\n\t\t_sendLogPayload(abi.encodeWithSignature(\"log(bool,address,string,address)\", p0, p1, p2, p3));\n\t}\n\n\tfunction log(bool p0, address p1, bool p2, uint p3) internal view {\n\t\t_sendLogPayload(abi.encodeWithSignature(\"log(bool,address,bool,uint)\", p0, p1, p2, p3));\n\t}\n\n\tfunction log(bool p0, address p1, bool p2, string memory p3) internal view {\n\t\t_sendLogPayload(abi.encodeWithSignature(\"log(bool,address,bool,string)\", p0, p1, p2, p3));\n\t}\n\n\tfunction log(bool p0, address p1, bool p2, bool p3) internal view {\n\t\t_sendLogPayload(abi.encodeWithSignature(\"log(bool,address,bool,bool)\", p0, p1, p2, p3));\n\t}\n\n\tfunction log(bool p0, address p1, bool p2, address p3) internal view {\n\t\t_sendLogPayload(abi.encodeWithSignature(\"log(bool,address,bool,address)\", p0, p1, p2, p3));\n\t}\n\n\tfunction log(bool p0, address p1, address p2, uint p3) internal view {\n\t\t_sendLogPayload(abi.encodeWithSignature(\"log(bool,address,address,uint)\", p0, p1, p2, p3));\n\t}\n\n\tfunction log(bool p0, address p1, address p2, string memory p3) internal view {\n\t\t_sendLogPayload(abi.encodeWithSignature(\"log(bool,address,address,string)\", p0, p1, p2, p3));\n\t}\n\n\tfunction log(bool p0, address p1, address p2, bool p3) internal view {\n\t\t_sendLogPayload(abi.encodeWithSignature(\"log(bool,address,address,bool)\", p0, p1, p2, p3));\n\t}\n\n\tfunction log(bool p0, address p1, address p2, address p3) internal view {\n\t\t_sendLogPayload(abi.encodeWithSignature(\"log(bool,address,address,address)\", p0, p1, p2, p3));\n\t}\n\n\tfunction log(address p0, uint p1, uint p2, uint p3) internal view {\n\t\t_sendLogPayload(abi.encodeWithSignature(\"log(address,uint,uint,uint)\", p0, p1, p2, p3));\n\t}\n\n\tfunction log(address p0, uint p1, uint p2, string memory p3) internal view {\n\t\t_sendLogPayload(abi.encodeWithSignature(\"log(address,uint,uint,string)\", p0, p1, p2, p3));\n\t}\n\n\tfunction log(address p0, uint p1, uint p2, bool p3) internal view {\n\t\t_sendLogPayload(abi.encodeWithSignature(\"log(address,uint,uint,bool)\", p0, p1, p2, p3));\n\t}\n\n\tfunction log(address p0, uint p1, uint p2, address p3) internal view {\n\t\t_sendLogPayload(abi.encodeWithSignature(\"log(address,uint,uint,address)\", p0, p1, p2, p3));\n\t}\n\n\tfunction log(address p0, uint p1, string memory p2, uint p3) internal view {\n\t\t_sendLogPayload(abi.encodeWithSignature(\"log(address,uint,string,uint)\", p0, p1, p2, p3));\n\t}\n\n\tfunction log(address p0, uint p1, string memory p2, string memory p3) internal view {\n\t\t_sendLogPayload(abi.encodeWithSignature(\"log(address,uint,string,string)\", p0, p1, p2, p3));\n\t}\n\n\tfunction log(address p0, uint p1, string memory p2, bool p3) internal view {\n\t\t_sendLogPayload(abi.encodeWithSignature(\"log(address,uint,string,bool)\", p0, p1, p2, p3));\n\t}\n\n\tfunction log(address p0, uint p1, string memory p2, address p3) internal view {\n\t\t_sendLogPayload(abi.encodeWithSignature(\"log(address,uint,string,address)\", p0, p1, p2, p3));\n\t}\n\n\tfunction log(address p0, uint p1, bool p2, uint p3) internal view {\n\t\t_sendLogPayload(abi.encodeWithSignature(\"log(address,uint,bool,uint)\", p0, p1, p2, p3));\n\t}\n\n\tfunction log(address p0, uint p1, bool p2, string memory p3) internal view {\n\t\t_sendLogPayload(abi.encodeWithSignature(\"log(address,uint,bool,string)\", p0, p1, p2, p3));\n\t}\n\n\tfunction log(address p0, uint p1, bool p2, bool p3) internal view {\n\t\t_sendLogPayload(abi.encodeWithSignature(\"log(address,uint,bool,bool)\", p0, p1, p2, p3));\n\t}\n\n\tfunction log(address p0, uint p1, bool p2, address p3) internal view {\n\t\t_sendLogPayload(abi.encodeWithSignature(\"log(address,uint,bool,address)\", p0, p1, p2, p3));\n\t}\n\n\tfunction log(address p0, uint p1, address p2, uint p3) internal view {\n\t\t_sendLogPayload(abi.encodeWithSignature(\"log(address,uint,address,uint)\", p0, p1, p2, p3));\n\t}\n\n\tfunction log(address p0, uint p1, address p2, string memory p3) internal view {\n\t\t_sendLogPayload(abi.encodeWithSignature(\"log(address,uint,address,string)\", p0, p1, p2, p3));\n\t}\n\n\tfunction log(address p0, uint p1, address p2, bool p3) internal view {\n\t\t_sendLogPayload(abi.encodeWithSignature(\"log(address,uint,address,bool)\", p0, p1, p2, p3));\n\t}\n\n\tfunction log(address p0, uint p1, address p2, address p3) internal view {\n\t\t_sendLogPayload(abi.encodeWithSignature(\"log(address,uint,address,address)\", p0, p1, p2, p3));\n\t}\n\n\tfunction log(address p0, string memory p1, uint p2, uint p3) internal view {\n\t\t_sendLogPayload(abi.encodeWithSignature(\"log(address,string,uint,uint)\", p0, p1, p2, p3));\n\t}\n\n\tfunction log(address p0, string memory p1, uint p2, string memory p3) internal view {\n\t\t_sendLogPayload(abi.encodeWithSignature(\"log(address,string,uint,string)\", p0, p1, p2, p3));\n\t}\n\n\tfunction log(address p0, string memory p1, uint p2, bool p3) internal view {\n\t\t_sendLogPayload(abi.encodeWithSignature(\"log(address,string,uint,bool)\", p0, p1, p2, p3));\n\t}\n\n\tfunction log(address p0, string memory p1, uint p2, address p3) internal view {\n\t\t_sendLogPayload(abi.encodeWithSignature(\"log(address,string,uint,address)\", p0, p1, p2, p3));\n\t}\n\n\tfunction log(address p0, string memory p1, string memory p2, uint p3) internal view {\n\t\t_sendLogPayload(abi.encodeWithSignature(\"log(address,string,string,uint)\", p0, p1, p2, p3));\n\t}\n\n\tfunction log(address p0, string memory p1, string memory p2, string memory p3) internal view {\n\t\t_sendLogPayload(abi.encodeWithSignature(\"log(address,string,string,string)\", p0, p1, p2, p3));\n\t}\n\n\tfunction log(address p0, string memory p1, string memory p2, bool p3) internal view {\n\t\t_sendLogPayload(abi.encodeWithSignature(\"log(address,string,string,bool)\", p0, p1, p2, p3));\n\t}\n\n\tfunction log(address p0, string memory p1, string memory p2, address p3) internal view {\n\t\t_sendLogPayload(abi.encodeWithSignature(\"log(address,string,string,address)\", p0, p1, p2, p3));\n\t}\n\n\tfunction log(address p0, string memory p1, bool p2, uint p3) internal view {\n\t\t_sendLogPayload(abi.encodeWithSignature(\"log(address,string,bool,uint)\", p0, p1, p2, p3));\n\t}\n\n\tfunction log(address p0, string memory p1, bool p2, string memory p3) internal view {\n\t\t_sendLogPayload(abi.encodeWithSignature(\"log(address,string,bool,string)\", p0, p1, p2, p3));\n\t}\n\n\tfunction log(address p0, string memory p1, bool p2, bool p3) internal view {\n\t\t_sendLogPayload(abi.encodeWithSignature(\"log(address,string,bool,bool)\", p0, p1, p2, p3));\n\t}\n\n\tfunction log(address p0, string memory p1, bool p2, address p3) internal view {\n\t\t_sendLogPayload(abi.encodeWithSignature(\"log(address,string,bool,address)\", p0, p1, p2, p3));\n\t}\n\n\tfunction log(address p0, string memory p1, address p2, uint p3) internal view {\n\t\t_sendLogPayload(abi.encodeWithSignature(\"log(address,string,address,uint)\", p0, p1, p2, p3));\n\t}\n\n\tfunction log(address p0, string memory p1, address p2, string memory p3) internal view {\n\t\t_sendLogPayload(abi.encodeWithSignature(\"log(address,string,address,string)\", p0, p1, p2, p3));\n\t}\n\n\tfunction log(address p0, string memory p1, address p2, bool p3) internal view {\n\t\t_sendLogPayload(abi.encodeWithSignature(\"log(address,string,address,bool)\", p0, p1, p2, p3));\n\t}\n\n\tfunction log(address p0, string memory p1, address p2, address p3) internal view {\n\t\t_sendLogPayload(abi.encodeWithSignature(\"log(address,string,address,address)\", p0, p1, p2, p3));\n\t}\n\n\tfunction log(address p0, bool p1, uint p2, uint p3) internal view {\n\t\t_sendLogPayload(abi.encodeWithSignature(\"log(address,bool,uint,uint)\", p0, p1, p2, p3));\n\t}\n\n\tfunction log(address p0, bool p1, uint p2, string memory p3) internal view {\n\t\t_sendLogPayload(abi.encodeWithSignature(\"log(address,bool,uint,string)\", p0, p1, p2, p3));\n\t}\n\n\tfunction log(address p0, bool p1, uint p2, bool p3) internal view {\n\t\t_sendLogPayload(abi.encodeWithSignature(\"log(address,bool,uint,bool)\", p0, p1, p2, p3));\n\t}\n\n\tfunction log(address p0, bool p1, uint p2, address p3) internal view {\n\t\t_sendLogPayload(abi.encodeWithSignature(\"log(address,bool,uint,address)\", p0, p1, p2, p3));\n\t}\n\n\tfunction log(address p0, bool p1, string memory p2, uint p3) internal view {\n\t\t_sendLogPayload(abi.encodeWithSignature(\"log(address,bool,string,uint)\", p0, p1, p2, p3));\n\t}\n\n\tfunction log(address p0, bool p1, string memory p2, string memory p3) internal view {\n\t\t_sendLogPayload(abi.encodeWithSignature(\"log(address,bool,string,string)\", p0, p1, p2, p3));\n\t}\n\n\tfunction log(address p0, bool p1, string memory p2, bool p3) internal view {\n\t\t_sendLogPayload(abi.encodeWithSignature(\"log(address,bool,string,bool)\", p0, p1, p2, p3));\n\t}\n\n\tfunction log(address p0, bool p1, string memory p2, address p3) internal view {\n\t\t_sendLogPayload(abi.encodeWithSignature(\"log(address,bool,string,address)\", p0, p1, p2, p3));\n\t}\n\n\tfunction log(address p0, bool p1, bool p2, uint p3) internal view {\n\t\t_sendLogPayload(abi.encodeWithSignature(\"log(address,bool,bool,uint)\", p0, p1, p2, p3));\n\t}\n\n\tfunction log(address p0, bool p1, bool p2, string memory p3) internal view {\n\t\t_sendLogPayload(abi.encodeWithSignature(\"log(address,bool,bool,string)\", p0, p1, p2, p3));\n\t}\n\n\tfunction log(address p0, bool p1, bool p2, bool p3) internal view {\n\t\t_sendLogPayload(abi.encodeWithSignature(\"log(address,bool,bool,bool)\", p0, p1, p2, p3));\n\t}\n\n\tfunction log(address p0, bool p1, bool p2, address p3) internal view {\n\t\t_sendLogPayload(abi.encodeWithSignature(\"log(address,bool,bool,address)\", p0, p1, p2, p3));\n\t}\n\n\tfunction log(address p0, bool p1, address p2, uint p3) internal view {\n\t\t_sendLogPayload(abi.encodeWithSignature(\"log(address,bool,address,uint)\", p0, p1, p2, p3));\n\t}\n\n\tfunction log(address p0, bool p1, address p2, string memory p3) internal view {\n\t\t_sendLogPayload(abi.encodeWithSignature(\"log(address,bool,address,string)\", p0, p1, p2, p3));\n\t}\n\n\tfunction log(address p0, bool p1, address p2, bool p3) internal view {\n\t\t_sendLogPayload(abi.encodeWithSignature(\"log(address,bool,address,bool)\", p0, p1, p2, p3));\n\t}\n\n\tfunction log(address p0, bool p1, address p2, address p3) internal view {\n\t\t_sendLogPayload(abi.encodeWithSignature(\"log(address,bool,address,address)\", p0, p1, p2, p3));\n\t}\n\n\tfunction log(address p0, address p1, uint p2, uint p3) internal view {\n\t\t_sendLogPayload(abi.encodeWithSignature(\"log(address,address,uint,uint)\", p0, p1, p2, p3));\n\t}\n\n\tfunction log(address p0, address p1, uint p2, string memory p3) internal view {\n\t\t_sendLogPayload(abi.encodeWithSignature(\"log(address,address,uint,string)\", p0, p1, p2, p3));\n\t}\n\n\tfunction log(address p0, address p1, uint p2, bool p3) internal view {\n\t\t_sendLogPayload(abi.encodeWithSignature(\"log(address,address,uint,bool)\", p0, p1, p2, p3));\n\t}\n\n\tfunction log(address p0, address p1, uint p2, address p3) internal view {\n\t\t_sendLogPayload(abi.encodeWithSignature(\"log(address,address,uint,address)\", p0, p1, p2, p3));\n\t}\n\n\tfunction log(address p0, address p1, string memory p2, uint p3) internal view {\n\t\t_sendLogPayload(abi.encodeWithSignature(\"log(address,address,string,uint)\", p0, p1, p2, p3));\n\t}\n\n\tfunction log(address p0, address p1, string memory p2, string memory p3) internal view {\n\t\t_sendLogPayload(abi.encodeWithSignature(\"log(address,address,string,string)\", p0, p1, p2, p3));\n\t}\n\n\tfunction log(address p0, address p1, string memory p2, bool p3) internal view {\n\t\t_sendLogPayload(abi.encodeWithSignature(\"log(address,address,string,bool)\", p0, p1, p2, p3));\n\t}\n\n\tfunction log(address p0, address p1, string memory p2, address p3) internal view {\n\t\t_sendLogPayload(abi.encodeWithSignature(\"log(address,address,string,address)\", p0, p1, p2, p3));\n\t}\n\n\tfunction log(address p0, address p1, bool p2, uint p3) internal view {\n\t\t_sendLogPayload(abi.encodeWithSignature(\"log(address,address,bool,uint)\", p0, p1, p2, p3));\n\t}\n\n\tfunction log(address p0, address p1, bool p2, string memory p3) internal view {\n\t\t_sendLogPayload(abi.encodeWithSignature(\"log(address,address,bool,string)\", p0, p1, p2, p3));\n\t}\n\n\tfunction log(address p0, address p1, bool p2, bool p3) internal view {\n\t\t_sendLogPayload(abi.encodeWithSignature(\"log(address,address,bool,bool)\", p0, p1, p2, p3));\n\t}\n\n\tfunction log(address p0, address p1, bool p2, address p3) internal view {\n\t\t_sendLogPayload(abi.encodeWithSignature(\"log(address,address,bool,address)\", p0, p1, p2, p3));\n\t}\n\n\tfunction log(address p0, address p1, address p2, uint p3) internal view {\n\t\t_sendLogPayload(abi.encodeWithSignature(\"log(address,address,address,uint)\", p0, p1, p2, p3));\n\t}\n\n\tfunction log(address p0, address p1, address p2, string memory p3) internal view {\n\t\t_sendLogPayload(abi.encodeWithSignature(\"log(address,address,address,string)\", p0, p1, p2, p3));\n\t}\n\n\tfunction log(address p0, address p1, address p2, bool p3) internal view {\n\t\t_sendLogPayload(abi.encodeWithSignature(\"log(address,address,address,bool)\", p0, p1, p2, p3));\n\t}\n\n\tfunction log(address p0, address p1, address p2, address p3) internal view {\n\t\t_sendLogPayload(abi.encodeWithSignature(\"log(address,address,address,address)\", p0, p1, p2, p3));\n\t}\n\n}\n"
    },
    "contracts/ExplicitUserConsent.sol": {
      "content": "// /*\r\n\r\n// * Copyright (c) Siemens AG, 2020-2022\r\n\r\n// *\r\n\r\n// * Authors:\r\n\r\n// * Susanne Stahnke <susanne.stahnke@siemens.com>,\r\n\r\n// * Yvonne Kovacs <yvonne.kovacs@siemens.com>\r\n\r\n// *\r\n\r\n// * This work is licensed under the terms of Apache 2.0. See\r\n\r\n// * the LICENSE file in the top-level directory.\r\n\r\n// */\r\n\r\nimport \"hardhat/console.sol\";\r\nimport \"./Agreement.sol\";\r\n\r\ncontract ExplicitUserConsent {\r\n\r\n    struct Consent {\r\n        string dataOfferingId;\r\n        string consentSubject;\r\n        address consentOperator;\r\n        string consentFormHash;\r\n        uint256 startDate;\r\n        uint256 endDate;\r\n        uint256 status;\r\n    }\r\n\r\n    mapping(string => Consent[]) consents;\r\n\r\n    event ConsentGiven(string dataOfferingId, string[] consentSubjects);\r\n    event ConsentRevoked(string[] consumers, string dataOfferingId, string[] consentSubjects);\r\n\r\n    function giveConsent(\r\n        string memory _dataOfferingId,\r\n        string[] memory _consentSubjects,\r\n        string memory _consentFormHash,\r\n        uint256 _startDate,\r\n        uint256 _endDate\r\n    ) public {\r\n        require(_startDate>=block.timestamp);\r\n        require(_endDate>=_startDate);\r\n        for(uint256 i=0; i< _consentSubjects.length; i++) {\r\n            Consent memory consent;\r\n            consent.dataOfferingId = _dataOfferingId;\r\n            consent.consentSubject = _consentSubjects[i];\r\n            consent.consentOperator = msg.sender;\r\n            consent.consentFormHash = _consentFormHash;\r\n            consent.startDate = _startDate;\r\n            consent.endDate = _endDate;\r\n            consent.status = _endDate; \r\n\r\n            consents[_dataOfferingId].push(consent);\r\n        }\r\n        emit ConsentGiven(_dataOfferingId, _consentSubjects);\r\n    }\r\n\r\n\r\n    function checkConsentStatus(string memory _dataOfferingId, string memory _consentSubject)\r\n        external\r\n        view\r\n        returns (uint256[] memory) \r\n    {\r\n        Consent[] memory consentsByDataOffering = consents[_dataOfferingId];\r\n        uint256 length = consentsByDataOffering.length;\r\n        uint256[] memory consentsStatus;\r\n        uint256 k = 0;\r\n\r\n        bytes memory emptyString = bytes(_consentSubject); \r\n        if (emptyString.length == 0) {\r\n            consentsStatus = new uint256[](length);\r\n            for (uint256 i = 0; i < length; i++) {                 \r\n                if (block.timestamp > consentsByDataOffering[i].endDate){ \r\n                    consentsByDataOffering[i].status = 0; \r\n                }\r\n                 consentsStatus[k++] = consentsByDataOffering[i].status;\r\n            }\r\n        }\r\n        else {\r\n            consentsStatus = new uint256[](1);\r\n            for (uint256 i = length-1; i >= 0; i--) {\r\n                if (block.timestamp > consentsByDataOffering[i].endDate){\r\n                    consentsByDataOffering[i].status = 0; \r\n                }\r\n                if(keccak256(abi.encodePacked(consentsByDataOffering[i].consentSubject)) == keccak256(abi.encodePacked(_consentSubject))){\r\n                    consentsStatus[k++] = consentsByDataOffering[i].status;\r\n                    break;\r\n                }\r\n            }       \r\n        }\r\n        \r\n        return consentsStatus;\r\n    }\r\n\r\n    function revokeConsent( address _addr, string memory _dataOfferingId, string[] memory _consentSubjects) public {\r\n\r\n        Consent[] memory consentsByDataOffering = consents[_dataOfferingId];\r\n        uint256 length = consentsByDataOffering.length;\r\n        if (_consentSubjects.length == 0) {\r\n            for (uint256 i = 0; i < length; i++) {\r\n                require(consents[_dataOfferingId][i].consentOperator == msg.sender);\r\n                consents[_dataOfferingId][i].status = 0;\r\n            }\r\n        } else {\r\n            for (uint256 i = 0; i < length; i++) {\r\n                require(consents[_dataOfferingId][i].consentOperator == msg.sender);\r\n                for (uint256 j = 0; j < _consentSubjects.length; j++)\r\n                    if (keccak256(abi.encodePacked(consentsByDataOffering[i].consentSubject)) == keccak256(abi.encodePacked(_consentSubjects[j])))\r\n                        consents[_dataOfferingId][i].status = 0;\r\n            }\r\n        }\r\n\r\n        DataSharingAgreement agreement = DataSharingAgreement(_addr);\r\n\r\n        string[] memory consumers = agreement.notifyConsentRevoked(_dataOfferingId);\r\n\r\n        emit ConsentRevoked(consumers, _dataOfferingId, _consentSubjects);\r\n    }\r\n}\r\n"
    }
  },
  "settings": {
    "optimizer": {
      "enabled": true,
      "runs": 500
    },
    "outputSelection": {
      "*": {
        "*": [
          "abi",
          "evm.bytecode",
          "evm.deployedBytecode",
          "evm.methodIdentifiers",
          "metadata",
          "devdoc",
          "userdoc",
          "storageLayout",
          "evm.gasEstimates"
        ],
        "": [
          "ast"
        ]
      }
    },
    "metadata": {
      "useLiteralContent": true
    }
  }
}