{
  "language": "Solidity",
  "sources": {
    "contracts/Agreement.sol": {
      "content": "// SPDX-License-Identifier: GPL-3.0\r\npragma solidity ^0.8.0;\r\n\r\nimport \"hardhat/console.sol\";\r\n\r\nenum State {\r\n    Created,\r\n    Active,\r\n    Updated,\r\n    Violated,\r\n    Terminated\r\n}\r\n\r\nstruct Agreement {\r\n    uint256 agreementId;\r\n    string providerPublicKey;\r\n    string consumerPublicKey;\r\n    string dataExchangeAgreementHash;\r\n    DataOffering dataOffering;\r\n    string purpose;\r\n    State state;\r\n    uint256[3] agreementDates;\r\n    Obligation obligation;\r\n    IntendedUse intendedUse;\r\n    LicenseGrant licenseGrant;\r\n    TypeOfData typeOfData;\r\n    PricingModel pricingModel;\r\n    Violation violation;\r\n}\r\n\r\nstruct TypeOfData {\r\n    bool dataStream;\r\n    bool personalData;\r\n}\r\n\r\nstruct DataOffering {\r\n    string dataOfferingId;\r\n    uint256 dataOfferingVersion;\r\n    string title;\r\n}\r\n\r\n  struct Obligation {\r\n    uint256 qualityOfData;\r\n    string characteristics;\r\n    bool dataAvailability;\r\n}\r\n\r\nstruct IntendedUse {\r\n    bool processData;\r\n    bool shareDataWithThirdParty;\r\n    bool editData;\r\n}\r\n\r\nstruct LicenseGrant {\r\n    bool copyData;\r\n    bool transferable;\r\n    bool exclusiveness;\r\n    bool revocable;\r\n}\r\n\r\nstruct PricingModel {\r\n    string paymentType;\r\n    uint256 price;\r\n    string currency;\r\n    uint256 fee;\r\n    PaymentOnSubscription paymentOnSubscription;\r\n    bool isFree;\r\n}\r\n\r\nstruct PaymentOnSubscription {\r\n    string timeDuration;\r\n    string repeat;\r\n}\r\n\r\nenum ViolationType {\r\n    NotViolated,\r\n    PaymentNotCompleted,\r\n    DataNotTransferredAsDescribed,\r\n    DataNotAsDescribed,\r\n    LicenseViolated\r\n}\r\n\r\nstruct Violation {\r\n    ViolationType violationType;\r\n    string issuerId;\r\n    string[3] penaltyChoices;\r\n    // string chosenPenalty; \r\n}\r\n\r\nstruct Counter {\r\n    uint256 activeAgreementCount;\r\n    mapping (string => uint) providerCount;\r\n    mapping (string => uint) providerActiveCount;\r\n    mapping (string => uint) consumerCount;\r\n    mapping (string => uint) consumerActiveCount;\r\n    mapping (string => uint) dataOfferingCount;\r\n}\r\n\r\nstruct SignedResolution {\r\n    string proofType;\r\n    string resolutionType;\r\n    string resolution;\r\n    string dataExchangeId;\r\n    uint256 iat;\r\n    string iss;\r\n    string sub;\r\n}\r\n\r\nlibrary AgreementViolationLibrary {\r\n\r\n    event PenaltyTerminate(string providerPublicKey, string consumerPublicKey, uint256 id);\r\n    event PenaltyNewEndDate(string providerPublicKey, string consumerPublicKey, uint256 id, uint256 newEndDate);\r\n    event PenaltyNewEndDateAndPricing(string providerPublicKey, string consumerPublicKey, uint256 id, uint256 newEndDate, uint256 price, uint256 fee);\r\n    event PenaltyChoices(string[3] penaltyChoices);\r\n\r\n    function evaluateResolution(\r\n        Agreement storage agreement,\r\n        string memory _proofType,\r\n        string memory _type,\r\n        string memory _resolution,\r\n        string memory _dataExchangeId,\r\n        uint256 _iat,\r\n        string memory _iss,\r\n        string memory _sub) public{ \r\n\r\n        SignedResolution memory signedResolution;\r\n        signedResolution.proofType = _proofType;\r\n        signedResolution.resolutionType = _type;\r\n        signedResolution.resolution = _resolution;\r\n        signedResolution.dataExchangeId = _dataExchangeId;\r\n        signedResolution.iat = _iat;\r\n        signedResolution.iss = _iss;   \r\n        signedResolution.sub = _sub;\r\n\r\n        if(keccak256(abi.encodePacked(signedResolution.resolution)) == keccak256(abi.encodePacked(\"completed\"))){\r\n            delete agreement.violation.penaltyChoices;   \r\n            agreement.state = State.Active;   \r\n        }\r\n        else if(keccak256(abi.encodePacked(signedResolution.resolution)) == keccak256(abi.encodePacked(\"notCompleted\"))) { \r\n                issueViolation(agreement, ViolationType.DataNotTransferredAsDescribed, signedResolution.sub); \r\n                agreement.state = State.Violated; \r\n        }\r\n        else if(keccak256(abi.encodePacked(signedResolution.resolution)) == keccak256(abi.encodePacked(\"accepted\"))){ \r\n                issueViolation(agreement, ViolationType.DataNotTransferredAsDescribed, signedResolution.sub); \r\n                agreement.state = State.Violated; \r\n             }\r\n        else if(keccak256(abi.encodePacked(signedResolution.resolution)) == keccak256(abi.encodePacked(\"denied\"))){\r\n                delete agreement.violation.penaltyChoices;  \r\n                agreement.state = State.Active; \r\n        }\r\n\r\n        emit PenaltyChoices(agreement.violation.penaltyChoices);\r\n    }\r\n\r\n    \r\n    function issueViolation(Agreement storage agreement, ViolationType _violationType, string memory _issuerId) private {\r\n        agreement.violation = Violation(_violationType, _issuerId, [\"Terminate\", \"NewEndDateForAgreement\", \"NewEndDateForAgreementAndReductionOfPayment\"]);\r\n    }\r\n\r\n     function getViolation(Agreement storage agreement) public view returns (Violation memory){\r\n        return agreement.violation;\r\n    }\r\n   \r\n    function enforcePenalty (Agreement storage agreement, string memory _chosenPenalty, uint256 _price, uint256 _fee, uint256 _newEndDate) public {\r\n        if(agreement.violation.violationType == ViolationType.DataNotTransferredAsDescribed){\r\n                if (keccak256(abi.encodePacked(_chosenPenalty)) == \"NewEndDateForAgreement\"){\r\n                    require(_newEndDate>block.timestamp, \"Date must be greaten than block.timestamp\");\r\n                    agreement.agreementDates[2] = _newEndDate;\r\n                    emit PenaltyNewEndDate(agreement.providerPublicKey, agreement.consumerPublicKey, agreement.agreementId, _newEndDate);\r\n                }\r\n                else if (keccak256(abi.encodePacked(_chosenPenalty)) == (keccak256(abi.encodePacked(\"NewEndDateForAgreementAndReductionOfPayment\")))){\r\n                    require(_newEndDate>block.timestamp, \"Date must be greaten than block.timestamp\");\r\n                    agreement.agreementDates[2] = _newEndDate;\r\n                    agreement.pricingModel.price = _price;\r\n                    agreement.pricingModel.fee = _fee;\r\n                    emit PenaltyNewEndDateAndPricing(agreement.providerPublicKey, agreement.consumerPublicKey, agreement.agreementId, _newEndDate,_price, _fee);\r\n                }\r\n            agreement.state = State.Active;\r\n        }    \r\n\r\n    }\r\n}\r\n    \r\nlibrary AgreementLib {\r\n\r\n    event AgreementTerminated(string providerPublicKey, string consumerPublicKey,uint256 id);\r\n\r\n    function createAgreement(\r\n        string memory _providerPublicKey,\r\n        string memory _consumerPublicKey,\r\n        string memory _dataExchangeAgreementHash,\r\n        DataOffering memory dataOffering,\r\n        string memory _purpose,\r\n        uint256[] memory dates,\r\n        Obligation memory obligation,\r\n        IntendedUse memory intendedUse,\r\n        LicenseGrant memory licenseGrant,\r\n        PricingModel memory pricingModel,\r\n        TypeOfData memory typeOfData,\r\n        Counter storage counter\r\n    ) internal returns (Agreement memory agreement)\r\n    {\r\n        agreement.providerPublicKey = _providerPublicKey;\r\n        agreement.consumerPublicKey = _consumerPublicKey;\r\n        agreement.dataExchangeAgreementHash = _dataExchangeAgreementHash;\r\n        agreement.dataOffering.dataOfferingId = dataOffering.dataOfferingId;\r\n        agreement.dataOffering.dataOfferingVersion = dataOffering.dataOfferingVersion;\r\n        agreement.dataOffering.title = dataOffering.title;\r\n        agreement.purpose = _purpose;\r\n\r\n        agreement.state = State.Created;\r\n        agreement.agreementDates[0] = dates[0];\r\n        agreement.agreementDates[1] = dates[1];\r\n\r\n        require(\r\n            dates[1] >= agreement.agreementDates[0],\r\n            \"Start date must be after creation date.\"\r\n        );\r\n        require(dates[2] > dates[1], \"End date must be after start date.\");\r\n        agreement.agreementDates[2] = dates[2];\r\n        agreement.obligation = obligation;\r\n        agreement.intendedUse = intendedUse;\r\n        agreement.licenseGrant = licenseGrant;\r\n        agreement.pricingModel = pricingModel;\r\n\r\n        agreement.typeOfData.dataStream = typeOfData.dataStream;\r\n        agreement.typeOfData.personalData = typeOfData.personalData;\r\n\r\n        counter.providerCount[_providerPublicKey]++;\r\n        counter.consumerCount[_consumerPublicKey]++; \r\n        counter.dataOfferingCount[dataOffering.dataOfferingId]++;\r\n    \r\n    }\r\n\r\n    function signAgreement(Agreement[] storage agreements, uint256 _id, string memory _consumerPublicKey, Counter storage counter) public {\r\n        \r\n        require (keccak256(abi.encodePacked(agreements[_id].consumerPublicKey)) == keccak256(abi.encodePacked(_consumerPublicKey)), \"Not the consumer of agreement.\" );\r\n\r\n        if(agreements[_id].agreementDates[2]>=block.timestamp) {\r\n            agreements[_id].state = State.Active;\r\n            counter.activeAgreementCount += 1;\r\n            counter.providerActiveCount[agreements[_id].providerPublicKey]++;\r\n            counter.consumerActiveCount[_consumerPublicKey]++;\r\n        }\r\n    }\r\n\r\n    function updateAgreement(Agreement storage agreement,\r\n                            string memory _providerPublicKey,\r\n                            string memory _consumerPublicKey,\r\n                            string memory _dataOfferingId,\r\n                            string memory _purpose,\r\n                            uint256[] memory dates,   \r\n                            Obligation memory obligation,\r\n                            IntendedUse memory intendedUse,\r\n                            LicenseGrant memory licenseGrant,\r\n                            TypeOfData memory typeOfData,\r\n                            Counter storage counter) public {\r\n\r\n        require (keccak256(abi.encodePacked(agreement.providerPublicKey)) == keccak256(abi.encodePacked(_providerPublicKey)), \"Not the provider of the agreement\" ); \r\n        \r\n        if(agreement.state == State.Active)\r\n        {\r\n            agreement.purpose = _purpose;\r\n            agreement.agreementDates[1] = dates[0];\r\n     \r\n            require ( dates[0] >= agreement.agreementDates[0], \"Start date must be after creation date.\" );\r\n            require ( dates[1] > dates[0], \"End date must be after start date.\" );\r\n            agreement.agreementDates[2] = dates[1];\r\n\r\n            agreement.obligation = obligation;\r\n            agreement.intendedUse = intendedUse;\r\n            agreement.licenseGrant = licenseGrant;\r\n            agreement.state = State.Updated;\r\n\r\n            counter.activeAgreementCount--;\r\n            counter.providerActiveCount[_providerPublicKey]--;\r\n            counter.consumerActiveCount[_consumerPublicKey]--;\r\n\r\n        }\r\n    }\r\n\r\n    function terminateAgreement(Agreement storage agreement, string memory _chosenPenalty, Counter storage counter) public {\r\n        if(agreement.agreementDates[2]<=block.timestamp || keccak256(abi.encodePacked(_chosenPenalty)) == keccak256(abi.encodePacked(\"Terminate\"))){\r\n            if(agreement.state == State.Active){\r\n                counter.activeAgreementCount--;\r\n                counter.providerCount[agreement.providerPublicKey]--;\r\n                counter.consumerActiveCount[agreement.consumerPublicKey]--;\r\n            }     \r\n            agreement.state = State.Terminated;\r\n            emit AgreementTerminated(agreement.providerPublicKey, agreement.consumerPublicKey, agreement.agreementId);\r\n        }\r\n    }\r\n\r\n    \r\n}\r\n\r\nlibrary RetrieveAgreementsLibrary {\r\n\r\n    function checkActiveAgreements (Agreement[] storage agreements, Counter storage counter) external view returns (Agreement[] memory) {\r\n        Agreement[] memory activeAgreements = new Agreement[](counter.activeAgreementCount); \r\n        uint k = 0;\r\n        for (uint i = 0; i < agreements.length; i++){\r\n            if(agreements[i].state == State.Active) {   \r\n                activeAgreements[k++] = agreements[i];\r\n            }\r\n        }\r\n        return activeAgreements;\r\n    }\r\n\r\n    \r\n    function checkAgreementsByConsumer(Agreement[] storage agreements, string memory _consumerPublicKey, bool active, Counter storage counter) external view returns (Agreement[] memory) {\r\n        uint256 k = 0;\r\n        Agreement[] memory consumerAgreements;\r\n        if(active) {\r\n            consumerAgreements = new Agreement[](counter.consumerActiveCount[_consumerPublicKey]); \r\n            for (uint i = 0; i < agreements.length; i++)\r\n                if (agreements[i].state == State.Active && keccak256(abi.encodePacked(agreements[i].consumerPublicKey)) == keccak256(abi.encodePacked(_consumerPublicKey))){\r\n                    consumerAgreements[k++] = agreements[i];\r\n                }  \r\n        }\r\n        else {\r\n            consumerAgreements = new Agreement[](counter.consumerCount[_consumerPublicKey]);\r\n            for (uint i = 0; i < agreements.length; i++)\r\n                if (keccak256(abi.encodePacked(agreements[i].consumerPublicKey)) == keccak256(abi.encodePacked(_consumerPublicKey))){\r\n                    consumerAgreements[k++] = agreements[i];\r\n                }\r\n        }\r\n        return consumerAgreements;\r\n    }\r\n\r\n    function checkAgreementsByProvider (Agreement[] storage agreements, string memory _providerPublicKey, bool active, Counter storage counter) external view returns (Agreement[] memory) {\r\n        uint256 k = 0;\r\n        Agreement[] memory providerAgreements;\r\n        if(active) {\r\n            providerAgreements = new Agreement[](counter.providerActiveCount[_providerPublicKey]);\r\n            for (uint i = 0; i < agreements.length; i++)\r\n                if (agreements[i].state == State.Active && keccak256(abi.encodePacked(agreements[i].providerPublicKey)) == keccak256(abi.encodePacked(_providerPublicKey))){\r\n                    providerAgreements[k++] = agreements[i];\r\n                }  \r\n        }\r\n        else {\r\n            providerAgreements = new Agreement[](counter.providerCount[_providerPublicKey]);\r\n            for (uint i = 0; i < agreements.length; i++)\r\n                if (keccak256(abi.encodePacked(agreements[i].providerPublicKey)) == keccak256(abi.encodePacked(_providerPublicKey))){\r\n                    providerAgreements[k++] = agreements[i];\r\n                }\r\n        }\r\n        return providerAgreements;\r\n    }\r\n\r\n\r\n    function checkAgreementsByDataOffering (Agreement[] storage agreements, string memory _dataOffering, Counter storage counter) external view returns (Agreement[] memory) {\r\n        Agreement[] memory dataOfferingAgreements = new Agreement[](counter.dataOfferingCount[_dataOffering]);\r\n        uint k = 0;\r\n        for (uint i = 0; i < agreements.length; i++){\r\n            if (keccak256(abi.encodePacked(agreements[i].dataOffering.dataOfferingId)) == keccak256(abi.encodePacked(_dataOffering))) {\r\n                dataOfferingAgreements[k++] = agreements[i];\r\n            }\r\n        }\r\n        return dataOfferingAgreements;\r\n    }\r\n\r\n      \r\n    function retrieveAgreements (Agreement[] storage agreements, string memory _consumerPublicKey, Counter storage counter) external view returns (Agreement[] memory, uint256 k) {\r\n\r\n        Agreement[] memory consumerPublicKeyAgreements = new Agreement[](counter.consumerActiveCount[_consumerPublicKey]);\r\n     \r\n        for (uint i = 0; i < agreements.length; i++){\r\n            if (agreements[i].state == State.Active && agreements[i].agreementDates[1]<=block.timestamp && keccak256(abi.encodePacked(agreements[i].consumerPublicKey)) == keccak256(abi.encodePacked(_consumerPublicKey))) {\r\n                consumerPublicKeyAgreements[k++] = agreements[i];\r\n            }\r\n        }\r\n        return (consumerPublicKeyAgreements, k);\r\n    }\r\n}\r\n\r\ncontract DataSharingAgreement {\r\n\r\n    using AgreementLib for Agreement;\r\n\r\n    using AgreementLib for Counter;\r\n    \r\n    using RetrieveAgreementsLibrary for Agreement;\r\n    \r\n    using AgreementViolationLibrary for Agreement;\r\n\r\n    Counter counter;\r\n\r\n    Agreement[] public agreements;\r\n\r\n    mapping(uint256 => string[]) agreementIdToPenalties;   \r\n\r\n    event AgreementCreated(string providerPublicKey, string consumerPublicKey, uint256 id);\r\n    event AgreementUpdated(string providerPublicKey, string consumerPublicKey, uint256 id);\r\n    event AgreementSigned(string providerPublicKey, string consumerPublicKey, uint256 id);\r\n    event SignedResolutionEvaluated(string providerPublicKey, string consumerPublicKey, uint256 id, string[] penalties);\r\n    event ConsentRevoked(string consumerPublicKey); \r\n\r\n    function createAgreement(\r\n        string memory _providerPublicKey,\r\n        string memory _consumerPublicKey,\r\n        string memory _dataExchangeAgreementHash,\r\n        DataOffering memory dataOffering,\r\n        string memory _purpose,\r\n        uint256[] memory dates,\r\n        Obligation memory obligation,\r\n        IntendedUse memory intendedUse,\r\n        LicenseGrant memory licenseGrant,\r\n        PricingModel memory pricingModel,\r\n        TypeOfData memory typeOfData\r\n    ) public {\r\n        Agreement memory agreement = AgreementLib.createAgreement(\r\n            _providerPublicKey,\r\n            _consumerPublicKey,\r\n            _dataExchangeAgreementHash,\r\n            dataOffering,\r\n            _purpose,\r\n            dates,\r\n            obligation,\r\n            intendedUse,\r\n            licenseGrant,\r\n            pricingModel,\r\n            typeOfData,\r\n            counter\r\n        );\r\n        agreement.agreementId = agreements.length;\r\n        agreements.push(agreement);\r\n        emit AgreementCreated(_providerPublicKey, _consumerPublicKey, agreements.length - 1);\r\n    }\r\n\r\n    function signAgreement(uint256 _id, string memory _consumerPublicKey) public {\r\n       AgreementLib.signAgreement(agreements, _id, _consumerPublicKey, counter);\r\n       emit AgreementSigned(agreements[_id].providerPublicKey, _consumerPublicKey, _id);\r\n    }\r\n\r\n     function updateAgreement(uint256 _id,\r\n                            string memory _providerPublicKey,\r\n                            string memory _consumerPublicKey,\r\n                            string memory _dataOfferingId,\r\n                            string memory _purpose,\r\n                            uint256[] memory dates,\r\n                            Obligation memory obligation,\r\n                            IntendedUse memory intendedUse,\r\n                            LicenseGrant memory licenseGrant,\r\n                            TypeOfData memory typeOfData) public {\r\n\r\n        AgreementLib.updateAgreement(agreements[_id], _providerPublicKey, _consumerPublicKey, _dataOfferingId, _purpose,\r\n                            dates, obligation, intendedUse, licenseGrant, typeOfData, counter);    \r\n        emit AgreementUpdated(_providerPublicKey, _consumerPublicKey, _id);\r\n                            \r\n    }\r\n\r\n    function getAgreement(uint256 id) public view returns (Agreement memory) {\r\n        return agreements[id];\r\n    }\r\n\r\n    function getAgreementsLength() public view returns (uint256) {\r\n        return agreements.length;\r\n    } \r\n\r\n    function getState(uint256 id) public view returns (State) {\r\n        return agreements[id].state;\r\n    } \r\n\r\n    function checkActiveAgreements() public view returns(Agreement[] memory) {\r\n        Agreement[] memory activeAgreements = RetrieveAgreementsLibrary.checkActiveAgreements(agreements, counter);\r\n        return activeAgreements;\r\n    }\r\n\r\n    function checkAgreementsByProvider(string memory _providerPublicKey, bool active) public view returns(Agreement[] memory) {\r\n        Agreement[] memory agreementsByProvider = RetrieveAgreementsLibrary.checkAgreementsByProvider(agreements, _providerPublicKey, active, counter);\r\n        return agreementsByProvider;\r\n    }\r\n\r\n    function checkAgreementsByConsumer(string memory _consumerPublicKey, bool active) public view returns(Agreement[] memory) {\r\n        Agreement[] memory agreementsByConsumer = RetrieveAgreementsLibrary.checkAgreementsByConsumer(agreements,_consumerPublicKey, active, counter);\r\n        return agreementsByConsumer;\r\n    }\r\n\r\n     function checkAgreementsByDataOffering(string memory _dataOfferingId) public view returns(Agreement[] memory) {\r\n        Agreement[] memory agreementsByDataOffering = RetrieveAgreementsLibrary.checkAgreementsByDataOffering(agreements,_dataOfferingId, counter);\r\n        return agreementsByDataOffering;\r\n    }\r\n\r\n    function retrieveAgreements(string memory _consumerPublicKey) external view returns (Agreement[] memory, uint256 k) {\r\n        return RetrieveAgreementsLibrary.retrieveAgreements(agreements,_consumerPublicKey, counter);\r\n    }\r\n\r\n    function evaluateSignedResolution(uint256 _agreementId, string memory _proofType, string memory _type, string memory _resolution,\r\n                                string memory _dataExchangeId, uint256 _iat, string memory _iss, string memory _sub) public{ \r\n\r\n      AgreementViolationLibrary.evaluateResolution(agreements[_agreementId], _proofType, _type, _resolution, _dataExchangeId, _iat, _iss, _sub);\r\n\t}\r\n\r\n    function retrievePricingModel(uint256 _agreementId) public view returns (PricingModel memory){\r\n        return agreements[_agreementId].pricingModel;\r\n    }\r\n\r\n    function terminateAgreement(uint256 _agreementId, string memory _chosenPenalty) public{ \r\n      AgreementLib.terminateAgreement(agreements[_agreementId],_chosenPenalty, counter);\r\n\t}\r\n\r\n    function enforcePenalty ( uint256 _id, string memory _chosenPenalty, uint256 _price, uint256 _fee, uint256 _newEndDate) public {\r\n        require((agreements[_id].state == State.Violated), \"Agreement must be violated in order to enforce penalty\");\r\n        if(keccak256(abi.encodePacked(_chosenPenalty)) == keccak256(abi.encodePacked(\"Terminate\"))){\r\n            terminateAgreement(_id, _chosenPenalty);\r\n        }\r\n        else{\r\n            AgreementViolationLibrary.enforcePenalty (agreements[_id], _chosenPenalty, _price, _fee, _newEndDate);\r\n        }\r\n    }\r\n\r\n    function notifyConsentRevoked( string memory _dataOfferingId) public view returns (string[] memory) {    \r\n        string[] memory consumers = new string[](counter.dataOfferingCount[_dataOfferingId]); \r\n        uint256 k = 0; \r\n        for (uint i = 0; i < agreements.length; i++){\r\n            if (keccak256(abi.encodePacked(agreements[i].dataOffering.dataOfferingId)) == keccak256(abi.encodePacked(_dataOfferingId))) {\r\n                consumers[k++]=agreements[i].consumerPublicKey; \r\n            }\r\n        }\r\n        return consumers;\r\n    }\r\n\r\n   \r\n\r\n}\r\n"
    },
    "hardhat/console.sol": {
      "content": "// SPDX-License-Identifier: MIT\npragma solidity >= 0.4.22 <0.9.0;\n\nlibrary console {\n\taddress constant CONSOLE_ADDRESS = address(0x000000000000000000636F6e736F6c652e6c6f67);\n\n\tfunction _sendLogPayload(bytes memory payload) private view {\n\t\tuint256 payloadLength = payload.length;\n\t\taddress consoleAddress = CONSOLE_ADDRESS;\n\t\tassembly {\n\t\t\tlet payloadStart := add(payload, 32)\n\t\t\tlet r := staticcall(gas(), consoleAddress, payloadStart, payloadLength, 0, 0)\n\t\t}\n\t}\n\n\tfunction log() internal view {\n\t\t_sendLogPayload(abi.encodeWithSignature(\"log()\"));\n\t}\n\n\tfunction logInt(int p0) internal view {\n\t\t_sendLogPayload(abi.encodeWithSignature(\"log(int)\", p0));\n\t}\n\n\tfunction logUint(uint p0) internal view {\n\t\t_sendLogPayload(abi.encodeWithSignature(\"log(uint)\", p0));\n\t}\n\n\tfunction logString(string memory p0) internal view {\n\t\t_sendLogPayload(abi.encodeWithSignature(\"log(string)\", p0));\n\t}\n\n\tfunction logBool(bool p0) internal view {\n\t\t_sendLogPayload(abi.encodeWithSignature(\"log(bool)\", p0));\n\t}\n\n\tfunction logAddress(address p0) internal view {\n\t\t_sendLogPayload(abi.encodeWithSignature(\"log(address)\", p0));\n\t}\n\n\tfunction logBytes(bytes memory p0) internal view {\n\t\t_sendLogPayload(abi.encodeWithSignature(\"log(bytes)\", p0));\n\t}\n\n\tfunction logBytes1(bytes1 p0) internal view {\n\t\t_sendLogPayload(abi.encodeWithSignature(\"log(bytes1)\", p0));\n\t}\n\n\tfunction logBytes2(bytes2 p0) internal view {\n\t\t_sendLogPayload(abi.encodeWithSignature(\"log(bytes2)\", p0));\n\t}\n\n\tfunction logBytes3(bytes3 p0) internal view {\n\t\t_sendLogPayload(abi.encodeWithSignature(\"log(bytes3)\", p0));\n\t}\n\n\tfunction logBytes4(bytes4 p0) internal view {\n\t\t_sendLogPayload(abi.encodeWithSignature(\"log(bytes4)\", p0));\n\t}\n\n\tfunction logBytes5(bytes5 p0) internal view {\n\t\t_sendLogPayload(abi.encodeWithSignature(\"log(bytes5)\", p0));\n\t}\n\n\tfunction logBytes6(bytes6 p0) internal view {\n\t\t_sendLogPayload(abi.encodeWithSignature(\"log(bytes6)\", p0));\n\t}\n\n\tfunction logBytes7(bytes7 p0) internal view {\n\t\t_sendLogPayload(abi.encodeWithSignature(\"log(bytes7)\", p0));\n\t}\n\n\tfunction logBytes8(bytes8 p0) internal view {\n\t\t_sendLogPayload(abi.encodeWithSignature(\"log(bytes8)\", p0));\n\t}\n\n\tfunction logBytes9(bytes9 p0) internal view {\n\t\t_sendLogPayload(abi.encodeWithSignature(\"log(bytes9)\", p0));\n\t}\n\n\tfunction logBytes10(bytes10 p0) internal view {\n\t\t_sendLogPayload(abi.encodeWithSignature(\"log(bytes10)\", p0));\n\t}\n\n\tfunction logBytes11(bytes11 p0) internal view {\n\t\t_sendLogPayload(abi.encodeWithSignature(\"log(bytes11)\", p0));\n\t}\n\n\tfunction logBytes12(bytes12 p0) internal view {\n\t\t_sendLogPayload(abi.encodeWithSignature(\"log(bytes12)\", p0));\n\t}\n\n\tfunction logBytes13(bytes13 p0) internal view {\n\t\t_sendLogPayload(abi.encodeWithSignature(\"log(bytes13)\", p0));\n\t}\n\n\tfunction logBytes14(bytes14 p0) internal view {\n\t\t_sendLogPayload(abi.encodeWithSignature(\"log(bytes14)\", p0));\n\t}\n\n\tfunction logBytes15(bytes15 p0) internal view {\n\t\t_sendLogPayload(abi.encodeWithSignature(\"log(bytes15)\", p0));\n\t}\n\n\tfunction logBytes16(bytes16 p0) internal view {\n\t\t_sendLogPayload(abi.encodeWithSignature(\"log(bytes16)\", p0));\n\t}\n\n\tfunction logBytes17(bytes17 p0) internal view {\n\t\t_sendLogPayload(abi.encodeWithSignature(\"log(bytes17)\", p0));\n\t}\n\n\tfunction logBytes18(bytes18 p0) internal view {\n\t\t_sendLogPayload(abi.encodeWithSignature(\"log(bytes18)\", p0));\n\t}\n\n\tfunction logBytes19(bytes19 p0) internal view {\n\t\t_sendLogPayload(abi.encodeWithSignature(\"log(bytes19)\", p0));\n\t}\n\n\tfunction logBytes20(bytes20 p0) internal view {\n\t\t_sendLogPayload(abi.encodeWithSignature(\"log(bytes20)\", p0));\n\t}\n\n\tfunction logBytes21(bytes21 p0) internal view {\n\t\t_sendLogPayload(abi.encodeWithSignature(\"log(bytes21)\", p0));\n\t}\n\n\tfunction logBytes22(bytes22 p0) internal view {\n\t\t_sendLogPayload(abi.encodeWithSignature(\"log(bytes22)\", p0));\n\t}\n\n\tfunction logBytes23(bytes23 p0) internal view {\n\t\t_sendLogPayload(abi.encodeWithSignature(\"log(bytes23)\", p0));\n\t}\n\n\tfunction logBytes24(bytes24 p0) internal view {\n\t\t_sendLogPayload(abi.encodeWithSignature(\"log(bytes24)\", p0));\n\t}\n\n\tfunction logBytes25(bytes25 p0) internal view {\n\t\t_sendLogPayload(abi.encodeWithSignature(\"log(bytes25)\", p0));\n\t}\n\n\tfunction logBytes26(bytes26 p0) internal view {\n\t\t_sendLogPayload(abi.encodeWithSignature(\"log(bytes26)\", p0));\n\t}\n\n\tfunction logBytes27(bytes27 p0) internal view {\n\t\t_sendLogPayload(abi.encodeWithSignature(\"log(bytes27)\", p0));\n\t}\n\n\tfunction logBytes28(bytes28 p0) internal view {\n\t\t_sendLogPayload(abi.encodeWithSignature(\"log(bytes28)\", p0));\n\t}\n\n\tfunction logBytes29(bytes29 p0) internal view {\n\t\t_sendLogPayload(abi.encodeWithSignature(\"log(bytes29)\", p0));\n\t}\n\n\tfunction logBytes30(bytes30 p0) internal view {\n\t\t_sendLogPayload(abi.encodeWithSignature(\"log(bytes30)\", p0));\n\t}\n\n\tfunction logBytes31(bytes31 p0) internal view {\n\t\t_sendLogPayload(abi.encodeWithSignature(\"log(bytes31)\", p0));\n\t}\n\n\tfunction logBytes32(bytes32 p0) internal view {\n\t\t_sendLogPayload(abi.encodeWithSignature(\"log(bytes32)\", p0));\n\t}\n\n\tfunction log(uint p0) internal view {\n\t\t_sendLogPayload(abi.encodeWithSignature(\"log(uint)\", p0));\n\t}\n\n\tfunction log(string memory p0) internal view {\n\t\t_sendLogPayload(abi.encodeWithSignature(\"log(string)\", p0));\n\t}\n\n\tfunction log(bool p0) internal view {\n\t\t_sendLogPayload(abi.encodeWithSignature(\"log(bool)\", p0));\n\t}\n\n\tfunction log(address p0) internal view {\n\t\t_sendLogPayload(abi.encodeWithSignature(\"log(address)\", p0));\n\t}\n\n\tfunction log(uint p0, uint p1) internal view {\n\t\t_sendLogPayload(abi.encodeWithSignature(\"log(uint,uint)\", p0, p1));\n\t}\n\n\tfunction log(uint p0, string memory p1) internal view {\n\t\t_sendLogPayload(abi.encodeWithSignature(\"log(uint,string)\", p0, p1));\n\t}\n\n\tfunction log(uint p0, bool p1) internal view {\n\t\t_sendLogPayload(abi.encodeWithSignature(\"log(uint,bool)\", p0, p1));\n\t}\n\n\tfunction log(uint p0, address p1) internal view {\n\t\t_sendLogPayload(abi.encodeWithSignature(\"log(uint,address)\", p0, p1));\n\t}\n\n\tfunction log(string memory p0, uint p1) internal view {\n\t\t_sendLogPayload(abi.encodeWithSignature(\"log(string,uint)\", p0, p1));\n\t}\n\n\tfunction log(string memory p0, string memory p1) internal view {\n\t\t_sendLogPayload(abi.encodeWithSignature(\"log(string,string)\", p0, p1));\n\t}\n\n\tfunction log(string memory p0, bool p1) internal view {\n\t\t_sendLogPayload(abi.encodeWithSignature(\"log(string,bool)\", p0, p1));\n\t}\n\n\tfunction log(string memory p0, address p1) internal view {\n\t\t_sendLogPayload(abi.encodeWithSignature(\"log(string,address)\", p0, p1));\n\t}\n\n\tfunction log(bool p0, uint p1) internal view {\n\t\t_sendLogPayload(abi.encodeWithSignature(\"log(bool,uint)\", p0, p1));\n\t}\n\n\tfunction log(bool p0, string memory p1) internal view {\n\t\t_sendLogPayload(abi.encodeWithSignature(\"log(bool,string)\", p0, p1));\n\t}\n\n\tfunction log(bool p0, bool p1) internal view {\n\t\t_sendLogPayload(abi.encodeWithSignature(\"log(bool,bool)\", p0, p1));\n\t}\n\n\tfunction log(bool p0, address p1) internal view {\n\t\t_sendLogPayload(abi.encodeWithSignature(\"log(bool,address)\", p0, p1));\n\t}\n\n\tfunction log(address p0, uint p1) internal view {\n\t\t_sendLogPayload(abi.encodeWithSignature(\"log(address,uint)\", p0, p1));\n\t}\n\n\tfunction log(address p0, string memory p1) internal view {\n\t\t_sendLogPayload(abi.encodeWithSignature(\"log(address,string)\", p0, p1));\n\t}\n\n\tfunction log(address p0, bool p1) internal view {\n\t\t_sendLogPayload(abi.encodeWithSignature(\"log(address,bool)\", p0, p1));\n\t}\n\n\tfunction log(address p0, address p1) internal view {\n\t\t_sendLogPayload(abi.encodeWithSignature(\"log(address,address)\", p0, p1));\n\t}\n\n\tfunction log(uint p0, uint p1, uint p2) internal view {\n\t\t_sendLogPayload(abi.encodeWithSignature(\"log(uint,uint,uint)\", p0, p1, p2));\n\t}\n\n\tfunction log(uint p0, uint p1, string memory p2) internal view {\n\t\t_sendLogPayload(abi.encodeWithSignature(\"log(uint,uint,string)\", p0, p1, p2));\n\t}\n\n\tfunction log(uint p0, uint p1, bool p2) internal view {\n\t\t_sendLogPayload(abi.encodeWithSignature(\"log(uint,uint,bool)\", p0, p1, p2));\n\t}\n\n\tfunction log(uint p0, uint p1, address p2) internal view {\n\t\t_sendLogPayload(abi.encodeWithSignature(\"log(uint,uint,address)\", p0, p1, p2));\n\t}\n\n\tfunction log(uint p0, string memory p1, uint p2) internal view {\n\t\t_sendLogPayload(abi.encodeWithSignature(\"log(uint,string,uint)\", p0, p1, p2));\n\t}\n\n\tfunction log(uint p0, string memory p1, string memory p2) internal view {\n\t\t_sendLogPayload(abi.encodeWithSignature(\"log(uint,string,string)\", p0, p1, p2));\n\t}\n\n\tfunction log(uint p0, string memory p1, bool p2) internal view {\n\t\t_sendLogPayload(abi.encodeWithSignature(\"log(uint,string,bool)\", p0, p1, p2));\n\t}\n\n\tfunction log(uint p0, string memory p1, address p2) internal view {\n\t\t_sendLogPayload(abi.encodeWithSignature(\"log(uint,string,address)\", p0, p1, p2));\n\t}\n\n\tfunction log(uint p0, bool p1, uint p2) internal view {\n\t\t_sendLogPayload(abi.encodeWithSignature(\"log(uint,bool,uint)\", p0, p1, p2));\n\t}\n\n\tfunction log(uint p0, bool p1, string memory p2) internal view {\n\t\t_sendLogPayload(abi.encodeWithSignature(\"log(uint,bool,string)\", p0, p1, p2));\n\t}\n\n\tfunction log(uint p0, bool p1, bool p2) internal view {\n\t\t_sendLogPayload(abi.encodeWithSignature(\"log(uint,bool,bool)\", p0, p1, p2));\n\t}\n\n\tfunction log(uint p0, bool p1, address p2) internal view {\n\t\t_sendLogPayload(abi.encodeWithSignature(\"log(uint,bool,address)\", p0, p1, p2));\n\t}\n\n\tfunction log(uint p0, address p1, uint p2) internal view {\n\t\t_sendLogPayload(abi.encodeWithSignature(\"log(uint,address,uint)\", p0, p1, p2));\n\t}\n\n\tfunction log(uint p0, address p1, string memory p2) internal view {\n\t\t_sendLogPayload(abi.encodeWithSignature(\"log(uint,address,string)\", p0, p1, p2));\n\t}\n\n\tfunction log(uint p0, address p1, bool p2) internal view {\n\t\t_sendLogPayload(abi.encodeWithSignature(\"log(uint,address,bool)\", p0, p1, p2));\n\t}\n\n\tfunction log(uint p0, address p1, address p2) internal view {\n\t\t_sendLogPayload(abi.encodeWithSignature(\"log(uint,address,address)\", p0, p1, p2));\n\t}\n\n\tfunction log(string memory p0, uint p1, uint p2) internal view {\n\t\t_sendLogPayload(abi.encodeWithSignature(\"log(string,uint,uint)\", p0, p1, p2));\n\t}\n\n\tfunction log(string memory p0, uint p1, string memory p2) internal view {\n\t\t_sendLogPayload(abi.encodeWithSignature(\"log(string,uint,string)\", p0, p1, p2));\n\t}\n\n\tfunction log(string memory p0, uint p1, bool p2) internal view {\n\t\t_sendLogPayload(abi.encodeWithSignature(\"log(string,uint,bool)\", p0, p1, p2));\n\t}\n\n\tfunction log(string memory p0, uint p1, address p2) internal view {\n\t\t_sendLogPayload(abi.encodeWithSignature(\"log(string,uint,address)\", p0, p1, p2));\n\t}\n\n\tfunction log(string memory p0, string memory p1, uint p2) internal view {\n\t\t_sendLogPayload(abi.encodeWithSignature(\"log(string,string,uint)\", p0, p1, p2));\n\t}\n\n\tfunction log(string memory p0, string memory p1, string memory p2) internal view {\n\t\t_sendLogPayload(abi.encodeWithSignature(\"log(string,string,string)\", p0, p1, p2));\n\t}\n\n\tfunction log(string memory p0, string memory p1, bool p2) internal view {\n\t\t_sendLogPayload(abi.encodeWithSignature(\"log(string,string,bool)\", p0, p1, p2));\n\t}\n\n\tfunction log(string memory p0, string memory p1, address p2) internal view {\n\t\t_sendLogPayload(abi.encodeWithSignature(\"log(string,string,address)\", p0, p1, p2));\n\t}\n\n\tfunction log(string memory p0, bool p1, uint p2) internal view {\n\t\t_sendLogPayload(abi.encodeWithSignature(\"log(string,bool,uint)\", p0, p1, p2));\n\t}\n\n\tfunction log(string memory p0, bool p1, string memory p2) internal view {\n\t\t_sendLogPayload(abi.encodeWithSignature(\"log(string,bool,string)\", p0, p1, p2));\n\t}\n\n\tfunction log(string memory p0, bool p1, bool p2) internal view {\n\t\t_sendLogPayload(abi.encodeWithSignature(\"log(string,bool,bool)\", p0, p1, p2));\n\t}\n\n\tfunction log(string memory p0, bool p1, address p2) internal view {\n\t\t_sendLogPayload(abi.encodeWithSignature(\"log(string,bool,address)\", p0, p1, p2));\n\t}\n\n\tfunction log(string memory p0, address p1, uint p2) internal view {\n\t\t_sendLogPayload(abi.encodeWithSignature(\"log(string,address,uint)\", p0, p1, p2));\n\t}\n\n\tfunction log(string memory p0, address p1, string memory p2) internal view {\n\t\t_sendLogPayload(abi.encodeWithSignature(\"log(string,address,string)\", p0, p1, p2));\n\t}\n\n\tfunction log(string memory p0, address p1, bool p2) internal view {\n\t\t_sendLogPayload(abi.encodeWithSignature(\"log(string,address,bool)\", p0, p1, p2));\n\t}\n\n\tfunction log(string memory p0, address p1, address p2) internal view {\n\t\t_sendLogPayload(abi.encodeWithSignature(\"log(string,address,address)\", p0, p1, p2));\n\t}\n\n\tfunction log(bool p0, uint p1, uint p2) internal view {\n\t\t_sendLogPayload(abi.encodeWithSignature(\"log(bool,uint,uint)\", p0, p1, p2));\n\t}\n\n\tfunction log(bool p0, uint p1, string memory p2) internal view {\n\t\t_sendLogPayload(abi.encodeWithSignature(\"log(bool,uint,string)\", p0, p1, p2));\n\t}\n\n\tfunction log(bool p0, uint p1, bool p2) internal view {\n\t\t_sendLogPayload(abi.encodeWithSignature(\"log(bool,uint,bool)\", p0, p1, p2));\n\t}\n\n\tfunction log(bool p0, uint p1, address p2) internal view {\n\t\t_sendLogPayload(abi.encodeWithSignature(\"log(bool,uint,address)\", p0, p1, p2));\n\t}\n\n\tfunction log(bool p0, string memory p1, uint p2) internal view {\n\t\t_sendLogPayload(abi.encodeWithSignature(\"log(bool,string,uint)\", p0, p1, p2));\n\t}\n\n\tfunction log(bool p0, string memory p1, string memory p2) internal view {\n\t\t_sendLogPayload(abi.encodeWithSignature(\"log(bool,string,string)\", p0, p1, p2));\n\t}\n\n\tfunction log(bool p0, string memory p1, bool p2) internal view {\n\t\t_sendLogPayload(abi.encodeWithSignature(\"log(bool,string,bool)\", p0, p1, p2));\n\t}\n\n\tfunction log(bool p0, string memory p1, address p2) internal view {\n\t\t_sendLogPayload(abi.encodeWithSignature(\"log(bool,string,address)\", p0, p1, p2));\n\t}\n\n\tfunction log(bool p0, bool p1, uint p2) internal view {\n\t\t_sendLogPayload(abi.encodeWithSignature(\"log(bool,bool,uint)\", p0, p1, p2));\n\t}\n\n\tfunction log(bool p0, bool p1, string memory p2) internal view {\n\t\t_sendLogPayload(abi.encodeWithSignature(\"log(bool,bool,string)\", p0, p1, p2));\n\t}\n\n\tfunction log(bool p0, bool p1, bool p2) internal view {\n\t\t_sendLogPayload(abi.encodeWithSignature(\"log(bool,bool,bool)\", p0, p1, p2));\n\t}\n\n\tfunction log(bool p0, bool p1, address p2) internal view {\n\t\t_sendLogPayload(abi.encodeWithSignature(\"log(bool,bool,address)\", p0, p1, p2));\n\t}\n\n\tfunction log(bool p0, address p1, uint p2) internal view {\n\t\t_sendLogPayload(abi.encodeWithSignature(\"log(bool,address,uint)\", p0, p1, p2));\n\t}\n\n\tfunction log(bool p0, address p1, string memory p2) internal view {\n\t\t_sendLogPayload(abi.encodeWithSignature(\"log(bool,address,string)\", p0, p1, p2));\n\t}\n\n\tfunction log(bool p0, address p1, bool p2) internal view {\n\t\t_sendLogPayload(abi.encodeWithSignature(\"log(bool,address,bool)\", p0, p1, p2));\n\t}\n\n\tfunction log(bool p0, address p1, address p2) internal view {\n\t\t_sendLogPayload(abi.encodeWithSignature(\"log(bool,address,address)\", p0, p1, p2));\n\t}\n\n\tfunction log(address p0, uint p1, uint p2) internal view {\n\t\t_sendLogPayload(abi.encodeWithSignature(\"log(address,uint,uint)\", p0, p1, p2));\n\t}\n\n\tfunction log(address p0, uint p1, string memory p2) internal view {\n\t\t_sendLogPayload(abi.encodeWithSignature(\"log(address,uint,string)\", p0, p1, p2));\n\t}\n\n\tfunction log(address p0, uint p1, bool p2) internal view {\n\t\t_sendLogPayload(abi.encodeWithSignature(\"log(address,uint,bool)\", p0, p1, p2));\n\t}\n\n\tfunction log(address p0, uint p1, address p2) internal view {\n\t\t_sendLogPayload(abi.encodeWithSignature(\"log(address,uint,address)\", p0, p1, p2));\n\t}\n\n\tfunction log(address p0, string memory p1, uint p2) internal view {\n\t\t_sendLogPayload(abi.encodeWithSignature(\"log(address,string,uint)\", p0, p1, p2));\n\t}\n\n\tfunction log(address p0, string memory p1, string memory p2) internal view {\n\t\t_sendLogPayload(abi.encodeWithSignature(\"log(address,string,string)\", p0, p1, p2));\n\t}\n\n\tfunction log(address p0, string memory p1, bool p2) internal view {\n\t\t_sendLogPayload(abi.encodeWithSignature(\"log(address,string,bool)\", p0, p1, p2));\n\t}\n\n\tfunction log(address p0, string memory p1, address p2) internal view {\n\t\t_sendLogPayload(abi.encodeWithSignature(\"log(address,string,address)\", p0, p1, p2));\n\t}\n\n\tfunction log(address p0, bool p1, uint p2) internal view {\n\t\t_sendLogPayload(abi.encodeWithSignature(\"log(address,bool,uint)\", p0, p1, p2));\n\t}\n\n\tfunction log(address p0, bool p1, string memory p2) internal view {\n\t\t_sendLogPayload(abi.encodeWithSignature(\"log(address,bool,string)\", p0, p1, p2));\n\t}\n\n\tfunction log(address p0, bool p1, bool p2) internal view {\n\t\t_sendLogPayload(abi.encodeWithSignature(\"log(address,bool,bool)\", p0, p1, p2));\n\t}\n\n\tfunction log(address p0, bool p1, address p2) internal view {\n\t\t_sendLogPayload(abi.encodeWithSignature(\"log(address,bool,address)\", p0, p1, p2));\n\t}\n\n\tfunction log(address p0, address p1, uint p2) internal view {\n\t\t_sendLogPayload(abi.encodeWithSignature(\"log(address,address,uint)\", p0, p1, p2));\n\t}\n\n\tfunction log(address p0, address p1, string memory p2) internal view {\n\t\t_sendLogPayload(abi.encodeWithSignature(\"log(address,address,string)\", p0, p1, p2));\n\t}\n\n\tfunction log(address p0, address p1, bool p2) internal view {\n\t\t_sendLogPayload(abi.encodeWithSignature(\"log(address,address,bool)\", p0, p1, p2));\n\t}\n\n\tfunction log(address p0, address p1, address p2) internal view {\n\t\t_sendLogPayload(abi.encodeWithSignature(\"log(address,address,address)\", p0, p1, p2));\n\t}\n\n\tfunction log(uint p0, uint p1, uint p2, uint p3) internal view {\n\t\t_sendLogPayload(abi.encodeWithSignature(\"log(uint,uint,uint,uint)\", p0, p1, p2, p3));\n\t}\n\n\tfunction log(uint p0, uint p1, uint p2, string memory p3) internal view {\n\t\t_sendLogPayload(abi.encodeWithSignature(\"log(uint,uint,uint,string)\", p0, p1, p2, p3));\n\t}\n\n\tfunction log(uint p0, uint p1, uint p2, bool p3) internal view {\n\t\t_sendLogPayload(abi.encodeWithSignature(\"log(uint,uint,uint,bool)\", p0, p1, p2, p3));\n\t}\n\n\tfunction log(uint p0, uint p1, uint p2, address p3) internal view {\n\t\t_sendLogPayload(abi.encodeWithSignature(\"log(uint,uint,uint,address)\", p0, p1, p2, p3));\n\t}\n\n\tfunction log(uint p0, uint p1, string memory p2, uint p3) internal view {\n\t\t_sendLogPayload(abi.encodeWithSignature(\"log(uint,uint,string,uint)\", p0, p1, p2, p3));\n\t}\n\n\tfunction log(uint p0, uint p1, string memory p2, string memory p3) internal view {\n\t\t_sendLogPayload(abi.encodeWithSignature(\"log(uint,uint,string,string)\", p0, p1, p2, p3));\n\t}\n\n\tfunction log(uint p0, uint p1, string memory p2, bool p3) internal view {\n\t\t_sendLogPayload(abi.encodeWithSignature(\"log(uint,uint,string,bool)\", p0, p1, p2, p3));\n\t}\n\n\tfunction log(uint p0, uint p1, string memory p2, address p3) internal view {\n\t\t_sendLogPayload(abi.encodeWithSignature(\"log(uint,uint,string,address)\", p0, p1, p2, p3));\n\t}\n\n\tfunction log(uint p0, uint p1, bool p2, uint p3) internal view {\n\t\t_sendLogPayload(abi.encodeWithSignature(\"log(uint,uint,bool,uint)\", p0, p1, p2, p3));\n\t}\n\n\tfunction log(uint p0, uint p1, bool p2, string memory p3) internal view {\n\t\t_sendLogPayload(abi.encodeWithSignature(\"log(uint,uint,bool,string)\", p0, p1, p2, p3));\n\t}\n\n\tfunction log(uint p0, uint p1, bool p2, bool p3) internal view {\n\t\t_sendLogPayload(abi.encodeWithSignature(\"log(uint,uint,bool,bool)\", p0, p1, p2, p3));\n\t}\n\n\tfunction log(uint p0, uint p1, bool p2, address p3) internal view {\n\t\t_sendLogPayload(abi.encodeWithSignature(\"log(uint,uint,bool,address)\", p0, p1, p2, p3));\n\t}\n\n\tfunction log(uint p0, uint p1, address p2, uint p3) internal view {\n\t\t_sendLogPayload(abi.encodeWithSignature(\"log(uint,uint,address,uint)\", p0, p1, p2, p3));\n\t}\n\n\tfunction log(uint p0, uint p1, address p2, string memory p3) internal view {\n\t\t_sendLogPayload(abi.encodeWithSignature(\"log(uint,uint,address,string)\", p0, p1, p2, p3));\n\t}\n\n\tfunction log(uint p0, uint p1, address p2, bool p3) internal view {\n\t\t_sendLogPayload(abi.encodeWithSignature(\"log(uint,uint,address,bool)\", p0, p1, p2, p3));\n\t}\n\n\tfunction log(uint p0, uint p1, address p2, address p3) internal view {\n\t\t_sendLogPayload(abi.encodeWithSignature(\"log(uint,uint,address,address)\", p0, p1, p2, p3));\n\t}\n\n\tfunction log(uint p0, string memory p1, uint p2, uint p3) internal view {\n\t\t_sendLogPayload(abi.encodeWithSignature(\"log(uint,string,uint,uint)\", p0, p1, p2, p3));\n\t}\n\n\tfunction log(uint p0, string memory p1, uint p2, string memory p3) internal view {\n\t\t_sendLogPayload(abi.encodeWithSignature(\"log(uint,string,uint,string)\", p0, p1, p2, p3));\n\t}\n\n\tfunction log(uint p0, string memory p1, uint p2, bool p3) internal view {\n\t\t_sendLogPayload(abi.encodeWithSignature(\"log(uint,string,uint,bool)\", p0, p1, p2, p3));\n\t}\n\n\tfunction log(uint p0, string memory p1, uint p2, address p3) internal view {\n\t\t_sendLogPayload(abi.encodeWithSignature(\"log(uint,string,uint,address)\", p0, p1, p2, p3));\n\t}\n\n\tfunction log(uint p0, string memory p1, string memory p2, uint p3) internal view {\n\t\t_sendLogPayload(abi.encodeWithSignature(\"log(uint,string,string,uint)\", p0, p1, p2, p3));\n\t}\n\n\tfunction log(uint p0, string memory p1, string memory p2, string memory p3) internal view {\n\t\t_sendLogPayload(abi.encodeWithSignature(\"log(uint,string,string,string)\", p0, p1, p2, p3));\n\t}\n\n\tfunction log(uint p0, string memory p1, string memory p2, bool p3) internal view {\n\t\t_sendLogPayload(abi.encodeWithSignature(\"log(uint,string,string,bool)\", p0, p1, p2, p3));\n\t}\n\n\tfunction log(uint p0, string memory p1, string memory p2, address p3) internal view {\n\t\t_sendLogPayload(abi.encodeWithSignature(\"log(uint,string,string,address)\", p0, p1, p2, p3));\n\t}\n\n\tfunction log(uint p0, string memory p1, bool p2, uint p3) internal view {\n\t\t_sendLogPayload(abi.encodeWithSignature(\"log(uint,string,bool,uint)\", p0, p1, p2, p3));\n\t}\n\n\tfunction log(uint p0, string memory p1, bool p2, string memory p3) internal view {\n\t\t_sendLogPayload(abi.encodeWithSignature(\"log(uint,string,bool,string)\", p0, p1, p2, p3));\n\t}\n\n\tfunction log(uint p0, string memory p1, bool p2, bool p3) internal view {\n\t\t_sendLogPayload(abi.encodeWithSignature(\"log(uint,string,bool,bool)\", p0, p1, p2, p3));\n\t}\n\n\tfunction log(uint p0, string memory p1, bool p2, address p3) internal view {\n\t\t_sendLogPayload(abi.encodeWithSignature(\"log(uint,string,bool,address)\", p0, p1, p2, p3));\n\t}\n\n\tfunction log(uint p0, string memory p1, address p2, uint p3) internal view {\n\t\t_sendLogPayload(abi.encodeWithSignature(\"log(uint,string,address,uint)\", p0, p1, p2, p3));\n\t}\n\n\tfunction log(uint p0, string memory p1, address p2, string memory p3) internal view {\n\t\t_sendLogPayload(abi.encodeWithSignature(\"log(uint,string,address,string)\", p0, p1, p2, p3));\n\t}\n\n\tfunction log(uint p0, string memory p1, address p2, bool p3) internal view {\n\t\t_sendLogPayload(abi.encodeWithSignature(\"log(uint,string,address,bool)\", p0, p1, p2, p3));\n\t}\n\n\tfunction log(uint p0, string memory p1, address p2, address p3) internal view {\n\t\t_sendLogPayload(abi.encodeWithSignature(\"log(uint,string,address,address)\", p0, p1, p2, p3));\n\t}\n\n\tfunction log(uint p0, bool p1, uint p2, uint p3) internal view {\n\t\t_sendLogPayload(abi.encodeWithSignature(\"log(uint,bool,uint,uint)\", p0, p1, p2, p3));\n\t}\n\n\tfunction log(uint p0, bool p1, uint p2, string memory p3) internal view {\n\t\t_sendLogPayload(abi.encodeWithSignature(\"log(uint,bool,uint,string)\", p0, p1, p2, p3));\n\t}\n\n\tfunction log(uint p0, bool p1, uint p2, bool p3) internal view {\n\t\t_sendLogPayload(abi.encodeWithSignature(\"log(uint,bool,uint,bool)\", p0, p1, p2, p3));\n\t}\n\n\tfunction log(uint p0, bool p1, uint p2, address p3) internal view {\n\t\t_sendLogPayload(abi.encodeWithSignature(\"log(uint,bool,uint,address)\", p0, p1, p2, p3));\n\t}\n\n\tfunction log(uint p0, bool p1, string memory p2, uint p3) internal view {\n\t\t_sendLogPayload(abi.encodeWithSignature(\"log(uint,bool,string,uint)\", p0, p1, p2, p3));\n\t}\n\n\tfunction log(uint p0, bool p1, string memory p2, string memory p3) internal view {\n\t\t_sendLogPayload(abi.encodeWithSignature(\"log(uint,bool,string,string)\", p0, p1, p2, p3));\n\t}\n\n\tfunction log(uint p0, bool p1, string memory p2, bool p3) internal view {\n\t\t_sendLogPayload(abi.encodeWithSignature(\"log(uint,bool,string,bool)\", p0, p1, p2, p3));\n\t}\n\n\tfunction log(uint p0, bool p1, string memory p2, address p3) internal view {\n\t\t_sendLogPayload(abi.encodeWithSignature(\"log(uint,bool,string,address)\", p0, p1, p2, p3));\n\t}\n\n\tfunction log(uint p0, bool p1, bool p2, uint p3) internal view {\n\t\t_sendLogPayload(abi.encodeWithSignature(\"log(uint,bool,bool,uint)\", p0, p1, p2, p3));\n\t}\n\n\tfunction log(uint p0, bool p1, bool p2, string memory p3) internal view {\n\t\t_sendLogPayload(abi.encodeWithSignature(\"log(uint,bool,bool,string)\", p0, p1, p2, p3));\n\t}\n\n\tfunction log(uint p0, bool p1, bool p2, bool p3) internal view {\n\t\t_sendLogPayload(abi.encodeWithSignature(\"log(uint,bool,bool,bool)\", p0, p1, p2, p3));\n\t}\n\n\tfunction log(uint p0, bool p1, bool p2, address p3) internal view {\n\t\t_sendLogPayload(abi.encodeWithSignature(\"log(uint,bool,bool,address)\", p0, p1, p2, p3));\n\t}\n\n\tfunction log(uint p0, bool p1, address p2, uint p3) internal view {\n\t\t_sendLogPayload(abi.encodeWithSignature(\"log(uint,bool,address,uint)\", p0, p1, p2, p3));\n\t}\n\n\tfunction log(uint p0, bool p1, address p2, string memory p3) internal view {\n\t\t_sendLogPayload(abi.encodeWithSignature(\"log(uint,bool,address,string)\", p0, p1, p2, p3));\n\t}\n\n\tfunction log(uint p0, bool p1, address p2, bool p3) internal view {\n\t\t_sendLogPayload(abi.encodeWithSignature(\"log(uint,bool,address,bool)\", p0, p1, p2, p3));\n\t}\n\n\tfunction log(uint p0, bool p1, address p2, address p3) internal view {\n\t\t_sendLogPayload(abi.encodeWithSignature(\"log(uint,bool,address,address)\", p0, p1, p2, p3));\n\t}\n\n\tfunction log(uint p0, address p1, uint p2, uint p3) internal view {\n\t\t_sendLogPayload(abi.encodeWithSignature(\"log(uint,address,uint,uint)\", p0, p1, p2, p3));\n\t}\n\n\tfunction log(uint p0, address p1, uint p2, string memory p3) internal view {\n\t\t_sendLogPayload(abi.encodeWithSignature(\"log(uint,address,uint,string)\", p0, p1, p2, p3));\n\t}\n\n\tfunction log(uint p0, address p1, uint p2, bool p3) internal view {\n\t\t_sendLogPayload(abi.encodeWithSignature(\"log(uint,address,uint,bool)\", p0, p1, p2, p3));\n\t}\n\n\tfunction log(uint p0, address p1, uint p2, address p3) internal view {\n\t\t_sendLogPayload(abi.encodeWithSignature(\"log(uint,address,uint,address)\", p0, p1, p2, p3));\n\t}\n\n\tfunction log(uint p0, address p1, string memory p2, uint p3) internal view {\n\t\t_sendLogPayload(abi.encodeWithSignature(\"log(uint,address,string,uint)\", p0, p1, p2, p3));\n\t}\n\n\tfunction log(uint p0, address p1, string memory p2, string memory p3) internal view {\n\t\t_sendLogPayload(abi.encodeWithSignature(\"log(uint,address,string,string)\", p0, p1, p2, p3));\n\t}\n\n\tfunction log(uint p0, address p1, string memory p2, bool p3) internal view {\n\t\t_sendLogPayload(abi.encodeWithSignature(\"log(uint,address,string,bool)\", p0, p1, p2, p3));\n\t}\n\n\tfunction log(uint p0, address p1, string memory p2, address p3) internal view {\n\t\t_sendLogPayload(abi.encodeWithSignature(\"log(uint,address,string,address)\", p0, p1, p2, p3));\n\t}\n\n\tfunction log(uint p0, address p1, bool p2, uint p3) internal view {\n\t\t_sendLogPayload(abi.encodeWithSignature(\"log(uint,address,bool,uint)\", p0, p1, p2, p3));\n\t}\n\n\tfunction log(uint p0, address p1, bool p2, string memory p3) internal view {\n\t\t_sendLogPayload(abi.encodeWithSignature(\"log(uint,address,bool,string)\", p0, p1, p2, p3));\n\t}\n\n\tfunction log(uint p0, address p1, bool p2, bool p3) internal view {\n\t\t_sendLogPayload(abi.encodeWithSignature(\"log(uint,address,bool,bool)\", p0, p1, p2, p3));\n\t}\n\n\tfunction log(uint p0, address p1, bool p2, address p3) internal view {\n\t\t_sendLogPayload(abi.encodeWithSignature(\"log(uint,address,bool,address)\", p0, p1, p2, p3));\n\t}\n\n\tfunction log(uint p0, address p1, address p2, uint p3) internal view {\n\t\t_sendLogPayload(abi.encodeWithSignature(\"log(uint,address,address,uint)\", p0, p1, p2, p3));\n\t}\n\n\tfunction log(uint p0, address p1, address p2, string memory p3) internal view {\n\t\t_sendLogPayload(abi.encodeWithSignature(\"log(uint,address,address,string)\", p0, p1, p2, p3));\n\t}\n\n\tfunction log(uint p0, address p1, address p2, bool p3) internal view {\n\t\t_sendLogPayload(abi.encodeWithSignature(\"log(uint,address,address,bool)\", p0, p1, p2, p3));\n\t}\n\n\tfunction log(uint p0, address p1, address p2, address p3) internal view {\n\t\t_sendLogPayload(abi.encodeWithSignature(\"log(uint,address,address,address)\", p0, p1, p2, p3));\n\t}\n\n\tfunction log(string memory p0, uint p1, uint p2, uint p3) internal view {\n\t\t_sendLogPayload(abi.encodeWithSignature(\"log(string,uint,uint,uint)\", p0, p1, p2, p3));\n\t}\n\n\tfunction log(string memory p0, uint p1, uint p2, string memory p3) internal view {\n\t\t_sendLogPayload(abi.encodeWithSignature(\"log(string,uint,uint,string)\", p0, p1, p2, p3));\n\t}\n\n\tfunction log(string memory p0, uint p1, uint p2, bool p3) internal view {\n\t\t_sendLogPayload(abi.encodeWithSignature(\"log(string,uint,uint,bool)\", p0, p1, p2, p3));\n\t}\n\n\tfunction log(string memory p0, uint p1, uint p2, address p3) internal view {\n\t\t_sendLogPayload(abi.encodeWithSignature(\"log(string,uint,uint,address)\", p0, p1, p2, p3));\n\t}\n\n\tfunction log(string memory p0, uint p1, string memory p2, uint p3) internal view {\n\t\t_sendLogPayload(abi.encodeWithSignature(\"log(string,uint,string,uint)\", p0, p1, p2, p3));\n\t}\n\n\tfunction log(string memory p0, uint p1, string memory p2, string memory p3) internal view {\n\t\t_sendLogPayload(abi.encodeWithSignature(\"log(string,uint,string,string)\", p0, p1, p2, p3));\n\t}\n\n\tfunction log(string memory p0, uint p1, string memory p2, bool p3) internal view {\n\t\t_sendLogPayload(abi.encodeWithSignature(\"log(string,uint,string,bool)\", p0, p1, p2, p3));\n\t}\n\n\tfunction log(string memory p0, uint p1, string memory p2, address p3) internal view {\n\t\t_sendLogPayload(abi.encodeWithSignature(\"log(string,uint,string,address)\", p0, p1, p2, p3));\n\t}\n\n\tfunction log(string memory p0, uint p1, bool p2, uint p3) internal view {\n\t\t_sendLogPayload(abi.encodeWithSignature(\"log(string,uint,bool,uint)\", p0, p1, p2, p3));\n\t}\n\n\tfunction log(string memory p0, uint p1, bool p2, string memory p3) internal view {\n\t\t_sendLogPayload(abi.encodeWithSignature(\"log(string,uint,bool,string)\", p0, p1, p2, p3));\n\t}\n\n\tfunction log(string memory p0, uint p1, bool p2, bool p3) internal view {\n\t\t_sendLogPayload(abi.encodeWithSignature(\"log(string,uint,bool,bool)\", p0, p1, p2, p3));\n\t}\n\n\tfunction log(string memory p0, uint p1, bool p2, address p3) internal view {\n\t\t_sendLogPayload(abi.encodeWithSignature(\"log(string,uint,bool,address)\", p0, p1, p2, p3));\n\t}\n\n\tfunction log(string memory p0, uint p1, address p2, uint p3) internal view {\n\t\t_sendLogPayload(abi.encodeWithSignature(\"log(string,uint,address,uint)\", p0, p1, p2, p3));\n\t}\n\n\tfunction log(string memory p0, uint p1, address p2, string memory p3) internal view {\n\t\t_sendLogPayload(abi.encodeWithSignature(\"log(string,uint,address,string)\", p0, p1, p2, p3));\n\t}\n\n\tfunction log(string memory p0, uint p1, address p2, bool p3) internal view {\n\t\t_sendLogPayload(abi.encodeWithSignature(\"log(string,uint,address,bool)\", p0, p1, p2, p3));\n\t}\n\n\tfunction log(string memory p0, uint p1, address p2, address p3) internal view {\n\t\t_sendLogPayload(abi.encodeWithSignature(\"log(string,uint,address,address)\", p0, p1, p2, p3));\n\t}\n\n\tfunction log(string memory p0, string memory p1, uint p2, uint p3) internal view {\n\t\t_sendLogPayload(abi.encodeWithSignature(\"log(string,string,uint,uint)\", p0, p1, p2, p3));\n\t}\n\n\tfunction log(string memory p0, string memory p1, uint p2, string memory p3) internal view {\n\t\t_sendLogPayload(abi.encodeWithSignature(\"log(string,string,uint,string)\", p0, p1, p2, p3));\n\t}\n\n\tfunction log(string memory p0, string memory p1, uint p2, bool p3) internal view {\n\t\t_sendLogPayload(abi.encodeWithSignature(\"log(string,string,uint,bool)\", p0, p1, p2, p3));\n\t}\n\n\tfunction log(string memory p0, string memory p1, uint p2, address p3) internal view {\n\t\t_sendLogPayload(abi.encodeWithSignature(\"log(string,string,uint,address)\", p0, p1, p2, p3));\n\t}\n\n\tfunction log(string memory p0, string memory p1, string memory p2, uint p3) internal view {\n\t\t_sendLogPayload(abi.encodeWithSignature(\"log(string,string,string,uint)\", p0, p1, p2, p3));\n\t}\n\n\tfunction log(string memory p0, string memory p1, string memory p2, string memory p3) internal view {\n\t\t_sendLogPayload(abi.encodeWithSignature(\"log(string,string,string,string)\", p0, p1, p2, p3));\n\t}\n\n\tfunction log(string memory p0, string memory p1, string memory p2, bool p3) internal view {\n\t\t_sendLogPayload(abi.encodeWithSignature(\"log(string,string,string,bool)\", p0, p1, p2, p3));\n\t}\n\n\tfunction log(string memory p0, string memory p1, string memory p2, address p3) internal view {\n\t\t_sendLogPayload(abi.encodeWithSignature(\"log(string,string,string,address)\", p0, p1, p2, p3));\n\t}\n\n\tfunction log(string memory p0, string memory p1, bool p2, uint p3) internal view {\n\t\t_sendLogPayload(abi.encodeWithSignature(\"log(string,string,bool,uint)\", p0, p1, p2, p3));\n\t}\n\n\tfunction log(string memory p0, string memory p1, bool p2, string memory p3) internal view {\n\t\t_sendLogPayload(abi.encodeWithSignature(\"log(string,string,bool,string)\", p0, p1, p2, p3));\n\t}\n\n\tfunction log(string memory p0, string memory p1, bool p2, bool p3) internal view {\n\t\t_sendLogPayload(abi.encodeWithSignature(\"log(string,string,bool,bool)\", p0, p1, p2, p3));\n\t}\n\n\tfunction log(string memory p0, string memory p1, bool p2, address p3) internal view {\n\t\t_sendLogPayload(abi.encodeWithSignature(\"log(string,string,bool,address)\", p0, p1, p2, p3));\n\t}\n\n\tfunction log(string memory p0, string memory p1, address p2, uint p3) internal view {\n\t\t_sendLogPayload(abi.encodeWithSignature(\"log(string,string,address,uint)\", p0, p1, p2, p3));\n\t}\n\n\tfunction log(string memory p0, string memory p1, address p2, string memory p3) internal view {\n\t\t_sendLogPayload(abi.encodeWithSignature(\"log(string,string,address,string)\", p0, p1, p2, p3));\n\t}\n\n\tfunction log(string memory p0, string memory p1, address p2, bool p3) internal view {\n\t\t_sendLogPayload(abi.encodeWithSignature(\"log(string,string,address,bool)\", p0, p1, p2, p3));\n\t}\n\n\tfunction log(string memory p0, string memory p1, address p2, address p3) internal view {\n\t\t_sendLogPayload(abi.encodeWithSignature(\"log(string,string,address,address)\", p0, p1, p2, p3));\n\t}\n\n\tfunction log(string memory p0, bool p1, uint p2, uint p3) internal view {\n\t\t_sendLogPayload(abi.encodeWithSignature(\"log(string,bool,uint,uint)\", p0, p1, p2, p3));\n\t}\n\n\tfunction log(string memory p0, bool p1, uint p2, string memory p3) internal view {\n\t\t_sendLogPayload(abi.encodeWithSignature(\"log(string,bool,uint,string)\", p0, p1, p2, p3));\n\t}\n\n\tfunction log(string memory p0, bool p1, uint p2, bool p3) internal view {\n\t\t_sendLogPayload(abi.encodeWithSignature(\"log(string,bool,uint,bool)\", p0, p1, p2, p3));\n\t}\n\n\tfunction log(string memory p0, bool p1, uint p2, address p3) internal view {\n\t\t_sendLogPayload(abi.encodeWithSignature(\"log(string,bool,uint,address)\", p0, p1, p2, p3));\n\t}\n\n\tfunction log(string memory p0, bool p1, string memory p2, uint p3) internal view {\n\t\t_sendLogPayload(abi.encodeWithSignature(\"log(string,bool,string,uint)\", p0, p1, p2, p3));\n\t}\n\n\tfunction log(string memory p0, bool p1, string memory p2, string memory p3) internal view {\n\t\t_sendLogPayload(abi.encodeWithSignature(\"log(string,bool,string,string)\", p0, p1, p2, p3));\n\t}\n\n\tfunction log(string memory p0, bool p1, string memory p2, bool p3) internal view {\n\t\t_sendLogPayload(abi.encodeWithSignature(\"log(string,bool,string,bool)\", p0, p1, p2, p3));\n\t}\n\n\tfunction log(string memory p0, bool p1, string memory p2, address p3) internal view {\n\t\t_sendLogPayload(abi.encodeWithSignature(\"log(string,bool,string,address)\", p0, p1, p2, p3));\n\t}\n\n\tfunction log(string memory p0, bool p1, bool p2, uint p3) internal view {\n\t\t_sendLogPayload(abi.encodeWithSignature(\"log(string,bool,bool,uint)\", p0, p1, p2, p3));\n\t}\n\n\tfunction log(string memory p0, bool p1, bool p2, string memory p3) internal view {\n\t\t_sendLogPayload(abi.encodeWithSignature(\"log(string,bool,bool,string)\", p0, p1, p2, p3));\n\t}\n\n\tfunction log(string memory p0, bool p1, bool p2, bool p3) internal view {\n\t\t_sendLogPayload(abi.encodeWithSignature(\"log(string,bool,bool,bool)\", p0, p1, p2, p3));\n\t}\n\n\tfunction log(string memory p0, bool p1, bool p2, address p3) internal view {\n\t\t_sendLogPayload(abi.encodeWithSignature(\"log(string,bool,bool,address)\", p0, p1, p2, p3));\n\t}\n\n\tfunction log(string memory p0, bool p1, address p2, uint p3) internal view {\n\t\t_sendLogPayload(abi.encodeWithSignature(\"log(string,bool,address,uint)\", p0, p1, p2, p3));\n\t}\n\n\tfunction log(string memory p0, bool p1, address p2, string memory p3) internal view {\n\t\t_sendLogPayload(abi.encodeWithSignature(\"log(string,bool,address,string)\", p0, p1, p2, p3));\n\t}\n\n\tfunction log(string memory p0, bool p1, address p2, bool p3) internal view {\n\t\t_sendLogPayload(abi.encodeWithSignature(\"log(string,bool,address,bool)\", p0, p1, p2, p3));\n\t}\n\n\tfunction log(string memory p0, bool p1, address p2, address p3) internal view {\n\t\t_sendLogPayload(abi.encodeWithSignature(\"log(string,bool,address,address)\", p0, p1, p2, p3));\n\t}\n\n\tfunction log(string memory p0, address p1, uint p2, uint p3) internal view {\n\t\t_sendLogPayload(abi.encodeWithSignature(\"log(string,address,uint,uint)\", p0, p1, p2, p3));\n\t}\n\n\tfunction log(string memory p0, address p1, uint p2, string memory p3) internal view {\n\t\t_sendLogPayload(abi.encodeWithSignature(\"log(string,address,uint,string)\", p0, p1, p2, p3));\n\t}\n\n\tfunction log(string memory p0, address p1, uint p2, bool p3) internal view {\n\t\t_sendLogPayload(abi.encodeWithSignature(\"log(string,address,uint,bool)\", p0, p1, p2, p3));\n\t}\n\n\tfunction log(string memory p0, address p1, uint p2, address p3) internal view {\n\t\t_sendLogPayload(abi.encodeWithSignature(\"log(string,address,uint,address)\", p0, p1, p2, p3));\n\t}\n\n\tfunction log(string memory p0, address p1, string memory p2, uint p3) internal view {\n\t\t_sendLogPayload(abi.encodeWithSignature(\"log(string,address,string,uint)\", p0, p1, p2, p3));\n\t}\n\n\tfunction log(string memory p0, address p1, string memory p2, string memory p3) internal view {\n\t\t_sendLogPayload(abi.encodeWithSignature(\"log(string,address,string,string)\", p0, p1, p2, p3));\n\t}\n\n\tfunction log(string memory p0, address p1, string memory p2, bool p3) internal view {\n\t\t_sendLogPayload(abi.encodeWithSignature(\"log(string,address,string,bool)\", p0, p1, p2, p3));\n\t}\n\n\tfunction log(string memory p0, address p1, string memory p2, address p3) internal view {\n\t\t_sendLogPayload(abi.encodeWithSignature(\"log(string,address,string,address)\", p0, p1, p2, p3));\n\t}\n\n\tfunction log(string memory p0, address p1, bool p2, uint p3) internal view {\n\t\t_sendLogPayload(abi.encodeWithSignature(\"log(string,address,bool,uint)\", p0, p1, p2, p3));\n\t}\n\n\tfunction log(string memory p0, address p1, bool p2, string memory p3) internal view {\n\t\t_sendLogPayload(abi.encodeWithSignature(\"log(string,address,bool,string)\", p0, p1, p2, p3));\n\t}\n\n\tfunction log(string memory p0, address p1, bool p2, bool p3) internal view {\n\t\t_sendLogPayload(abi.encodeWithSignature(\"log(string,address,bool,bool)\", p0, p1, p2, p3));\n\t}\n\n\tfunction log(string memory p0, address p1, bool p2, address p3) internal view {\n\t\t_sendLogPayload(abi.encodeWithSignature(\"log(string,address,bool,address)\", p0, p1, p2, p3));\n\t}\n\n\tfunction log(string memory p0, address p1, address p2, uint p3) internal view {\n\t\t_sendLogPayload(abi.encodeWithSignature(\"log(string,address,address,uint)\", p0, p1, p2, p3));\n\t}\n\n\tfunction log(string memory p0, address p1, address p2, string memory p3) internal view {\n\t\t_sendLogPayload(abi.encodeWithSignature(\"log(string,address,address,string)\", p0, p1, p2, p3));\n\t}\n\n\tfunction log(string memory p0, address p1, address p2, bool p3) internal view {\n\t\t_sendLogPayload(abi.encodeWithSignature(\"log(string,address,address,bool)\", p0, p1, p2, p3));\n\t}\n\n\tfunction log(string memory p0, address p1, address p2, address p3) internal view {\n\t\t_sendLogPayload(abi.encodeWithSignature(\"log(string,address,address,address)\", p0, p1, p2, p3));\n\t}\n\n\tfunction log(bool p0, uint p1, uint p2, uint p3) internal view {\n\t\t_sendLogPayload(abi.encodeWithSignature(\"log(bool,uint,uint,uint)\", p0, p1, p2, p3));\n\t}\n\n\tfunction log(bool p0, uint p1, uint p2, string memory p3) internal view {\n\t\t_sendLogPayload(abi.encodeWithSignature(\"log(bool,uint,uint,string)\", p0, p1, p2, p3));\n\t}\n\n\tfunction log(bool p0, uint p1, uint p2, bool p3) internal view {\n\t\t_sendLogPayload(abi.encodeWithSignature(\"log(bool,uint,uint,bool)\", p0, p1, p2, p3));\n\t}\n\n\tfunction log(bool p0, uint p1, uint p2, address p3) internal view {\n\t\t_sendLogPayload(abi.encodeWithSignature(\"log(bool,uint,uint,address)\", p0, p1, p2, p3));\n\t}\n\n\tfunction log(bool p0, uint p1, string memory p2, uint p3) internal view {\n\t\t_sendLogPayload(abi.encodeWithSignature(\"log(bool,uint,string,uint)\", p0, p1, p2, p3));\n\t}\n\n\tfunction log(bool p0, uint p1, string memory p2, string memory p3) internal view {\n\t\t_sendLogPayload(abi.encodeWithSignature(\"log(bool,uint,string,string)\", p0, p1, p2, p3));\n\t}\n\n\tfunction log(bool p0, uint p1, string memory p2, bool p3) internal view {\n\t\t_sendLogPayload(abi.encodeWithSignature(\"log(bool,uint,string,bool)\", p0, p1, p2, p3));\n\t}\n\n\tfunction log(bool p0, uint p1, string memory p2, address p3) internal view {\n\t\t_sendLogPayload(abi.encodeWithSignature(\"log(bool,uint,string,address)\", p0, p1, p2, p3));\n\t}\n\n\tfunction log(bool p0, uint p1, bool p2, uint p3) internal view {\n\t\t_sendLogPayload(abi.encodeWithSignature(\"log(bool,uint,bool,uint)\", p0, p1, p2, p3));\n\t}\n\n\tfunction log(bool p0, uint p1, bool p2, string memory p3) internal view {\n\t\t_sendLogPayload(abi.encodeWithSignature(\"log(bool,uint,bool,string)\", p0, p1, p2, p3));\n\t}\n\n\tfunction log(bool p0, uint p1, bool p2, bool p3) internal view {\n\t\t_sendLogPayload(abi.encodeWithSignature(\"log(bool,uint,bool,bool)\", p0, p1, p2, p3));\n\t}\n\n\tfunction log(bool p0, uint p1, bool p2, address p3) internal view {\n\t\t_sendLogPayload(abi.encodeWithSignature(\"log(bool,uint,bool,address)\", p0, p1, p2, p3));\n\t}\n\n\tfunction log(bool p0, uint p1, address p2, uint p3) internal view {\n\t\t_sendLogPayload(abi.encodeWithSignature(\"log(bool,uint,address,uint)\", p0, p1, p2, p3));\n\t}\n\n\tfunction log(bool p0, uint p1, address p2, string memory p3) internal view {\n\t\t_sendLogPayload(abi.encodeWithSignature(\"log(bool,uint,address,string)\", p0, p1, p2, p3));\n\t}\n\n\tfunction log(bool p0, uint p1, address p2, bool p3) internal view {\n\t\t_sendLogPayload(abi.encodeWithSignature(\"log(bool,uint,address,bool)\", p0, p1, p2, p3));\n\t}\n\n\tfunction log(bool p0, uint p1, address p2, address p3) internal view {\n\t\t_sendLogPayload(abi.encodeWithSignature(\"log(bool,uint,address,address)\", p0, p1, p2, p3));\n\t}\n\n\tfunction log(bool p0, string memory p1, uint p2, uint p3) internal view {\n\t\t_sendLogPayload(abi.encodeWithSignature(\"log(bool,string,uint,uint)\", p0, p1, p2, p3));\n\t}\n\n\tfunction log(bool p0, string memory p1, uint p2, string memory p3) internal view {\n\t\t_sendLogPayload(abi.encodeWithSignature(\"log(bool,string,uint,string)\", p0, p1, p2, p3));\n\t}\n\n\tfunction log(bool p0, string memory p1, uint p2, bool p3) internal view {\n\t\t_sendLogPayload(abi.encodeWithSignature(\"log(bool,string,uint,bool)\", p0, p1, p2, p3));\n\t}\n\n\tfunction log(bool p0, string memory p1, uint p2, address p3) internal view {\n\t\t_sendLogPayload(abi.encodeWithSignature(\"log(bool,string,uint,address)\", p0, p1, p2, p3));\n\t}\n\n\tfunction log(bool p0, string memory p1, string memory p2, uint p3) internal view {\n\t\t_sendLogPayload(abi.encodeWithSignature(\"log(bool,string,string,uint)\", p0, p1, p2, p3));\n\t}\n\n\tfunction log(bool p0, string memory p1, string memory p2, string memory p3) internal view {\n\t\t_sendLogPayload(abi.encodeWithSignature(\"log(bool,string,string,string)\", p0, p1, p2, p3));\n\t}\n\n\tfunction log(bool p0, string memory p1, string memory p2, bool p3) internal view {\n\t\t_sendLogPayload(abi.encodeWithSignature(\"log(bool,string,string,bool)\", p0, p1, p2, p3));\n\t}\n\n\tfunction log(bool p0, string memory p1, string memory p2, address p3) internal view {\n\t\t_sendLogPayload(abi.encodeWithSignature(\"log(bool,string,string,address)\", p0, p1, p2, p3));\n\t}\n\n\tfunction log(bool p0, string memory p1, bool p2, uint p3) internal view {\n\t\t_sendLogPayload(abi.encodeWithSignature(\"log(bool,string,bool,uint)\", p0, p1, p2, p3));\n\t}\n\n\tfunction log(bool p0, string memory p1, bool p2, string memory p3) internal view {\n\t\t_sendLogPayload(abi.encodeWithSignature(\"log(bool,string,bool,string)\", p0, p1, p2, p3));\n\t}\n\n\tfunction log(bool p0, string memory p1, bool p2, bool p3) internal view {\n\t\t_sendLogPayload(abi.encodeWithSignature(\"log(bool,string,bool,bool)\", p0, p1, p2, p3));\n\t}\n\n\tfunction log(bool p0, string memory p1, bool p2, address p3) internal view {\n\t\t_sendLogPayload(abi.encodeWithSignature(\"log(bool,string,bool,address)\", p0, p1, p2, p3));\n\t}\n\n\tfunction log(bool p0, string memory p1, address p2, uint p3) internal view {\n\t\t_sendLogPayload(abi.encodeWithSignature(\"log(bool,string,address,uint)\", p0, p1, p2, p3));\n\t}\n\n\tfunction log(bool p0, string memory p1, address p2, string memory p3) internal view {\n\t\t_sendLogPayload(abi.encodeWithSignature(\"log(bool,string,address,string)\", p0, p1, p2, p3));\n\t}\n\n\tfunction log(bool p0, string memory p1, address p2, bool p3) internal view {\n\t\t_sendLogPayload(abi.encodeWithSignature(\"log(bool,string,address,bool)\", p0, p1, p2, p3));\n\t}\n\n\tfunction log(bool p0, string memory p1, address p2, address p3) internal view {\n\t\t_sendLogPayload(abi.encodeWithSignature(\"log(bool,string,address,address)\", p0, p1, p2, p3));\n\t}\n\n\tfunction log(bool p0, bool p1, uint p2, uint p3) internal view {\n\t\t_sendLogPayload(abi.encodeWithSignature(\"log(bool,bool,uint,uint)\", p0, p1, p2, p3));\n\t}\n\n\tfunction log(bool p0, bool p1, uint p2, string memory p3) internal view {\n\t\t_sendLogPayload(abi.encodeWithSignature(\"log(bool,bool,uint,string)\", p0, p1, p2, p3));\n\t}\n\n\tfunction log(bool p0, bool p1, uint p2, bool p3) internal view {\n\t\t_sendLogPayload(abi.encodeWithSignature(\"log(bool,bool,uint,bool)\", p0, p1, p2, p3));\n\t}\n\n\tfunction log(bool p0, bool p1, uint p2, address p3) internal view {\n\t\t_sendLogPayload(abi.encodeWithSignature(\"log(bool,bool,uint,address)\", p0, p1, p2, p3));\n\t}\n\n\tfunction log(bool p0, bool p1, string memory p2, uint p3) internal view {\n\t\t_sendLogPayload(abi.encodeWithSignature(\"log(bool,bool,string,uint)\", p0, p1, p2, p3));\n\t}\n\n\tfunction log(bool p0, bool p1, string memory p2, string memory p3) internal view {\n\t\t_sendLogPayload(abi.encodeWithSignature(\"log(bool,bool,string,string)\", p0, p1, p2, p3));\n\t}\n\n\tfunction log(bool p0, bool p1, string memory p2, bool p3) internal view {\n\t\t_sendLogPayload(abi.encodeWithSignature(\"log(bool,bool,string,bool)\", p0, p1, p2, p3));\n\t}\n\n\tfunction log(bool p0, bool p1, string memory p2, address p3) internal view {\n\t\t_sendLogPayload(abi.encodeWithSignature(\"log(bool,bool,string,address)\", p0, p1, p2, p3));\n\t}\n\n\tfunction log(bool p0, bool p1, bool p2, uint p3) internal view {\n\t\t_sendLogPayload(abi.encodeWithSignature(\"log(bool,bool,bool,uint)\", p0, p1, p2, p3));\n\t}\n\n\tfunction log(bool p0, bool p1, bool p2, string memory p3) internal view {\n\t\t_sendLogPayload(abi.encodeWithSignature(\"log(bool,bool,bool,string)\", p0, p1, p2, p3));\n\t}\n\n\tfunction log(bool p0, bool p1, bool p2, bool p3) internal view {\n\t\t_sendLogPayload(abi.encodeWithSignature(\"log(bool,bool,bool,bool)\", p0, p1, p2, p3));\n\t}\n\n\tfunction log(bool p0, bool p1, bool p2, address p3) internal view {\n\t\t_sendLogPayload(abi.encodeWithSignature(\"log(bool,bool,bool,address)\", p0, p1, p2, p3));\n\t}\n\n\tfunction log(bool p0, bool p1, address p2, uint p3) internal view {\n\t\t_sendLogPayload(abi.encodeWithSignature(\"log(bool,bool,address,uint)\", p0, p1, p2, p3));\n\t}\n\n\tfunction log(bool p0, bool p1, address p2, string memory p3) internal view {\n\t\t_sendLogPayload(abi.encodeWithSignature(\"log(bool,bool,address,string)\", p0, p1, p2, p3));\n\t}\n\n\tfunction log(bool p0, bool p1, address p2, bool p3) internal view {\n\t\t_sendLogPayload(abi.encodeWithSignature(\"log(bool,bool,address,bool)\", p0, p1, p2, p3));\n\t}\n\n\tfunction log(bool p0, bool p1, address p2, address p3) internal view {\n\t\t_sendLogPayload(abi.encodeWithSignature(\"log(bool,bool,address,address)\", p0, p1, p2, p3));\n\t}\n\n\tfunction log(bool p0, address p1, uint p2, uint p3) internal view {\n\t\t_sendLogPayload(abi.encodeWithSignature(\"log(bool,address,uint,uint)\", p0, p1, p2, p3));\n\t}\n\n\tfunction log(bool p0, address p1, uint p2, string memory p3) internal view {\n\t\t_sendLogPayload(abi.encodeWithSignature(\"log(bool,address,uint,string)\", p0, p1, p2, p3));\n\t}\n\n\tfunction log(bool p0, address p1, uint p2, bool p3) internal view {\n\t\t_sendLogPayload(abi.encodeWithSignature(\"log(bool,address,uint,bool)\", p0, p1, p2, p3));\n\t}\n\n\tfunction log(bool p0, address p1, uint p2, address p3) internal view {\n\t\t_sendLogPayload(abi.encodeWithSignature(\"log(bool,address,uint,address)\", p0, p1, p2, p3));\n\t}\n\n\tfunction log(bool p0, address p1, string memory p2, uint p3) internal view {\n\t\t_sendLogPayload(abi.encodeWithSignature(\"log(bool,address,string,uint)\", p0, p1, p2, p3));\n\t}\n\n\tfunction log(bool p0, address p1, string memory p2, string memory p3) internal view {\n\t\t_sendLogPayload(abi.encodeWithSignature(\"log(bool,address,string,string)\", p0, p1, p2, p3));\n\t}\n\n\tfunction log(bool p0, address p1, string memory p2, bool p3) internal view {\n\t\t_sendLogPayload(abi.encodeWithSignature(\"log(bool,address,string,bool)\", p0, p1, p2, p3));\n\t}\n\n\tfunction log(bool p0, address p1, string memory p2, address p3) internal view {\n\t\t_sendLogPayload(abi.encodeWithSignature(\"log(bool,address,string,address)\", p0, p1, p2, p3));\n\t}\n\n\tfunction log(bool p0, address p1, bool p2, uint p3) internal view {\n\t\t_sendLogPayload(abi.encodeWithSignature(\"log(bool,address,bool,uint)\", p0, p1, p2, p3));\n\t}\n\n\tfunction log(bool p0, address p1, bool p2, string memory p3) internal view {\n\t\t_sendLogPayload(abi.encodeWithSignature(\"log(bool,address,bool,string)\", p0, p1, p2, p3));\n\t}\n\n\tfunction log(bool p0, address p1, bool p2, bool p3) internal view {\n\t\t_sendLogPayload(abi.encodeWithSignature(\"log(bool,address,bool,bool)\", p0, p1, p2, p3));\n\t}\n\n\tfunction log(bool p0, address p1, bool p2, address p3) internal view {\n\t\t_sendLogPayload(abi.encodeWithSignature(\"log(bool,address,bool,address)\", p0, p1, p2, p3));\n\t}\n\n\tfunction log(bool p0, address p1, address p2, uint p3) internal view {\n\t\t_sendLogPayload(abi.encodeWithSignature(\"log(bool,address,address,uint)\", p0, p1, p2, p3));\n\t}\n\n\tfunction log(bool p0, address p1, address p2, string memory p3) internal view {\n\t\t_sendLogPayload(abi.encodeWithSignature(\"log(bool,address,address,string)\", p0, p1, p2, p3));\n\t}\n\n\tfunction log(bool p0, address p1, address p2, bool p3) internal view {\n\t\t_sendLogPayload(abi.encodeWithSignature(\"log(bool,address,address,bool)\", p0, p1, p2, p3));\n\t}\n\n\tfunction log(bool p0, address p1, address p2, address p3) internal view {\n\t\t_sendLogPayload(abi.encodeWithSignature(\"log(bool,address,address,address)\", p0, p1, p2, p3));\n\t}\n\n\tfunction log(address p0, uint p1, uint p2, uint p3) internal view {\n\t\t_sendLogPayload(abi.encodeWithSignature(\"log(address,uint,uint,uint)\", p0, p1, p2, p3));\n\t}\n\n\tfunction log(address p0, uint p1, uint p2, string memory p3) internal view {\n\t\t_sendLogPayload(abi.encodeWithSignature(\"log(address,uint,uint,string)\", p0, p1, p2, p3));\n\t}\n\n\tfunction log(address p0, uint p1, uint p2, bool p3) internal view {\n\t\t_sendLogPayload(abi.encodeWithSignature(\"log(address,uint,uint,bool)\", p0, p1, p2, p3));\n\t}\n\n\tfunction log(address p0, uint p1, uint p2, address p3) internal view {\n\t\t_sendLogPayload(abi.encodeWithSignature(\"log(address,uint,uint,address)\", p0, p1, p2, p3));\n\t}\n\n\tfunction log(address p0, uint p1, string memory p2, uint p3) internal view {\n\t\t_sendLogPayload(abi.encodeWithSignature(\"log(address,uint,string,uint)\", p0, p1, p2, p3));\n\t}\n\n\tfunction log(address p0, uint p1, string memory p2, string memory p3) internal view {\n\t\t_sendLogPayload(abi.encodeWithSignature(\"log(address,uint,string,string)\", p0, p1, p2, p3));\n\t}\n\n\tfunction log(address p0, uint p1, string memory p2, bool p3) internal view {\n\t\t_sendLogPayload(abi.encodeWithSignature(\"log(address,uint,string,bool)\", p0, p1, p2, p3));\n\t}\n\n\tfunction log(address p0, uint p1, string memory p2, address p3) internal view {\n\t\t_sendLogPayload(abi.encodeWithSignature(\"log(address,uint,string,address)\", p0, p1, p2, p3));\n\t}\n\n\tfunction log(address p0, uint p1, bool p2, uint p3) internal view {\n\t\t_sendLogPayload(abi.encodeWithSignature(\"log(address,uint,bool,uint)\", p0, p1, p2, p3));\n\t}\n\n\tfunction log(address p0, uint p1, bool p2, string memory p3) internal view {\n\t\t_sendLogPayload(abi.encodeWithSignature(\"log(address,uint,bool,string)\", p0, p1, p2, p3));\n\t}\n\n\tfunction log(address p0, uint p1, bool p2, bool p3) internal view {\n\t\t_sendLogPayload(abi.encodeWithSignature(\"log(address,uint,bool,bool)\", p0, p1, p2, p3));\n\t}\n\n\tfunction log(address p0, uint p1, bool p2, address p3) internal view {\n\t\t_sendLogPayload(abi.encodeWithSignature(\"log(address,uint,bool,address)\", p0, p1, p2, p3));\n\t}\n\n\tfunction log(address p0, uint p1, address p2, uint p3) internal view {\n\t\t_sendLogPayload(abi.encodeWithSignature(\"log(address,uint,address,uint)\", p0, p1, p2, p3));\n\t}\n\n\tfunction log(address p0, uint p1, address p2, string memory p3) internal view {\n\t\t_sendLogPayload(abi.encodeWithSignature(\"log(address,uint,address,string)\", p0, p1, p2, p3));\n\t}\n\n\tfunction log(address p0, uint p1, address p2, bool p3) internal view {\n\t\t_sendLogPayload(abi.encodeWithSignature(\"log(address,uint,address,bool)\", p0, p1, p2, p3));\n\t}\n\n\tfunction log(address p0, uint p1, address p2, address p3) internal view {\n\t\t_sendLogPayload(abi.encodeWithSignature(\"log(address,uint,address,address)\", p0, p1, p2, p3));\n\t}\n\n\tfunction log(address p0, string memory p1, uint p2, uint p3) internal view {\n\t\t_sendLogPayload(abi.encodeWithSignature(\"log(address,string,uint,uint)\", p0, p1, p2, p3));\n\t}\n\n\tfunction log(address p0, string memory p1, uint p2, string memory p3) internal view {\n\t\t_sendLogPayload(abi.encodeWithSignature(\"log(address,string,uint,string)\", p0, p1, p2, p3));\n\t}\n\n\tfunction log(address p0, string memory p1, uint p2, bool p3) internal view {\n\t\t_sendLogPayload(abi.encodeWithSignature(\"log(address,string,uint,bool)\", p0, p1, p2, p3));\n\t}\n\n\tfunction log(address p0, string memory p1, uint p2, address p3) internal view {\n\t\t_sendLogPayload(abi.encodeWithSignature(\"log(address,string,uint,address)\", p0, p1, p2, p3));\n\t}\n\n\tfunction log(address p0, string memory p1, string memory p2, uint p3) internal view {\n\t\t_sendLogPayload(abi.encodeWithSignature(\"log(address,string,string,uint)\", p0, p1, p2, p3));\n\t}\n\n\tfunction log(address p0, string memory p1, string memory p2, string memory p3) internal view {\n\t\t_sendLogPayload(abi.encodeWithSignature(\"log(address,string,string,string)\", p0, p1, p2, p3));\n\t}\n\n\tfunction log(address p0, string memory p1, string memory p2, bool p3) internal view {\n\t\t_sendLogPayload(abi.encodeWithSignature(\"log(address,string,string,bool)\", p0, p1, p2, p3));\n\t}\n\n\tfunction log(address p0, string memory p1, string memory p2, address p3) internal view {\n\t\t_sendLogPayload(abi.encodeWithSignature(\"log(address,string,string,address)\", p0, p1, p2, p3));\n\t}\n\n\tfunction log(address p0, string memory p1, bool p2, uint p3) internal view {\n\t\t_sendLogPayload(abi.encodeWithSignature(\"log(address,string,bool,uint)\", p0, p1, p2, p3));\n\t}\n\n\tfunction log(address p0, string memory p1, bool p2, string memory p3) internal view {\n\t\t_sendLogPayload(abi.encodeWithSignature(\"log(address,string,bool,string)\", p0, p1, p2, p3));\n\t}\n\n\tfunction log(address p0, string memory p1, bool p2, bool p3) internal view {\n\t\t_sendLogPayload(abi.encodeWithSignature(\"log(address,string,bool,bool)\", p0, p1, p2, p3));\n\t}\n\n\tfunction log(address p0, string memory p1, bool p2, address p3) internal view {\n\t\t_sendLogPayload(abi.encodeWithSignature(\"log(address,string,bool,address)\", p0, p1, p2, p3));\n\t}\n\n\tfunction log(address p0, string memory p1, address p2, uint p3) internal view {\n\t\t_sendLogPayload(abi.encodeWithSignature(\"log(address,string,address,uint)\", p0, p1, p2, p3));\n\t}\n\n\tfunction log(address p0, string memory p1, address p2, string memory p3) internal view {\n\t\t_sendLogPayload(abi.encodeWithSignature(\"log(address,string,address,string)\", p0, p1, p2, p3));\n\t}\n\n\tfunction log(address p0, string memory p1, address p2, bool p3) internal view {\n\t\t_sendLogPayload(abi.encodeWithSignature(\"log(address,string,address,bool)\", p0, p1, p2, p3));\n\t}\n\n\tfunction log(address p0, string memory p1, address p2, address p3) internal view {\n\t\t_sendLogPayload(abi.encodeWithSignature(\"log(address,string,address,address)\", p0, p1, p2, p3));\n\t}\n\n\tfunction log(address p0, bool p1, uint p2, uint p3) internal view {\n\t\t_sendLogPayload(abi.encodeWithSignature(\"log(address,bool,uint,uint)\", p0, p1, p2, p3));\n\t}\n\n\tfunction log(address p0, bool p1, uint p2, string memory p3) internal view {\n\t\t_sendLogPayload(abi.encodeWithSignature(\"log(address,bool,uint,string)\", p0, p1, p2, p3));\n\t}\n\n\tfunction log(address p0, bool p1, uint p2, bool p3) internal view {\n\t\t_sendLogPayload(abi.encodeWithSignature(\"log(address,bool,uint,bool)\", p0, p1, p2, p3));\n\t}\n\n\tfunction log(address p0, bool p1, uint p2, address p3) internal view {\n\t\t_sendLogPayload(abi.encodeWithSignature(\"log(address,bool,uint,address)\", p0, p1, p2, p3));\n\t}\n\n\tfunction log(address p0, bool p1, string memory p2, uint p3) internal view {\n\t\t_sendLogPayload(abi.encodeWithSignature(\"log(address,bool,string,uint)\", p0, p1, p2, p3));\n\t}\n\n\tfunction log(address p0, bool p1, string memory p2, string memory p3) internal view {\n\t\t_sendLogPayload(abi.encodeWithSignature(\"log(address,bool,string,string)\", p0, p1, p2, p3));\n\t}\n\n\tfunction log(address p0, bool p1, string memory p2, bool p3) internal view {\n\t\t_sendLogPayload(abi.encodeWithSignature(\"log(address,bool,string,bool)\", p0, p1, p2, p3));\n\t}\n\n\tfunction log(address p0, bool p1, string memory p2, address p3) internal view {\n\t\t_sendLogPayload(abi.encodeWithSignature(\"log(address,bool,string,address)\", p0, p1, p2, p3));\n\t}\n\n\tfunction log(address p0, bool p1, bool p2, uint p3) internal view {\n\t\t_sendLogPayload(abi.encodeWithSignature(\"log(address,bool,bool,uint)\", p0, p1, p2, p3));\n\t}\n\n\tfunction log(address p0, bool p1, bool p2, string memory p3) internal view {\n\t\t_sendLogPayload(abi.encodeWithSignature(\"log(address,bool,bool,string)\", p0, p1, p2, p3));\n\t}\n\n\tfunction log(address p0, bool p1, bool p2, bool p3) internal view {\n\t\t_sendLogPayload(abi.encodeWithSignature(\"log(address,bool,bool,bool)\", p0, p1, p2, p3));\n\t}\n\n\tfunction log(address p0, bool p1, bool p2, address p3) internal view {\n\t\t_sendLogPayload(abi.encodeWithSignature(\"log(address,bool,bool,address)\", p0, p1, p2, p3));\n\t}\n\n\tfunction log(address p0, bool p1, address p2, uint p3) internal view {\n\t\t_sendLogPayload(abi.encodeWithSignature(\"log(address,bool,address,uint)\", p0, p1, p2, p3));\n\t}\n\n\tfunction log(address p0, bool p1, address p2, string memory p3) internal view {\n\t\t_sendLogPayload(abi.encodeWithSignature(\"log(address,bool,address,string)\", p0, p1, p2, p3));\n\t}\n\n\tfunction log(address p0, bool p1, address p2, bool p3) internal view {\n\t\t_sendLogPayload(abi.encodeWithSignature(\"log(address,bool,address,bool)\", p0, p1, p2, p3));\n\t}\n\n\tfunction log(address p0, bool p1, address p2, address p3) internal view {\n\t\t_sendLogPayload(abi.encodeWithSignature(\"log(address,bool,address,address)\", p0, p1, p2, p3));\n\t}\n\n\tfunction log(address p0, address p1, uint p2, uint p3) internal view {\n\t\t_sendLogPayload(abi.encodeWithSignature(\"log(address,address,uint,uint)\", p0, p1, p2, p3));\n\t}\n\n\tfunction log(address p0, address p1, uint p2, string memory p3) internal view {\n\t\t_sendLogPayload(abi.encodeWithSignature(\"log(address,address,uint,string)\", p0, p1, p2, p3));\n\t}\n\n\tfunction log(address p0, address p1, uint p2, bool p3) internal view {\n\t\t_sendLogPayload(abi.encodeWithSignature(\"log(address,address,uint,bool)\", p0, p1, p2, p3));\n\t}\n\n\tfunction log(address p0, address p1, uint p2, address p3) internal view {\n\t\t_sendLogPayload(abi.encodeWithSignature(\"log(address,address,uint,address)\", p0, p1, p2, p3));\n\t}\n\n\tfunction log(address p0, address p1, string memory p2, uint p3) internal view {\n\t\t_sendLogPayload(abi.encodeWithSignature(\"log(address,address,string,uint)\", p0, p1, p2, p3));\n\t}\n\n\tfunction log(address p0, address p1, string memory p2, string memory p3) internal view {\n\t\t_sendLogPayload(abi.encodeWithSignature(\"log(address,address,string,string)\", p0, p1, p2, p3));\n\t}\n\n\tfunction log(address p0, address p1, string memory p2, bool p3) internal view {\n\t\t_sendLogPayload(abi.encodeWithSignature(\"log(address,address,string,bool)\", p0, p1, p2, p3));\n\t}\n\n\tfunction log(address p0, address p1, string memory p2, address p3) internal view {\n\t\t_sendLogPayload(abi.encodeWithSignature(\"log(address,address,string,address)\", p0, p1, p2, p3));\n\t}\n\n\tfunction log(address p0, address p1, bool p2, uint p3) internal view {\n\t\t_sendLogPayload(abi.encodeWithSignature(\"log(address,address,bool,uint)\", p0, p1, p2, p3));\n\t}\n\n\tfunction log(address p0, address p1, bool p2, string memory p3) internal view {\n\t\t_sendLogPayload(abi.encodeWithSignature(\"log(address,address,bool,string)\", p0, p1, p2, p3));\n\t}\n\n\tfunction log(address p0, address p1, bool p2, bool p3) internal view {\n\t\t_sendLogPayload(abi.encodeWithSignature(\"log(address,address,bool,bool)\", p0, p1, p2, p3));\n\t}\n\n\tfunction log(address p0, address p1, bool p2, address p3) internal view {\n\t\t_sendLogPayload(abi.encodeWithSignature(\"log(address,address,bool,address)\", p0, p1, p2, p3));\n\t}\n\n\tfunction log(address p0, address p1, address p2, uint p3) internal view {\n\t\t_sendLogPayload(abi.encodeWithSignature(\"log(address,address,address,uint)\", p0, p1, p2, p3));\n\t}\n\n\tfunction log(address p0, address p1, address p2, string memory p3) internal view {\n\t\t_sendLogPayload(abi.encodeWithSignature(\"log(address,address,address,string)\", p0, p1, p2, p3));\n\t}\n\n\tfunction log(address p0, address p1, address p2, bool p3) internal view {\n\t\t_sendLogPayload(abi.encodeWithSignature(\"log(address,address,address,bool)\", p0, p1, p2, p3));\n\t}\n\n\tfunction log(address p0, address p1, address p2, address p3) internal view {\n\t\t_sendLogPayload(abi.encodeWithSignature(\"log(address,address,address,address)\", p0, p1, p2, p3));\n\t}\n\n}\n"
    },
    "contracts/ExplicitUserConsent.sol": {
      "content": "// /*\r\n\r\n// * Copyright (c) Siemens AG, 2020-2022\r\n\r\n// *\r\n\r\n// * Authors:\r\n\r\n// * Susanne Stahnke <susanne.stahnke@siemens.com>,\r\n\r\n// * Yvonne Kovacs <yvonne.kovacs@siemens.com>\r\n\r\n// *\r\n\r\n// * This work is licensed under the terms of Apache 2.0. See\r\n\r\n// * the LICENSE file in the top-level directory.\r\n\r\n// */\r\n\r\n\r\nimport \"hardhat/console.sol\";\r\nimport \"./Agreement.sol\";\r\n\r\n\r\ncontract ExplicitUserConsent {\r\n    \r\n    modifier onlyOwner(string memory _dataOfferingId, string memory _consentSubject) {\r\n    require(msg.sender == consents[_dataOfferingId][_consentSubject].consentOperator, \"Only the owner can revoke the consent.\");\r\n    _;\r\n    }\r\n    \r\n    //The owner of the consent and the actual entity/subject may be different.\r\n    //Well-being pilot, delegated. The owner: provider, subject: owner ->what identity if he is not digitally native?\r\n    //Different data owners with different addresses\r\n    //That's why we store both.\r\n    //One is the one who can operate the consent and the other one is the identifier of the actual data owner\r\n    \r\n    //location: within the country, within EU, other continent\r\n    //purpose\r\n\r\n    struct Consent {\r\n        string dataOfferingId;\r\n        string consentSubject;\r\n        address consentOperator;\r\n        string consentFormHash;\r\n        uint256 startDate; \r\n        uint256 endDate;\r\n        ConsentStatus status;\r\n    }\r\n\r\n    enum ConsentStatus {\r\n        Given, \r\n        Revoked\r\n    }\r\n\r\n    mapping (string => Consent[]) offeringToConsents;\r\n\r\n    //mapping(address => mapping (string => Consent)) public consents;\r\n    mapping(string => mapping (string => Consent)) consents;\r\n\r\n    event RevokeConsent(string[], string);\r\n\r\n    function giveConsent( string memory _dataOfferingId, string memory _consentSubject, string memory _consentFormHash, \r\n                            uint256 startDate, uint256 endDate) public {\r\n                            \r\n        Consent memory consent;\r\n        consent.dataOfferingId = _dataOfferingId;\r\n        consent.consentSubject = _consentSubject;\r\n        consent.consentOperator = msg.sender;\r\n        consent.consentFormHash = _consentFormHash;\r\n        consent.startDate = startDate;\r\n        consent.endDate = endDate;\r\n        consent.status = ConsentStatus.Given; //status\r\n\r\n        offeringToConsents[_dataOfferingId].push(consent); \r\n        consents[_dataOfferingId][_consentSubject] = consent;\r\n    }\r\n\r\n    // check all based on data offering -> return array\r\n    // check status for just one consent based on the consent subject -> return status\r\n\r\n     function checkConsentStatusByOffering(string memory _dataOfferingId) external view returns (ConsentStatus[] memory) {\r\n        Consent[] memory consentsByDataOffering = offeringToConsents[_dataOfferingId];\r\n        uint length = consentsByDataOffering.length;\r\n        ConsentStatus[] memory consentsStatus = new ConsentStatus[](length);\r\n        uint256 k = 0;\r\n        for(uint256 i=0; i < length; i++){\r\n            if(block.timestamp > consentsByDataOffering[i].endDate)\r\n                consentsByDataOffering[i].status = ConsentStatus.Revoked;\r\n            consentsStatus[k++] = consentsByDataOffering[i].status;\r\n        }\r\n        return consentsStatus;\r\n    }\r\n\r\n    function checkConsentStatusByConsentSubject(string memory _dataOfferingId, string memory _consentSubject) external view returns (ConsentStatus) {\r\n        Consent memory consent = consents[_dataOfferingId][_consentSubject];\r\n        if(block.timestamp > consent.endDate)\r\n                //revokeConsent(_addr, _dataOfferingId, _consentSubject);\r\n                consent.status = ConsentStatus.Revoked;\r\n                //consents[_dataOfferingId][_consentSubject].status = ConsentStatus.Revoked;\r\n        return consent.status;\r\n    }\r\n    //send state and if it revoked call revoke endpoint\r\n    \r\n    //if consent subject empty then revoke all consents\r\n    //require in function\r\n    //revoke consent where owner==msg.sender\r\n    function revokeConsent(address _addr, string memory _dataOfferingId, string memory _consentSubject) public{ //onlyOwner(_dataOfferingId, _consentSubject){\r\n        //check whether it is the consent owner \r\n\r\n        bytes memory emptyString = bytes(_consentSubject); \r\n        if (emptyString.length == 0) {\r\n            //revoke for all consent subjects\r\n             //require(offeringToConsents[_dataOfferingId][0].owner == msg.sender);\r\n            Consent[] memory consentsByDataOffering = offeringToConsents[_dataOfferingId];\r\n            uint length = consentsByDataOffering.length;\r\n            for(uint256 i=0; i < length; i++){\r\n                    offeringToConsents[_dataOfferingId][i].status = ConsentStatus.Revoked;\r\n             }   \r\n        } else {\r\n            //should update both consent mapping\r\n             require(consents[_dataOfferingId][_consentSubject].consentOperator == msg.sender);\r\n        \r\n            consents[_dataOfferingId][_consentSubject].status = ConsentStatus.Revoked; \r\n        }\r\n       \r\n        DataSharingAgreement agreement = DataSharingAgreement(_addr);\r\n\r\n        string[] memory consumers = agreement.notifyConsentRevoked(_dataOfferingId);\r\n\r\n        emit RevokeConsent(consumers, _dataOfferingId);\r\n    }\r\n}"
    }
  },
  "settings": {
    "optimizer": {
      "enabled": true,
      "runs": 500
    },
    "outputSelection": {
      "*": {
        "*": [
          "abi",
          "evm.bytecode",
          "evm.deployedBytecode",
          "evm.methodIdentifiers",
          "metadata",
          "devdoc",
          "userdoc",
          "storageLayout",
          "evm.gasEstimates"
        ],
        "": [
          "ast"
        ]
      }
    },
    "metadata": {
      "useLiteralContent": true
    }
  }
}